{
    "generals": {
        "generalData": {
            "ELECTORES_HABIL": "148",
            "TOT_CIUDADANOS_VOTARON": "18",
            "POR_CIUDADANOS_VOTARON": "12.16",
            "POR_ACTAS_CONTABILIZADAS": "100.00",
            "POR_ACTAS_PROCESADAS": "100.00",
            "ACTAS_PROCESADAS": "1",
            "POR_PROCESAR": "0",
            "CONTABILIZA": "1",
            "POR_POR_PROCESAR": "0.00"
        },
        "actData": {
            "FECHA": "10/12/2020",
            "HORA": "21:53 h",
            "POR_AVANCE": "    .0000"
        },
        "realImages": "1"
    },
    "results": [{
        "C_CODI_AGP": "21000043",
        "AGRUPACION": "MELENDEZ LOPEZ BENIGNA",
        "IMAGENAGRUPACION": null,
        "PORC_AVANCE_ACTA": "100.00",
        "ACTAS_COMPUTADA": "1",
        "TOTAL_MESAS": "1",
        "TOTAL_VOTOS": "1",
        "NLISTA": "43",
        "POR_EMITIDOS": "5.56",
        "POR_VALIDOS": "100.00"
    }, {
        "C_CODI_AGP": "21000044",
        "AGRUPACION": "HUAMAN GUIOP DE SALAZAR VIRGINIA",
        "IMAGENAGRUPACION": null,
        "PORC_AVANCE_ACTA": "100.00",
        "ACTAS_COMPUTADA": "1",
        "TOTAL_MESAS": "1",
        "TOTAL_VOTOS": "0",
        "NLISTA": "44",
        "POR_EMITIDOS": "0.00",
        "POR_VALIDOS": "0.00"
    }, {
        "C_CODI_AGP": null,
        "AGRUPACION": "TOTAL DE VOTOS VALIDOS",
        "IMAGENAGRUPACION": null,
        "PORC_AVANCE_ACTA": null,
        "ACTAS_COMPUTADA": null,
        "TOTAL_MESAS": null,
        "TOTAL_VOTOS": "1",
        "NLISTA": null,
        "POR_EMITIDOS": "5.56",
        "POR_VALIDOS": "100.00"
    }, {
        "C_CODI_AGP": "80",
        "AGRUPACION": "VOTOS EN BLANCO",
        "IMAGENAGRUPACION": null,
        "PORC_AVANCE_ACTA": "100.00",
        "ACTAS_COMPUTADA": "1",
        "TOTAL_MESAS": "1",
        "TOTAL_VOTOS": "4",
        "NLISTA": null,
        "POR_EMITIDOS": "22.22",
        "POR_VALIDOS": null
    }, {
        "C_CODI_AGP": "81",
        "AGRUPACION": "VOTOS NULOS",
        "IMAGENAGRUPACION": null,
        "PORC_AVANCE_ACTA": "100.00",
        "ACTAS_COMPUTADA": "1",
        "TOTAL_MESAS": "1",
        "TOTAL_VOTOS": "13",
        "NLISTA": null,
        "POR_EMITIDOS": "72.22",
        "POR_VALIDOS": null
    }, {
        "C_CODI_AGP": null,
        "AGRUPACION": "TOTAL DE VOTOS EMITIDOS",
        "IMAGENAGRUPACION": null,
        "PORC_AVANCE_ACTA": null,
        "ACTAS_COMPUTADA": null,
        "TOTAL_MESAS": null,
        "TOTAL_VOTOS": "18",
        "NLISTA": null,
        "POR_EMITIDOS": "100.00",
        "POR_VALIDOS": null
    }],
    "summary": {
        "CCODI_UBIGEO": "010100",
        "CONTABILIZA": "1",
        "CONT_NORMAL": "1",
        "IMPUGNADA": "0",
        "ERROR_MAT": "0",
        "MESAS_INSTALADAS": "1",
        "ACTAS_PROCESADAS": "1",
        "SOL_NULIDAD": "0",
        "ILEGIBLE": "0",
        "PENDIENTE": "0",
        "OTRAS_OBS": "0",
        "SIN_DATOS": "0",
        "CONT_ANULADA": "0",
        "POR_PROCESAR": "0",
        "EXTRAVIADA": "0",
        "SINIESTRADA": "0",
        "INCOMPLETA": "0",
        "SIN_FIRMA": "0",
        "A_INSTALAR": "1",
        "MESAS_NO_INST": "0",
        "FUSIONADAS": "0",
        "NTOTAL_AUTO": "0",
        "MESAS_HABILES": "1",
        "TOT_CIUDADANOS_VOTARON": "18",
        "ELECTORES_HABIL": "148",
        "ELECTORES_HABIL_50": "74",
        "TOTAL_JEE": "0"
    }
}