{
    "distritoelectoral": [{
        "CDGO_DEP": "D43001",
        "DESC_DEP": "AMAZONAS",
        "ESCANOS": 0,
        "NCAND": 0
    }, {
        "CDGO_DEP": "D43002",
        "DESC_DEP": "ANCASH",
        "ESCANOS": 0,
        "NCAND": 0
    }, {
        "CDGO_DEP": "D43003",
        "DESC_DEP": "APURIMAC",
        "ESCANOS": 0,
        "NCAND": 0
    }, {
        "CDGO_DEP": "D43004",
        "DESC_DEP": "AREQUIPA",
        "ESCANOS": 0,
        "NCAND": 0
    }, {
        "CDGO_DEP": "D43005",
        "DESC_DEP": "AYACUCHO",
        "ESCANOS": 0,
        "NCAND": 0
    }, {
        "CDGO_DEP": "D43006",
        "DESC_DEP": "CAJAMARCA",
        "ESCANOS": 0,
        "NCAND": 0
    }, {
        "CDGO_DEP": "D43007",
        "DESC_DEP": "CALLAO",
        "ESCANOS": 0,
        "NCAND": 0
    }, {
        "CDGO_DEP": "D43008",
        "DESC_DEP": "CUSCO",
        "ESCANOS": 0,
        "NCAND": 0
    }, {
        "CDGO_DEP": "D43009",
        "DESC_DEP": "HUANCAVELICA",
        "ESCANOS": 0,
        "NCAND": 0
    }, {
        "CDGO_DEP": "D43010",
        "DESC_DEP": "HUANUCO",
        "ESCANOS": 0,
        "NCAND": 0
    }, {
        "CDGO_DEP": "D43011",
        "DESC_DEP": "ICA",
        "ESCANOS": 0,
        "NCAND": 0
    }, {
        "CDGO_DEP": "D43012",
        "DESC_DEP": "JUNIN",
        "ESCANOS": 0,
        "NCAND": 0
    }, {
        "CDGO_DEP": "D43013",
        "DESC_DEP": "LA LIBERTAD",
        "ESCANOS": 0,
        "NCAND": 0
    }, {
        "CDGO_DEP": "D43014",
        "DESC_DEP": "LAMBAYEQUE",
        "ESCANOS": 0,
        "NCAND": 0
    }, {
        "CDGO_DEP": "D43015",
        "DESC_DEP": "LIMA",
        "ESCANOS": 0,
        "NCAND": 0
    }, {
        "CDGO_DEP": "D43016",
        "DESC_DEP": "LIMA PROVINCIAS",
        "ESCANOS": 0,
        "NCAND": 0
    }, {
        "CDGO_DEP": "D43017",
        "DESC_DEP": "LORETO",
        "ESCANOS": 0,
        "NCAND": 0
    }, {
        "CDGO_DEP": "D43018",
        "DESC_DEP": "MADRE DE DIOS",
        "ESCANOS": 0,
        "NCAND": 0
    }, {
        "CDGO_DEP": "D43019",
        "DESC_DEP": "MOQUEGUA",
        "ESCANOS": 0,
        "NCAND": 0
    }, {
        "CDGO_DEP": "D43020",
        "DESC_DEP": "PASCO",
        "ESCANOS": 0,
        "NCAND": 0
    }, {
        "CDGO_DEP": "D43021",
        "DESC_DEP": "PIURA",
        "ESCANOS": 0,
        "NCAND": 0
    }, {
        "CDGO_DEP": "D43022",
        "DESC_DEP": "PUNO",
        "ESCANOS": 0,
        "NCAND": 0
    }, {
        "CDGO_DEP": "D43023",
        "DESC_DEP": "SAN MARTIN",
        "ESCANOS": 0,
        "NCAND": 0
    }, {
        "CDGO_DEP": "D43024",
        "DESC_DEP": "TACNA",
        "ESCANOS": 0,
        "NCAND": 0
    }, {
        "CDGO_DEP": "D43025",
        "DESC_DEP": "TUMBES",
        "ESCANOS": 0,
        "NCAND": 0
    }, {
        "CDGO_DEP": "D43026",
        "DESC_DEP": "UCAYALI",
        "ESCANOS": 0,
        "NCAND": 0
    }, {
        "CDGO_DEP": "D43027",
        "DESC_DEP": "RESIDENTES EN EL EXTRANJERO",
        "ESCANOS": 0,
        "NCAND": 0
    }]
}