{
    "procesos": {
        "01": {
            "ELECCION": {
                "CCODI_PROCESO": "024",
                "NOMBRE": "MOVIMIENTO REGIONAL AMAZONENSE UNIDOS AL CAMPO",
                "CCODI_UBIGEO": "010205",
                "TNOMB_LOCAL": "IEIPSM Nº 16194",
                "TDIRE_LOCAL": "JR ICA SN CUADRA 12",
                "CCENT_COMPU": "C47001",
                "DEPARTAMENTO": "AMAZONAS",
                "PROVINCIA": "BAGUA",
                "DISTRITO": "BAGUA",
                "CCOPIA_ACTA": "03P",
                "NNUME_HABILM": 483,
                "OBSERVACION": "CONTABILIZADAS NORMALES",
                "OBSERVACION_TXT": "ACTA ELECTORAL NORMAL",
                "TOT_CIUDADANOS_VOTARON": 124
            },
            "votos": [{
                "CCODI_AUTO": "00003416",
                "AUTORIDAD": "LISTA N° 1",
                "N_LISTA": "1.jpg",
                "Gobernador": "115",
                "GOB_VALIDOS": "100.000",
                "GOB_EMITIDOS": "92.742"
            }, {
                "CCODI_AUTO": null,
                "AUTORIDAD": "TOTAL VOTOS VALIDOS",
                "Gobernador": "115",
                "GOB_VALIDOS": "100.000",
                "GOB_EMITIDOS": "92.742"
            }, {
                "CCODI_AUTO": "80",
                "AUTORIDAD": "VOTOS EN BLANCO",
                "Gobernador": "6",
                "GOB_EMITIDOS": "4.839",
                "GOB_VALIDOS": null
            }, {
                "CCODI_AUTO": "80",
                "AUTORIDAD": "VOTOS NULOS",
                "Gobernador": "3",
                "GOB_EMITIDOS": "2.419",
                "GOB_VALIDOS": null
            }, {
                "CCODI_AUTO": "80",
                "AUTORIDAD": "VOTOS IMPUGNADOS",
                "Gobernador": "0",
                "GOB_EMITIDOS": "0",
                "GOB_VALIDOS": null
            }, {
                "CCODI_AUTO": null,
                "AUTORIDAD": "TOTAL VOTOS EMITIDOS",
                "Gobernador": "124",
                "GOB_EMITIDOS": "100.000",
                "GOB_VALIDOS": "92.742"
            }],
            "resoluciones": [],
            "imageActa": "0"
        },
        "09": {
            "ELECCION": {
                "CCODI_PROCESO": "024",
                "NOMBRE": "MOVIMIENTO REGIONAL AMAZONENSE UNIDOS AL CAMPO",
                "CCODI_UBIGEO": "010205",
                "TNOMB_LOCAL": "IEIPSM Nº 16194",
                "TDIRE_LOCAL": "JR ICA SN CUADRA 12",
                "CCENT_COMPU": "C47001",
                "DEPARTAMENTO": "AMAZONAS",
                "PROVINCIA": "BAGUA",
                "DISTRITO": "BAGUA",
                "CCOPIA_ACTA": null,
                "NNUME_HABILM": 483,
                "OBSERVACION": "ACTA ELECTORAL PENDIENTE",
                "OBSERVACION_TXT": "ACTA ELECTORAL PENDIENTE",
                "TOT_CIUDADANOS_VOTARON": 0
            },
            "votos": [{
                "CCODI_AUTO": "01020004",
                "AUTORIDAD": "BAGUA",
                "TOTAL_VOTOS_SI": "0",
                "TOTAL_VOTOS_NO": null,
                "TOTAL_VOTOS_L3": "0",
                "TOTAL_VOTOS_L4": "0",
                "TOTAL_VOTOS_L5": "0",
                "TOTAL_VOTOS_L6": null,
                "TOTAL_VOTOS_BL": "0",
                "TOTAL_VOTOS_NL": "0",
                "TOTAL_VOTOS_IM": "0",
                "TOTAL_VOTOS_VAL": "0",
                "TOTAL_VOTOS_EM": "0",
                "N_ESCANOS": 2
            }, {
                "CCODI_AUTO": "01020203",
                "AUTORIDAD": "BAGUA - ARAMANGO",
                "TOTAL_VOTOS_SI": "0",
                "TOTAL_VOTOS_NO": "0",
                "TOTAL_VOTOS_L3": "0",
                "TOTAL_VOTOS_L4": "0",
                "TOTAL_VOTOS_L5": "0",
                "TOTAL_VOTOS_L6": "0",
                "TOTAL_VOTOS_BL": "0",
                "TOTAL_VOTOS_NL": "0",
                "TOTAL_VOTOS_IM": "0",
                "TOTAL_VOTOS_VAL": "0",
                "TOTAL_VOTOS_EM": "0",
                "N_ESCANOS": 1
            }, {
                "CCODI_AUTO": "01020302",
                "AUTORIDAD": "BAGUA - COPALLIN",
                "TOTAL_VOTOS_SI": "0",
                "TOTAL_VOTOS_NO": "0",
                "TOTAL_VOTOS_L3": "0",
                "TOTAL_VOTOS_L4": "0",
                "TOTAL_VOTOS_L5": "0",
                "TOTAL_VOTOS_L6": "0",
                "TOTAL_VOTOS_BL": "0",
                "TOTAL_VOTOS_NL": "0",
                "TOTAL_VOTOS_IM": "0",
                "TOTAL_VOTOS_VAL": "0",
                "TOTAL_VOTOS_EM": "0",
                "N_ESCANOS": 1
            }, {
                "CCODI_AUTO": "01020402",
                "AUTORIDAD": "BAGUA - EL PARCO",
                "TOTAL_VOTOS_SI": "0",
                "TOTAL_VOTOS_NO": "0",
                "TOTAL_VOTOS_L3": "0",
                "TOTAL_VOTOS_L4": "0",
                "TOTAL_VOTOS_L5": "0",
                "TOTAL_VOTOS_L6": "0",
                "TOTAL_VOTOS_BL": "0",
                "TOTAL_VOTOS_NL": "0",
                "TOTAL_VOTOS_IM": "0",
                "TOTAL_VOTOS_VAL": "0",
                "TOTAL_VOTOS_EM": "0",
                "N_ESCANOS": 1
            }, {
                "CCODI_AUTO": "01020603",
                "AUTORIDAD": "BAGUA - IMAZA",
                "TOTAL_VOTOS_SI": "0",
                "TOTAL_VOTOS_NO": "0",
                "TOTAL_VOTOS_L3": "0",
                "TOTAL_VOTOS_L4": "0",
                "TOTAL_VOTOS_L5": "0",
                "TOTAL_VOTOS_L6": "0",
                "TOTAL_VOTOS_BL": "0",
                "TOTAL_VOTOS_NL": "0",
                "TOTAL_VOTOS_IM": "0",
                "TOTAL_VOTOS_VAL": "0",
                "TOTAL_VOTOS_EM": "0",
                "N_ESCANOS": 1
            }, {
                "CCODI_AUTO": "01020102",
                "AUTORIDAD": "BAGUA - LA PECA",
                "TOTAL_VOTOS_SI": "0",
                "TOTAL_VOTOS_NO": "0",
                "TOTAL_VOTOS_L3": "0",
                "TOTAL_VOTOS_L4": "0",
                "TOTAL_VOTOS_L5": "0",
                "TOTAL_VOTOS_L6": "0",
                "TOTAL_VOTOS_BL": "0",
                "TOTAL_VOTOS_NL": "0",
                "TOTAL_VOTOS_IM": "0",
                "TOTAL_VOTOS_VAL": "0",
                "TOTAL_VOTOS_EM": "0",
                "N_ESCANOS": 1
            }, {
                "CCODI_AUTO": "01030001",
                "AUTORIDAD": "BONGARA",
                "TOTAL_VOTOS_SI": "0",
                "TOTAL_VOTOS_NO": "0",
                "TOTAL_VOTOS_L3": "0",
                "TOTAL_VOTOS_L4": "0",
                "TOTAL_VOTOS_L5": "0",
                "TOTAL_VOTOS_L6": "0",
                "TOTAL_VOTOS_BL": "0",
                "TOTAL_VOTOS_NL": "0",
                "TOTAL_VOTOS_IM": "0",
                "TOTAL_VOTOS_VAL": "0",
                "TOTAL_VOTOS_EM": "0",
                "N_ESCANOS": 1
            }, {
                "CCODI_AUTO": "01030401",
                "AUTORIDAD": "BONGARA - CHISQUILLA",
                "TOTAL_VOTOS_SI": "0",
                "TOTAL_VOTOS_NO": "0",
                "TOTAL_VOTOS_L3": "0",
                "TOTAL_VOTOS_L4": "0",
                "TOTAL_VOTOS_L5": "0",
                "TOTAL_VOTOS_L6": "0",
                "TOTAL_VOTOS_BL": "0",
                "TOTAL_VOTOS_NL": "0",
                "TOTAL_VOTOS_IM": "0",
                "TOTAL_VOTOS_VAL": "0",
                "TOTAL_VOTOS_EM": "0",
                "N_ESCANOS": 1
            }, {
                "CCODI_AUTO": "01030201",
                "AUTORIDAD": "BONGARA - COROSHA",
                "TOTAL_VOTOS_SI": "0",
                "TOTAL_VOTOS_NO": "0",
                "TOTAL_VOTOS_L3": "0",
                "TOTAL_VOTOS_L4": "0",
                "TOTAL_VOTOS_L5": "0",
                "TOTAL_VOTOS_L6": "0",
                "TOTAL_VOTOS_BL": "0",
                "TOTAL_VOTOS_NL": "0",
                "TOTAL_VOTOS_IM": "0",
                "TOTAL_VOTOS_VAL": "0",
                "TOTAL_VOTOS_EM": "0",
                "N_ESCANOS": 1
            }, {
                "CCODI_AUTO": "01030301",
                "AUTORIDAD": "BONGARA - CUISPES",
                "TOTAL_VOTOS_SI": "0",
                "TOTAL_VOTOS_NO": "0",
                "TOTAL_VOTOS_L3": "0",
                "TOTAL_VOTOS_L4": "0",
                "TOTAL_VOTOS_L5": "0",
                "TOTAL_VOTOS_L6": "0",
                "TOTAL_VOTOS_BL": "0",
                "TOTAL_VOTOS_NL": "0",
                "TOTAL_VOTOS_IM": "0",
                "TOTAL_VOTOS_VAL": "0",
                "TOTAL_VOTOS_EM": "0",
                "N_ESCANOS": 1
            }, {
                "CCODI_AUTO": "01030602",
                "AUTORIDAD": "BONGARA - FLORIDA",
                "TOTAL_VOTOS_SI": "0",
                "TOTAL_VOTOS_NO": "0",
                "TOTAL_VOTOS_L3": "0",
                "TOTAL_VOTOS_L4": "0",
                "TOTAL_VOTOS_L5": "0",
                "TOTAL_VOTOS_L6": "0",
                "TOTAL_VOTOS_BL": "0",
                "TOTAL_VOTOS_NL": "0",
                "TOTAL_VOTOS_IM": "0",
                "TOTAL_VOTOS_VAL": "0",
                "TOTAL_VOTOS_EM": "0",
                "N_ESCANOS": 1
            }, {
                "CCODI_AUTO": "01031203",
                "AUTORIDAD": "BONGARA - JAZAN",
                "TOTAL_VOTOS_SI": "0",
                "TOTAL_VOTOS_NO": "0",
                "TOTAL_VOTOS_L3": "0",
                "TOTAL_VOTOS_L4": "0",
                "TOTAL_VOTOS_L5": "0",
                "TOTAL_VOTOS_L6": "0",
                "TOTAL_VOTOS_BL": "0",
                "TOTAL_VOTOS_NL": "0",
                "TOTAL_VOTOS_IM": "0",
                "TOTAL_VOTOS_VAL": "0",
                "TOTAL_VOTOS_EM": "0",
                "N_ESCANOS": 1
            }, {
                "CCODI_AUTO": "01030801",
                "AUTORIDAD": "BONGARA - SAN CARLOS",
                "TOTAL_VOTOS_SI": "0",
                "TOTAL_VOTOS_NO": "0",
                "TOTAL_VOTOS_L3": "0",
                "TOTAL_VOTOS_L4": "0",
                "TOTAL_VOTOS_L5": "0",
                "TOTAL_VOTOS_L6": "0",
                "TOTAL_VOTOS_BL": "0",
                "TOTAL_VOTOS_NL": "0",
                "TOTAL_VOTOS_IM": "0",
                "TOTAL_VOTOS_VAL": "0",
                "TOTAL_VOTOS_EM": "0",
                "N_ESCANOS": 1
            }, {
                "CCODI_AUTO": "01030901",
                "AUTORIDAD": "BONGARA - SHIPASBAMBA",
                "TOTAL_VOTOS_SI": "0",
                "TOTAL_VOTOS_NO": "0",
                "TOTAL_VOTOS_L3": "0",
                "TOTAL_VOTOS_L4": "0",
                "TOTAL_VOTOS_L5": "0",
                "TOTAL_VOTOS_L6": "0",
                "TOTAL_VOTOS_BL": "0",
                "TOTAL_VOTOS_NL": "0",
                "TOTAL_VOTOS_IM": "0",
                "TOTAL_VOTOS_VAL": "0",
                "TOTAL_VOTOS_EM": "0",
                "N_ESCANOS": 1
            }, {
                "CCODI_AUTO": "01031001",
                "AUTORIDAD": "BONGARA - VALERA",
                "TOTAL_VOTOS_SI": "0",
                "TOTAL_VOTOS_NO": "0",
                "TOTAL_VOTOS_L3": "0",
                "TOTAL_VOTOS_L4": "0",
                "TOTAL_VOTOS_L5": "0",
                "TOTAL_VOTOS_L6": "0",
                "TOTAL_VOTOS_BL": "0",
                "TOTAL_VOTOS_NL": "0",
                "TOTAL_VOTOS_IM": "0",
                "TOTAL_VOTOS_VAL": "0",
                "TOTAL_VOTOS_EM": "0",
                "N_ESCANOS": 1
            }, {
                "CCODI_AUTO": "01031101",
                "AUTORIDAD": "BONGARA - YAMBRASBAMBA",
                "TOTAL_VOTOS_SI": "0",
                "TOTAL_VOTOS_NO": "0",
                "TOTAL_VOTOS_L3": "0",
                "TOTAL_VOTOS_L4": "0",
                "TOTAL_VOTOS_L5": "0",
                "TOTAL_VOTOS_L6": "0",
                "TOTAL_VOTOS_BL": "0",
                "TOTAL_VOTOS_NL": "0",
                "TOTAL_VOTOS_IM": "0",
                "TOTAL_VOTOS_VAL": "0",
                "TOTAL_VOTOS_EM": "0",
                "N_ESCANOS": 1
            }, {
                "CCODI_AUTO": "01010003",
                "AUTORIDAD": "CHACHAPOYAS",
                "TOTAL_VOTOS_SI": "0",
                "TOTAL_VOTOS_NO": "0",
                "TOTAL_VOTOS_L3": "0",
                "TOTAL_VOTOS_L4": "0",
                "TOTAL_VOTOS_L5": "0",
                "TOTAL_VOTOS_L6": "0",
                "TOTAL_VOTOS_BL": "0",
                "TOTAL_VOTOS_NL": "0",
                "TOTAL_VOTOS_IM": "0",
                "TOTAL_VOTOS_VAL": "0",
                "TOTAL_VOTOS_EM": "0",
                "N_ESCANOS": 1
            }, {
                "CCODI_AUTO": "01060003",
                "AUTORIDAD": "CONDORCANQUI",
                "TOTAL_VOTOS_SI": "0",
                "TOTAL_VOTOS_NO": "0",
                "TOTAL_VOTOS_L3": "0",
                "TOTAL_VOTOS_L4": "0",
                "TOTAL_VOTOS_L5": "0",
                "TOTAL_VOTOS_L6": "0",
                "TOTAL_VOTOS_BL": "0",
                "TOTAL_VOTOS_NL": "0",
                "TOTAL_VOTOS_IM": "0",
                "TOTAL_VOTOS_VAL": "0",
                "TOTAL_VOTOS_EM": "0",
                "N_ESCANOS": 1
            }, {
                "CCODI_AUTO": "01060303",
                "AUTORIDAD": "CONDORCANQUI - EL CENEPA",
                "TOTAL_VOTOS_SI": "0",
                "TOTAL_VOTOS_NO": "0",
                "TOTAL_VOTOS_L3": "0",
                "TOTAL_VOTOS_L4": "0",
                "TOTAL_VOTOS_L5": "0",
                "TOTAL_VOTOS_L6": "0",
                "TOTAL_VOTOS_BL": "0",
                "TOTAL_VOTOS_NL": "0",
                "TOTAL_VOTOS_IM": "0",
                "TOTAL_VOTOS_VAL": "0",
                "TOTAL_VOTOS_EM": "0",
                "N_ESCANOS": 1
            }, {
                "CCODI_AUTO": "01060204",
                "AUTORIDAD": "CONDORCANQUI - RIO SANTIAGO",
                "TOTAL_VOTOS_SI": "0",
                "TOTAL_VOTOS_NO": "0",
                "TOTAL_VOTOS_L3": "0",
                "TOTAL_VOTOS_L4": "0",
                "TOTAL_VOTOS_L5": "0",
                "TOTAL_VOTOS_L6": "0",
                "TOTAL_VOTOS_BL": "0",
                "TOTAL_VOTOS_NL": "0",
                "TOTAL_VOTOS_IM": "0",
                "TOTAL_VOTOS_VAL": "0",
                "TOTAL_VOTOS_EM": "0",
                "N_ESCANOS": 1
            }, {
                "CCODI_AUTO": "01050302",
                "AUTORIDAD": "RODRIGUEZ DE MENDOZA - CHIRIMOTO",
                "TOTAL_VOTOS_SI": "0",
                "TOTAL_VOTOS_NO": "0",
                "TOTAL_VOTOS_L3": "0",
                "TOTAL_VOTOS_L4": "0",
                "TOTAL_VOTOS_L5": "0",
                "TOTAL_VOTOS_L6": "0",
                "TOTAL_VOTOS_BL": "0",
                "TOTAL_VOTOS_NL": "0",
                "TOTAL_VOTOS_IM": "0",
                "TOTAL_VOTOS_VAL": "0",
                "TOTAL_VOTOS_EM": "0",
                "N_ESCANOS": 1
            }, {
                "CCODI_AUTO": "01070003",
                "AUTORIDAD": "UTCUBAMBA",
                "TOTAL_VOTOS_SI": "0",
                "TOTAL_VOTOS_NO": "0",
                "TOTAL_VOTOS_L3": "0",
                "TOTAL_VOTOS_L4": "0",
                "TOTAL_VOTOS_L5": "0",
                "TOTAL_VOTOS_L6": "0",
                "TOTAL_VOTOS_BL": "0",
                "TOTAL_VOTOS_NL": "0",
                "TOTAL_VOTOS_IM": "0",
                "TOTAL_VOTOS_VAL": "0",
                "TOTAL_VOTOS_EM": "0",
                "N_ESCANOS": 1
            }, {
                "CCODI_AUTO": "01070203",
                "AUTORIDAD": "UTCUBAMBA - CAJARURO",
                "TOTAL_VOTOS_SI": "0",
                "TOTAL_VOTOS_NO": "0",
                "TOTAL_VOTOS_L3": "0",
                "TOTAL_VOTOS_L4": "0",
                "TOTAL_VOTOS_L5": "0",
                "TOTAL_VOTOS_L6": "0",
                "TOTAL_VOTOS_BL": "0",
                "TOTAL_VOTOS_NL": "0",
                "TOTAL_VOTOS_IM": "0",
                "TOTAL_VOTOS_VAL": "0",
                "TOTAL_VOTOS_EM": "0",
                "N_ESCANOS": 1
            }, {
                "CCODI_AUTO": "01070302",
                "AUTORIDAD": "UTCUBAMBA - CUMBA",
                "TOTAL_VOTOS_SI": "0",
                "TOTAL_VOTOS_NO": "0",
                "TOTAL_VOTOS_L3": "0",
                "TOTAL_VOTOS_L4": "0",
                "TOTAL_VOTOS_L5": "0",
                "TOTAL_VOTOS_L6": "0",
                "TOTAL_VOTOS_BL": "0",
                "TOTAL_VOTOS_NL": "0",
                "TOTAL_VOTOS_IM": "0",
                "TOTAL_VOTOS_VAL": "0",
                "TOTAL_VOTOS_EM": "0",
                "N_ESCANOS": 1
            }, {
                "CCODI_AUTO": "01070403",
                "AUTORIDAD": "UTCUBAMBA - EL MILAGRO",
                "TOTAL_VOTOS_SI": "0",
                "TOTAL_VOTOS_NO": "0",
                "TOTAL_VOTOS_L3": "0",
                "TOTAL_VOTOS_L4": "0",
                "TOTAL_VOTOS_L5": "0",
                "TOTAL_VOTOS_L6": "0",
                "TOTAL_VOTOS_BL": "0",
                "TOTAL_VOTOS_NL": "0",
                "TOTAL_VOTOS_IM": "0",
                "TOTAL_VOTOS_VAL": "0",
                "TOTAL_VOTOS_EM": "0",
                "N_ESCANOS": 1
            }, {
                "CCODI_AUTO": "01070501",
                "AUTORIDAD": "UTCUBAMBA - JAMALCA",
                "TOTAL_VOTOS_SI": "0",
                "TOTAL_VOTOS_NO": "0",
                "TOTAL_VOTOS_L3": "0",
                "TOTAL_VOTOS_L4": "0",
                "TOTAL_VOTOS_L5": "0",
                "TOTAL_VOTOS_L6": "0",
                "TOTAL_VOTOS_BL": "0",
                "TOTAL_VOTOS_NL": "0",
                "TOTAL_VOTOS_IM": "0",
                "TOTAL_VOTOS_VAL": "0",
                "TOTAL_VOTOS_EM": "0",
                "N_ESCANOS": 1
            }, {
                "CCODI_AUTO": "01070601",
                "AUTORIDAD": "UTCUBAMBA - LONYA GRANDE",
                "TOTAL_VOTOS_SI": "0",
                "TOTAL_VOTOS_NO": "0",
                "TOTAL_VOTOS_L3": "0",
                "TOTAL_VOTOS_L4": "0",
                "TOTAL_VOTOS_L5": "0",
                "TOTAL_VOTOS_L6": "0",
                "TOTAL_VOTOS_BL": "0",
                "TOTAL_VOTOS_NL": "0",
                "TOTAL_VOTOS_IM": "0",
                "TOTAL_VOTOS_VAL": "0",
                "TOTAL_VOTOS_EM": "0",
                "N_ESCANOS": 1
            }, {
                "CCODI_AUTO": "01070703",
                "AUTORIDAD": "UTCUBAMBA - YAMON",
                "TOTAL_VOTOS_SI": "0",
                "TOTAL_VOTOS_NO": "0",
                "TOTAL_VOTOS_L3": "0",
                "TOTAL_VOTOS_L4": "0",
                "TOTAL_VOTOS_L5": "0",
                "TOTAL_VOTOS_L6": "0",
                "TOTAL_VOTOS_BL": "0",
                "TOTAL_VOTOS_NL": "0",
                "TOTAL_VOTOS_IM": "0",
                "TOTAL_VOTOS_VAL": "0",
                "TOTAL_VOTOS_EM": "0",
                "N_ESCANOS": 1
            }],
            "resoluciones": [],
            "imageActa": "0"
        },
        "asistioNoVoto": "0",
        "realImages": "1",
        "C_CODI_PROCESO": "024",
        "NOMBRE": "MOVIMIENTO REGIONAL AMAZONENSE UNIDOS AL CAMPO"
    }
}