{
    "generals": {
        "generalData": {
            "ELECTORES_HABIL": "1,765",
            "TOT_CIUDADANOS_VOTARON": "280",
            "POR_CIUDADANOS_VOTARON": "15.86",
            "POR_ACTAS_CONTABILIZADAS": "100.00",
            "POR_ACTAS_PROCESADAS": "100.00",
            "ACTAS_PROCESADAS": "3",
            "POR_PROCESAR": "0",
            "CONTABILIZA": "3",
            "POR_POR_PROCESAR": "0.00"
        },
        "actData": {
            "FECHA": "10/12/2020",
            "HORA": "21:53 h",
            "POR_AVANCE": null
        },
        "realImages": "1"
    },
    "results": [{
            "C_CODI_AGP": "21000035",
            "AGRUPACION": "BARRIOS LLACSA VICTOR HUGO",
            "IMAGENAGRUPACION": null,
            "PORC_AVANCE_ACTA": "100.00",
            "ACTAS_COMPUTADA": "3",
            "TOTAL_MESAS": "3",
            "TOTAL_VOTOS": "133",
            "NLISTA": "35",
            "POR_EMITIDOS": "47.50",
            "POR_VALIDOS": "63.03"
        },
        {
            "C_CODI_AGP": "21000036",
            "AGRUPACION": "RAMOS CHORRES HENRY ALFONSO",
            "IMAGENAGRUPACION": null,
            "PORC_AVANCE_ACTA": "100.00",
            "ACTAS_COMPUTADA": "3",
            "TOTAL_MESAS": "3",
            "TOTAL_VOTOS": "78",
            "NLISTA": "36",
            "POR_EMITIDOS": "27.86",
            "POR_VALIDOS": "36.97"
        },
        {
            "C_CODI_AGP": null,
            "AGRUPACION": "TOTAL DE VOTOS VALIDOS",
            "IMAGENAGRUPACION": null,
            "PORC_AVANCE_ACTA": null,
            "ACTAS_COMPUTADA": null,
            "TOTAL_MESAS": null,
            "TOTAL_VOTOS": "211",
            "NLISTA": null,
            "POR_EMITIDOS": "75.36",
            "POR_VALIDOS": "100.00"
        },
        {
            "C_CODI_AGP": "80",
            "AGRUPACION": "VOTOS EN BLANCO",
            "IMAGENAGRUPACION": null,
            "PORC_AVANCE_ACTA": "300.00",
            "ACTAS_COMPUTADA": "3",
            "TOTAL_MESAS": "3",
            "TOTAL_VOTOS": "5",
            "NLISTA": null,
            "POR_EMITIDOS": "1.79",
            "POR_VALIDOS": null
        },
        {
            "C_CODI_AGP": "81",
            "AGRUPACION": "VOTOS NULOS",
            "IMAGENAGRUPACION": null,
            "PORC_AVANCE_ACTA": "300.00",
            "ACTAS_COMPUTADA": "3",
            "TOTAL_MESAS": "3",
            "TOTAL_VOTOS": "64",
            "NLISTA": null,
            "POR_EMITIDOS": "22.86",
            "POR_VALIDOS": null
        },
        {
            "C_CODI_AGP": null,
            "AGRUPACION": "TOTAL DE VOTOS EMITIDOS",
            "IMAGENAGRUPACION": null,
            "PORC_AVANCE_ACTA": null,
            "ACTAS_COMPUTADA": null,
            "TOTAL_MESAS": null,
            "TOTAL_VOTOS": "280",
            "NLISTA": null,
            "POR_EMITIDOS": "100.00",
            "POR_VALIDOS": null
        }
    ],
    "summary": {
        "CCODI_UBIGEO": "190000",
        "CONTABILIZA": "3",
        "CONT_NORMAL": "3",
        "IMPUGNADA": "0",
        "ERROR_MAT": "0",
        "MESAS_INSTALADAS": "3",
        "ACTAS_PROCESADAS": "3",
        "SOL_NULIDAD": "0",
        "ILEGIBLE": "0",
        "PENDIENTE": "0",
        "OTRAS_OBS": "0",
        "SIN_DATOS": "0",
        "CONT_ANULADA": "0",
        "POR_PROCESAR": "0",
        "EXTRAVIADA": "0",
        "SINIESTRADA": "0",
        "INCOMPLETA": "0",
        "SIN_FIRMA": "0",
        "A_INSTALAR": "3",
        "MESAS_NO_INST": "0",
        "FUSIONADAS": "0",
        "NTOTAL_AUTO": "0",
        "MESAS_HABILES": "3",
        "TOT_CIUDADANOS_VOTARON": "280",
        "ELECTORES_HABIL": "1,765",
        "ELECTORES_HABIL_50": "884",
        "TOTAL_JEE": "0"
    }
}