{
    "totalNacional": {
        "TOT_ASISTENTES": "17,713,716",
        "POR_TOT_ASISTENTES": "70.048",
        "TOT_AUSENTES": "7,574,238",
        "POR_TOT_AUSENTES": "29.952",
        "TOT_ELECTORES_HABILES": "25,287,954"
    },
    "lastAct": {
        "FECHA": "31/05/2021",
        "HORA": "16:29 h",
        "POR_AVANCE": " 100.000"
    }
}