{
    "generals": {
        "generalData": {
            "ELECTORES_HABIL": "624",
            "TOT_CIUDADANOS_VOTARON": "291",
            "POR_CIUDADANOS_VOTARON": "46.63",
            "POR_ACTAS_CONTABILIZADAS": "100.00",
            "POR_ACTAS_PROCESADAS": "100.00",
            "ACTAS_PROCESADAS": "1",
            "POR_PROCESAR": "0",
            "CONTABILIZA": "1",
            "POR_POR_PROCESAR": "0.00"
        },
        "actData": {
            "FECHA": "10/12/2020",
            "HORA": "21:53 h",
            "POR_AVANCE": " 100.0000"
        },
        "realImages": "1"
    },
    "results": [{
        "C_CODI_AGP": "21000277",
        "AGRUPACION": "ESPINOZA SANCHEZ MANUEL",
        "IMAGENAGRUPACION": null,
        "PORC_AVANCE_ACTA": "100.00",
        "ACTAS_COMPUTADA": "1",
        "TOTAL_MESAS": "1",
        "TOTAL_VOTOS": "77",
        "NLISTA": "277",
        "POR_EMITIDOS": "26.46",
        "POR_VALIDOS": "32.35"
    }, {
        "C_CODI_AGP": "21000278",
        "AGRUPACION": "CCANTO ARCOS JHONNY JOSE",
        "IMAGENAGRUPACION": null,
        "PORC_AVANCE_ACTA": "100.00",
        "ACTAS_COMPUTADA": "1",
        "TOTAL_MESAS": "1",
        "TOTAL_VOTOS": "161",
        "NLISTA": "278",
        "POR_EMITIDOS": "55.33",
        "POR_VALIDOS": "67.65"
    }, {
        "C_CODI_AGP": null,
        "AGRUPACION": "TOTAL DE VOTOS VALIDOS",
        "IMAGENAGRUPACION": null,
        "PORC_AVANCE_ACTA": null,
        "ACTAS_COMPUTADA": null,
        "TOTAL_MESAS": null,
        "TOTAL_VOTOS": "238",
        "NLISTA": null,
        "POR_EMITIDOS": "81.79",
        "POR_VALIDOS": "100.00"
    }, {
        "C_CODI_AGP": "80",
        "AGRUPACION": "VOTOS EN BLANCO",
        "IMAGENAGRUPACION": null,
        "PORC_AVANCE_ACTA": "100.00",
        "ACTAS_COMPUTADA": "1",
        "TOTAL_MESAS": "1",
        "TOTAL_VOTOS": "8",
        "NLISTA": null,
        "POR_EMITIDOS": "2.75",
        "POR_VALIDOS": null
    }, {
        "C_CODI_AGP": "81",
        "AGRUPACION": "VOTOS NULOS",
        "IMAGENAGRUPACION": null,
        "PORC_AVANCE_ACTA": "100.00",
        "ACTAS_COMPUTADA": "1",
        "TOTAL_MESAS": "1",
        "TOTAL_VOTOS": "45",
        "NLISTA": null,
        "POR_EMITIDOS": "15.46",
        "POR_VALIDOS": null
    }, {
        "C_CODI_AGP": null,
        "AGRUPACION": "TOTAL DE VOTOS EMITIDOS",
        "IMAGENAGRUPACION": null,
        "PORC_AVANCE_ACTA": null,
        "ACTAS_COMPUTADA": null,
        "TOTAL_MESAS": null,
        "TOTAL_VOTOS": "291",
        "NLISTA": null,
        "POR_EMITIDOS": "100.00",
        "POR_VALIDOS": null
    }],
    "summary": {
        "CCODI_UBIGEO": "140132",
        "CONTABILIZA": "1",
        "CONT_NORMAL": "1",
        "IMPUGNADA": "0",
        "ERROR_MAT": "0",
        "MESAS_INSTALADAS": "1",
        "ACTAS_PROCESADAS": "1",
        "SOL_NULIDAD": "0",
        "ILEGIBLE": "0",
        "PENDIENTE": "0",
        "OTRAS_OBS": "0",
        "SIN_DATOS": "0",
        "CONT_ANULADA": "0",
        "POR_PROCESAR": "0",
        "EXTRAVIADA": "0",
        "SINIESTRADA": "0",
        "INCOMPLETA": "0",
        "SIN_FIRMA": "0",
        "A_INSTALAR": "1",
        "MESAS_NO_INST": "0",
        "FUSIONADAS": "0",
        "NTOTAL_AUTO": "0",
        "MESAS_HABILES": "1",
        "TOT_CIUDADANOS_VOTARON": "291",
        "ELECTORES_HABIL": "624",
        "ELECTORES_HABIL_50": "312",
        "TOTAL_JEE": "0"
    }
}