{
    "departments": [{
        "CDGO_DEP": "050000",
        "DESC_DEP": "AYACUCHO",
        "CDGO_PADRE": "000000"
    }],
    "provinces": [{
        "CDGO_PROV": "050200",
        "DESC_PROV": "CANGALLO",
        "CDGO_PADRE": "050000"
    }, {
        "CDGO_PROV": "050100",
        "DESC_PROV": "HUAMANGA",
        "CDGO_PADRE": "050000"
    }, {
        "CDGO_PROV": "050800",
        "DESC_PROV": "HUANCA SANCOS",
        "CDGO_PADRE": "050000"
    }, {
        "CDGO_PROV": "050300",
        "DESC_PROV": "HUANTA",
        "CDGO_PADRE": "050000"
    }, {
        "CDGO_PROV": "050400",
        "DESC_PROV": "LA MAR",
        "CDGO_PADRE": "050000"
    }, {
        "CDGO_PROV": "050500",
        "DESC_PROV": "LUCANAS",
        "CDGO_PADRE": "050000"
    }, {
        "CDGO_PROV": "050600",
        "DESC_PROV": "PARINACOCHAS",
        "CDGO_PADRE": "050000"
    }, {
        "CDGO_PROV": "051000",
        "DESC_PROV": "PAUCAR DEL SARA SARA",
        "CDGO_PADRE": "050000"
    }, {
        "CDGO_PROV": "051100",
        "DESC_PROV": "SUCRE",
        "CDGO_PADRE": "050000"
    }, {
        "CDGO_PROV": "050700",
        "DESC_PROV": "VICTOR FAJARDO",
        "CDGO_PADRE": "050000"
    }, {
        "CDGO_PROV": "050900",
        "DESC_PROV": "VILCAS HUAMAN",
        "CDGO_PADRE": "050000"
    }],
    "districts": [{
        "CDGO_DIST": "050101",
        "DESC_DIST": "AYACUCHO",
        "CDGO_PADRE": "050100",
        "C_DESC_DEPARTAMENTO": "AYACUCHO",
        "C_DESC_PROVINCIA": "HUAMANGA"
    }, {
        "CDGO_DIST": "050102",
        "DESC_DIST": "ACOS VINCHOS",
        "CDGO_PADRE": "050100",
        "C_DESC_DEPARTAMENTO": "AYACUCHO",
        "C_DESC_PROVINCIA": "HUAMANGA"
    }, {
        "CDGO_DIST": "050103",
        "DESC_DIST": "CARMEN ALTO",
        "CDGO_PADRE": "050100",
        "C_DESC_DEPARTAMENTO": "AYACUCHO",
        "C_DESC_PROVINCIA": "HUAMANGA"
    }, {
        "CDGO_DIST": "050104",
        "DESC_DIST": "CHIARA",
        "CDGO_PADRE": "050100",
        "C_DESC_DEPARTAMENTO": "AYACUCHO",
        "C_DESC_PROVINCIA": "HUAMANGA"
    }, {
        "CDGO_DIST": "050105",
        "DESC_DIST": "QUINUA",
        "CDGO_PADRE": "050100",
        "C_DESC_DEPARTAMENTO": "AYACUCHO",
        "C_DESC_PROVINCIA": "HUAMANGA"
    }, {
        "CDGO_DIST": "050106",
        "DESC_DIST": "SAN JOSE DE TICLLAS",
        "CDGO_PADRE": "050100",
        "C_DESC_DEPARTAMENTO": "AYACUCHO",
        "C_DESC_PROVINCIA": "HUAMANGA"
    }, {
        "CDGO_DIST": "050107",
        "DESC_DIST": "SAN JUAN BAUTISTA",
        "CDGO_PADRE": "050100",
        "C_DESC_DEPARTAMENTO": "AYACUCHO",
        "C_DESC_PROVINCIA": "HUAMANGA"
    }, {
        "CDGO_DIST": "050109",
        "DESC_DIST": "VINCHOS",
        "CDGO_PADRE": "050100",
        "C_DESC_DEPARTAMENTO": "AYACUCHO",
        "C_DESC_PROVINCIA": "HUAMANGA"
    }, {
        "CDGO_DIST": "050111",
        "DESC_DIST": "ACOCRO",
        "CDGO_PADRE": "050100",
        "C_DESC_DEPARTAMENTO": "AYACUCHO",
        "C_DESC_PROVINCIA": "HUAMANGA"
    }, {
        "CDGO_DIST": "050112",
        "DESC_DIST": "SOCOS",
        "CDGO_PADRE": "050100",
        "C_DESC_DEPARTAMENTO": "AYACUCHO",
        "C_DESC_PROVINCIA": "HUAMANGA"
    }, {
        "CDGO_DIST": "050113",
        "DESC_DIST": "OCROS",
        "CDGO_PADRE": "050100",
        "C_DESC_DEPARTAMENTO": "AYACUCHO",
        "C_DESC_PROVINCIA": "HUAMANGA"
    }, {
        "CDGO_DIST": "050115",
        "DESC_DIST": "JESUS NAZARENO",
        "CDGO_PADRE": "050100",
        "C_DESC_DEPARTAMENTO": "AYACUCHO",
        "C_DESC_PROVINCIA": "HUAMANGA"
    }, {
        "CDGO_DIST": "050116",
        "DESC_DIST": "ANDRES AVELINO CACERES DORREGARAY",
        "CDGO_PADRE": "050100",
        "C_DESC_DEPARTAMENTO": "AYACUCHO",
        "C_DESC_PROVINCIA": "HUAMANGA"
    }, {
        "CDGO_DIST": "050201",
        "DESC_DIST": "CANGALLO",
        "CDGO_PADRE": "050200",
        "C_DESC_DEPARTAMENTO": "AYACUCHO",
        "C_DESC_PROVINCIA": "CANGALLO"
    }, {
        "CDGO_DIST": "050204",
        "DESC_DIST": "CHUSCHI",
        "CDGO_PADRE": "050200",
        "C_DESC_DEPARTAMENTO": "AYACUCHO",
        "C_DESC_PROVINCIA": "CANGALLO"
    }, {
        "CDGO_DIST": "050206",
        "DESC_DIST": "LOS MOROCHUCOS",
        "CDGO_PADRE": "050200",
        "C_DESC_DEPARTAMENTO": "AYACUCHO",
        "C_DESC_PROVINCIA": "CANGALLO"
    }, {
        "CDGO_DIST": "050207",
        "DESC_DIST": "PARAS",
        "CDGO_PADRE": "050200",
        "C_DESC_DEPARTAMENTO": "AYACUCHO",
        "C_DESC_PROVINCIA": "CANGALLO"
    }, {
        "CDGO_DIST": "050208",
        "DESC_DIST": "TOTOS",
        "CDGO_PADRE": "050200",
        "C_DESC_DEPARTAMENTO": "AYACUCHO",
        "C_DESC_PROVINCIA": "CANGALLO"
    }, {
        "CDGO_DIST": "050301",
        "DESC_DIST": "HUANTA",
        "CDGO_PADRE": "050300",
        "C_DESC_DEPARTAMENTO": "AYACUCHO",
        "C_DESC_PROVINCIA": "HUANTA"
    }, {
        "CDGO_DIST": "050305",
        "DESC_DIST": "LURICOCHA",
        "CDGO_PADRE": "050300",
        "C_DESC_DEPARTAMENTO": "AYACUCHO",
        "C_DESC_PROVINCIA": "HUANTA"
    }, {
        "CDGO_DIST": "050307",
        "DESC_DIST": "SANTILLANA",
        "CDGO_PADRE": "050300",
        "C_DESC_DEPARTAMENTO": "AYACUCHO",
        "C_DESC_PROVINCIA": "HUANTA"
    }, {
        "CDGO_DIST": "050308",
        "DESC_DIST": "SIVIA",
        "CDGO_PADRE": "050300",
        "C_DESC_DEPARTAMENTO": "AYACUCHO",
        "C_DESC_PROVINCIA": "HUANTA"
    }, {
        "CDGO_DIST": "050311",
        "DESC_DIST": "UCHURACCAY",
        "CDGO_PADRE": "050300",
        "C_DESC_DEPARTAMENTO": "AYACUCHO",
        "C_DESC_PROVINCIA": "HUANTA"
    }, {
        "CDGO_DIST": "050313",
        "DESC_DIST": "CHACA",
        "CDGO_PADRE": "050300",
        "C_DESC_DEPARTAMENTO": "AYACUCHO",
        "C_DESC_PROVINCIA": "HUANTA"
    }, {
        "CDGO_DIST": "050401",
        "DESC_DIST": "SAN MIGUEL",
        "CDGO_PADRE": "050400",
        "C_DESC_DEPARTAMENTO": "AYACUCHO",
        "C_DESC_PROVINCIA": "LA MAR"
    }, {
        "CDGO_DIST": "050402",
        "DESC_DIST": "ANCO",
        "CDGO_PADRE": "050400",
        "C_DESC_DEPARTAMENTO": "AYACUCHO",
        "C_DESC_PROVINCIA": "LA MAR"
    }, {
        "CDGO_DIST": "050405",
        "DESC_DIST": "CHUNGUI",
        "CDGO_PADRE": "050400",
        "C_DESC_DEPARTAMENTO": "AYACUCHO",
        "C_DESC_PROVINCIA": "LA MAR"
    }, {
        "CDGO_DIST": "050406",
        "DESC_DIST": "TAMBO",
        "CDGO_PADRE": "050400",
        "C_DESC_DEPARTAMENTO": "AYACUCHO",
        "C_DESC_PROVINCIA": "LA MAR"
    }, {
        "CDGO_DIST": "050410",
        "DESC_DIST": "ANCHIHUAY",
        "CDGO_PADRE": "050400",
        "C_DESC_DEPARTAMENTO": "AYACUCHO",
        "C_DESC_PROVINCIA": "LA MAR"
    }, {
        "CDGO_DIST": "050501",
        "DESC_DIST": "PUQUIO",
        "CDGO_PADRE": "050500",
        "C_DESC_DEPARTAMENTO": "AYACUCHO",
        "C_DESC_PROVINCIA": "LUCANAS"
    }, {
        "CDGO_DIST": "050511",
        "DESC_DIST": "LARAMATE",
        "CDGO_PADRE": "050500",
        "C_DESC_DEPARTAMENTO": "AYACUCHO",
        "C_DESC_PROVINCIA": "LUCANAS"
    }, {
        "CDGO_DIST": "050601",
        "DESC_DIST": "CORACORA",
        "CDGO_PADRE": "050600",
        "C_DESC_DEPARTAMENTO": "AYACUCHO",
        "C_DESC_PROVINCIA": "PARINACOCHAS"
    }, {
        "CDGO_DIST": "050611",
        "DESC_DIST": "PULLO",
        "CDGO_PADRE": "050600",
        "C_DESC_DEPARTAMENTO": "AYACUCHO",
        "C_DESC_PROVINCIA": "PARINACOCHAS"
    }, {
        "CDGO_DIST": "050701",
        "DESC_DIST": "HUANCAPI",
        "CDGO_PADRE": "050700",
        "C_DESC_DEPARTAMENTO": "AYACUCHO",
        "C_DESC_PROVINCIA": "VICTOR FAJARDO"
    }, {
        "CDGO_DIST": "050709",
        "DESC_DIST": "HUAMANQUIQUIA",
        "CDGO_PADRE": "050700",
        "C_DESC_DEPARTAMENTO": "AYACUCHO",
        "C_DESC_PROVINCIA": "VICTOR FAJARDO"
    }, {
        "CDGO_DIST": "050714",
        "DESC_DIST": "VILCANCHOS",
        "CDGO_PADRE": "050700",
        "C_DESC_DEPARTAMENTO": "AYACUCHO",
        "C_DESC_PROVINCIA": "VICTOR FAJARDO"
    }, {
        "CDGO_DIST": "050801",
        "DESC_DIST": "SANCOS",
        "CDGO_PADRE": "050800",
        "C_DESC_DEPARTAMENTO": "AYACUCHO",
        "C_DESC_PROVINCIA": "HUANCA SANCOS"
    }, {
        "CDGO_DIST": "050804",
        "DESC_DIST": "CARAPO",
        "CDGO_PADRE": "050800",
        "C_DESC_DEPARTAMENTO": "AYACUCHO",
        "C_DESC_PROVINCIA": "HUANCA SANCOS"
    }, {
        "CDGO_DIST": "050901",
        "DESC_DIST": "VILCAS HUAMAN",
        "CDGO_PADRE": "050900",
        "C_DESC_DEPARTAMENTO": "AYACUCHO",
        "C_DESC_PROVINCIA": "VILCAS HUAMAN"
    }, {
        "CDGO_DIST": "050908",
        "DESC_DIST": "INDEPENDENCIA",
        "CDGO_PADRE": "050900",
        "C_DESC_DEPARTAMENTO": "AYACUCHO",
        "C_DESC_PROVINCIA": "VILCAS HUAMAN"
    }, {
        "CDGO_DIST": "051001",
        "DESC_DIST": "PAUSA",
        "CDGO_PADRE": "051000",
        "C_DESC_DEPARTAMENTO": "AYACUCHO",
        "C_DESC_PROVINCIA": "PAUCAR DEL SARA SARA"
    }, {
        "CDGO_DIST": "051101",
        "DESC_DIST": "QUEROBAMBA",
        "CDGO_PADRE": "051100",
        "C_DESC_DEPARTAMENTO": "AYACUCHO",
        "C_DESC_PROVINCIA": "SUCRE"
    }]
}