{
  "c_codi_proceso": "005",
  "descripcion": "SOMOS ESCLAVOS DE NUESTRAS PALABRAS",
  "n_elec_habil": "18,839",
  "n_num_mesas": "129",
  "locales": "127",
  "elecciones": [{
    "C_TIPO_ELEC": "08"
  }]
}