{
	"c_codi_proceso": "02",
	"descripcion": "ACCION POPULAR",
	"n_elec_habil": "221,946",
	"n_num_mesas": "326",
	"locales": "127",
	"elecciones": [{
		"titulo": "Provincial Múltiple",
		"sub_titulo": "Modalidad: Afiliado Delegado",
		"imagen": "modalidad_ico"
	},{
		"titulo": "Distrital Múltiple",
		"sub_titulo": "Modalidad: Afiliado Delegado",
		"imagen": "modalidad_ico"
	},{
		"titulo": "Regional",
		"sub_titulo": "Modalidad: Afiliado Delegado",
		"imagen": "modalidad_ico"
	},{
		"titulo": "Regional Múltiple",
		"sub_titulo": "Modalidad: Afiliado Delegado",
		"imagen": "modalidad_ico"
	},{
		"titulo": "Delegados Regional",
		"sub_titulo": "Modalidad: Afiliado Candidato",
		"imagen": "modalidad_ico"
	},{
		"titulo": "Delegados Nacional",
		"sub_titulo": "Modalidad: Afiliado Candidato",
		"imagen": "modalidad_ico"
	}]
}