{
    "departments": [{
        "CDGO_DEP": "240000",
        "DESC_DEP": "CALLAO",
        "CDGO_PADRE": "000000"
    }, {
        "CDGO_DEP": "140000",
        "DESC_DEP": "LIMA",
        "CDGO_PADRE": "000000"
    }],
    "provinces": [{
        "CDGO_PROV": "240100",
        "DESC_PROV": "CALLAO",
        "CDGO_PADRE": "240000"
    }, {
        "CDGO_PROV": "140100",
        "DESC_PROV": "LIMA",
        "CDGO_PADRE": "140000"
    }],
    "districts": [{
        "CDGO_DIST": "140102",
        "DESC_DIST": "ANCON",
        "CDGO_PADRE": "140100"
    }, {
        "CDGO_DIST": "140103",
        "DESC_DIST": "ATE",
        "CDGO_PADRE": "140100"
    }, {
        "CDGO_DIST": "240101",
        "DESC_DIST": "CALLAO",
        "CDGO_PADRE": "240100"
    }, {
        "CDGO_DIST": "140105",
        "DESC_DIST": "CARABAYLLO",
        "CDGO_PADRE": "140100"
    }, {
        "CDGO_DIST": "140108",
        "DESC_DIST": "CHORRILLOS",
        "CDGO_PADRE": "140100"
    }, {
        "CDGO_DIST": "140139",
        "DESC_DIST": "CIENEGUILLA",
        "CDGO_PADRE": "140100"
    }, {
        "CDGO_DIST": "140106",
        "DESC_DIST": "COMAS",
        "CDGO_PADRE": "140100"
    }, {
        "CDGO_DIST": "140135",
        "DESC_DIST": "EL AGUSTINO",
        "CDGO_PADRE": "140100"
    }, {
        "CDGO_DIST": "140134",
        "DESC_DIST": "INDEPENDENCIA",
        "CDGO_PADRE": "140100"
    }, {
        "CDGO_DIST": "140109",
        "DESC_DIST": "LA VICTORIA",
        "CDGO_PADRE": "140100"
    }, {
        "CDGO_DIST": "140101",
        "DESC_DIST": "LIMA",
        "CDGO_PADRE": "140100"
    }, {
        "CDGO_DIST": "140142",
        "DESC_DIST": "LOS OLIVOS",
        "CDGO_PADRE": "140100"
    }, {
        "CDGO_DIST": "140112",
        "DESC_DIST": "LURIGANCHO",
        "CDGO_PADRE": "140100"
    }, {
        "CDGO_DIST": "140113",
        "DESC_DIST": "LURIN",
        "CDGO_PADRE": "140100"
    }, {
        "CDGO_DIST": "140116",
        "DESC_DIST": "PACHACAMAC",
        "CDGO_PADRE": "140100"
    }, {
        "CDGO_DIST": "140119",
        "DESC_DIST": "PUENTE PIEDRA",
        "CDGO_PADRE": "140100"
    }, {
        "CDGO_DIST": "140122",
        "DESC_DIST": "RIMAC",
        "CDGO_PADRE": "140100"
    }, {
        "CDGO_DIST": "140137",
        "DESC_DIST": "SAN JUAN DE LURIGANCHO",
        "CDGO_PADRE": "140100"
    }, {
        "CDGO_DIST": "140136",
        "DESC_DIST": "SAN JUAN DE MIRAFLORES",
        "CDGO_PADRE": "140100"
    }, {
        "CDGO_DIST": "140126",
        "DESC_DIST": "SAN MARTIN DE PORRES",
        "CDGO_PADRE": "140100"
    }, {
        "CDGO_DIST": "140143",
        "DESC_DIST": "SANTA ANITA",
        "CDGO_PADRE": "140100"
    }, {
        "CDGO_DIST": "140130",
        "DESC_DIST": "SANTIAGO DE SURCO",
        "CDGO_PADRE": "140100"
    }, {
        "CDGO_DIST": "240106",
        "DESC_DIST": "VENTANILLA",
        "CDGO_PADRE": "240100"
    }, {
        "CDGO_DIST": "140141",
        "DESC_DIST": "VILLA EL SALVADOR",
        "CDGO_PADRE": "140100"
    }, {
        "CDGO_DIST": "140132",
        "DESC_DIST": "VILLA MARIA DEL TRIUNFO",
        "CDGO_PADRE": "140100"
    }]
}