{
    "generals": {
        "generalData": {
            "ELECTORES_HABIL": "886",
            "TOT_CIUDADANOS_VOTARON": "516",
            "POR_CIUDADANOS_VOTARON": "58.239",
            "POR_ACTAS_CONTABILIZADAS": "100.000",
            "POR_ACTAS_PROCESADAS": "100.000",
            "ACTAS_PROCESADAS": "4",
            "POR_PROCESAR": "0",
            "CONTABILIZA": "4",
            "POR_POR_PROCESAR": "0.000"
        },
        "actData": {
            "FECHA": "11/10/2021",
            "HORA": "16:20 h",
            "POR_AVANCE": " 100.0000"
        },
        "realImages": "1"
    },
    "results": [{
        "C_CODI_AGP": "16139943",
        "AGRUPACION": "CARLOS ALBERTO ZARATE SOLANO",
        "IMAGENAGRUPACION": "ALCALDE",
        "PORC_AVANCE_ACTA": "100.000",
        "ACTAS_COMPUTADA": "4",
        "NLISTA": "16139943.jpg",
        "TOTAL_MESAS": "4",
        "TOTAL_VOTOS_SI": "242",
        "TOTAL_VOTOS_NO": "252",
        "TOTAL_VOTOS_VAL": "494",
        "TOTAL_VOTOS_BL": "16",
        "TOTAL_VOTOS_NL": "6",
        "TOTAL_VOTOS_EM": "516",
        "CALCULO": "248",
        "POR_EMITIDOS_SI": "46.899",
        "POR_EMITIDOS_NO": "48.837",
        "POR_EMITIDOS_TOTAL_VOTOS_VAL": "95.736",
        "POR_EMITIDOS_TOTAL_VOTOS_BL": "3.101",
        "POR_EMITIDOS_TOTAL_VOTOS_NL": "1.163",
        "POR_EMITIDOS_TOTAL_VOTOS_EM": "100.000",
        "POR_VALIDOS_SI": "48.988",
        "POR_VALIDOS_NO": "51.012",
        "POR_VALIDOS_TOTAL_VOTOS_VAL": "100.000",
        "POR_VALIDOS_TOTAL_VOTOS_BL": null,
        "POR_VALIDOS_TOTAL_VOTOS_NL": null,
        "POR_VALIDOS_TOTAL_VOTOS_EM": null,
        "REGLA": "248"
    }, {
        "C_CODI_AGP": "16139889",
        "AGRUPACION": "BARTOLOME ENRIQUE SOLANO ZARATE",
        "IMAGENAGRUPACION": "REGIDOR",
        "PORC_AVANCE_ACTA": "100.000",
        "ACTAS_COMPUTADA": "4",
        "NLISTA": "16139889.jpg",
        "TOTAL_MESAS": "4",
        "TOTAL_VOTOS_SI": "251",
        "TOTAL_VOTOS_NO": "216",
        "TOTAL_VOTOS_VAL": "467",
        "TOTAL_VOTOS_BL": "43",
        "TOTAL_VOTOS_NL": "6",
        "TOTAL_VOTOS_EM": "516",
        "CALCULO": "235",
        "POR_EMITIDOS_SI": "48.643",
        "POR_EMITIDOS_NO": "41.860",
        "POR_EMITIDOS_TOTAL_VOTOS_VAL": "90.504",
        "POR_EMITIDOS_TOTAL_VOTOS_BL": "8.333",
        "POR_EMITIDOS_TOTAL_VOTOS_NL": "1.163",
        "POR_EMITIDOS_TOTAL_VOTOS_EM": "100.000",
        "POR_VALIDOS_SI": "53.747",
        "POR_VALIDOS_NO": "46.253",
        "POR_VALIDOS_TOTAL_VOTOS_VAL": "100.000",
        "POR_VALIDOS_TOTAL_VOTOS_BL": null,
        "POR_VALIDOS_TOTAL_VOTOS_NL": null,
        "POR_VALIDOS_TOTAL_VOTOS_EM": null,
        "REGLA": "235"
    }, {
        "C_CODI_AGP": "77228977",
        "AGRUPACION": "YREIZE NILSA CARHUAVILCA CARHUAVILCA",
        "IMAGENAGRUPACION": "REGIDOR",
        "PORC_AVANCE_ACTA": "100.000",
        "ACTAS_COMPUTADA": "4",
        "NLISTA": "77228977.jpg",
        "TOTAL_MESAS": "4",
        "TOTAL_VOTOS_SI": "270",
        "TOTAL_VOTOS_NO": "199",
        "TOTAL_VOTOS_VAL": "469",
        "TOTAL_VOTOS_BL": "41",
        "TOTAL_VOTOS_NL": "6",
        "TOTAL_VOTOS_EM": "516",
        "CALCULO": "236",
        "POR_EMITIDOS_SI": "52.326",
        "POR_EMITIDOS_NO": "38.566",
        "POR_EMITIDOS_TOTAL_VOTOS_VAL": "90.891",
        "POR_EMITIDOS_TOTAL_VOTOS_BL": "7.946",
        "POR_EMITIDOS_TOTAL_VOTOS_NL": "1.163",
        "POR_EMITIDOS_TOTAL_VOTOS_EM": "100.000",
        "POR_VALIDOS_SI": "57.569",
        "POR_VALIDOS_NO": "42.431",
        "POR_VALIDOS_TOTAL_VOTOS_VAL": "100.000",
        "POR_VALIDOS_TOTAL_VOTOS_BL": null,
        "POR_VALIDOS_TOTAL_VOTOS_NL": null,
        "POR_VALIDOS_TOTAL_VOTOS_EM": null,
        "REGLA": "236"
    }, {
        "C_CODI_AGP": "10107934",
        "AGRUPACION": "EDITH SALSAVILCA SOLANO",
        "IMAGENAGRUPACION": "REGIDOR",
        "PORC_AVANCE_ACTA": "100.000",
        "ACTAS_COMPUTADA": "4",
        "NLISTA": "10107934.jpg",
        "TOTAL_MESAS": "4",
        "TOTAL_VOTOS_SI": "268",
        "TOTAL_VOTOS_NO": "195",
        "TOTAL_VOTOS_VAL": "463",
        "TOTAL_VOTOS_BL": "45",
        "TOTAL_VOTOS_NL": "8",
        "TOTAL_VOTOS_EM": "516",
        "CALCULO": "233",
        "POR_EMITIDOS_SI": "51.938",
        "POR_EMITIDOS_NO": "37.791",
        "POR_EMITIDOS_TOTAL_VOTOS_VAL": "89.729",
        "POR_EMITIDOS_TOTAL_VOTOS_BL": "8.721",
        "POR_EMITIDOS_TOTAL_VOTOS_NL": "1.550",
        "POR_EMITIDOS_TOTAL_VOTOS_EM": "100.000",
        "POR_VALIDOS_SI": "57.883",
        "POR_VALIDOS_NO": "42.117",
        "POR_VALIDOS_TOTAL_VOTOS_VAL": "100.000",
        "POR_VALIDOS_TOTAL_VOTOS_BL": null,
        "POR_VALIDOS_TOTAL_VOTOS_NL": null,
        "POR_VALIDOS_TOTAL_VOTOS_EM": null,
        "REGLA": "233"
    }, {
        "C_CODI_AGP": "16136747",
        "AGRUPACION": "MARCELINO NARCISO HUARINGA",
        "IMAGENAGRUPACION": "REGIDOR",
        "PORC_AVANCE_ACTA": "100.000",
        "ACTAS_COMPUTADA": "4",
        "NLISTA": "16136747.jpg",
        "TOTAL_MESAS": "4",
        "TOTAL_VOTOS_SI": "244",
        "TOTAL_VOTOS_NO": "218",
        "TOTAL_VOTOS_VAL": "462",
        "TOTAL_VOTOS_BL": "46",
        "TOTAL_VOTOS_NL": "8",
        "TOTAL_VOTOS_EM": "516",
        "CALCULO": "232",
        "POR_EMITIDOS_SI": "47.287",
        "POR_EMITIDOS_NO": "42.248",
        "POR_EMITIDOS_TOTAL_VOTOS_VAL": "89.535",
        "POR_EMITIDOS_TOTAL_VOTOS_BL": "8.915",
        "POR_EMITIDOS_TOTAL_VOTOS_NL": "1.550",
        "POR_EMITIDOS_TOTAL_VOTOS_EM": "100.000",
        "POR_VALIDOS_SI": "52.814",
        "POR_VALIDOS_NO": "47.186",
        "POR_VALIDOS_TOTAL_VOTOS_VAL": "100.000",
        "POR_VALIDOS_TOTAL_VOTOS_BL": null,
        "POR_VALIDOS_TOTAL_VOTOS_NL": null,
        "POR_VALIDOS_TOTAL_VOTOS_EM": null,
        "REGLA": "232"
    }],
    "summary": {
        "CCODI_UBIGEO": "140611",
        "CONTABILIZA": "4",
        "CONT_NORMAL": "4",
        "IMPUGNADA": "0",
        "ERROR_MAT": "0",
        "MESAS_INSTALADAS": "4",
        "ACTAS_PROCESADAS": "4",
        "SOL_NULIDAD": "0",
        "ILEGIBLE": "0",
        "PENDIENTE": "0",
        "OTRAS_OBS": "0",
        "SIN_DATOS": "0",
        "CONT_ANULADA": "0",
        "POR_PROCESAR": "0",
        "EXTRAVIADA": "0",
        "SINIESTRADA": "0",
        "INCOMPLETA": "0",
        "SIN_FIRMA": "0",
        "A_INSTALAR": "4",
        "MESAS_NO_INST": "0",
        "FUSIONADAS": "0",
        "NTOTAL_AUTO": "0",
        "MESAS_HABILES": "4",
        "TOT_CIUDADANOS_VOTARON": "516",
        "ELECTORES_HABIL": "886",
        "ELECTORES_HABIL_50": "443",
        "TOTAL_JEE": "0"
    }
}