{
    "departments": [{
        "CDGO_DEP": "010000",
        "DESC_DEP": "AMAZONAS",
        "CDGO_PADRE": "000000"
    }, {
        "CDGO_DEP": "020000",
        "DESC_DEP": "ANCASH",
        "CDGO_PADRE": "000000"
    }, {
        "CDGO_DEP": "030000",
        "DESC_DEP": "APURIMAC",
        "CDGO_PADRE": "000000"
    }, {
        "CDGO_DEP": "040000",
        "DESC_DEP": "AREQUIPA",
        "CDGO_PADRE": "000000"
    }, {
        "CDGO_DEP": "050000",
        "DESC_DEP": "AYACUCHO",
        "CDGO_PADRE": "000000"
    }, {
        "CDGO_DEP": "060000",
        "DESC_DEP": "CAJAMARCA",
        "CDGO_PADRE": "000000"
    }, {
        "CDGO_DEP": "240000",
        "DESC_DEP": "CALLAO",
        "CDGO_PADRE": "000000"
    }, {
        "CDGO_DEP": "070000",
        "DESC_DEP": "CUSCO",
        "CDGO_PADRE": "000000"
    }, {
        "CDGO_DEP": "080000",
        "DESC_DEP": "HUANCAVELICA",
        "CDGO_PADRE": "000000"
    }, {
        "CDGO_DEP": "090000",
        "DESC_DEP": "HUANUCO",
        "CDGO_PADRE": "000000"
    }, {
        "CDGO_DEP": "100000",
        "DESC_DEP": "ICA",
        "CDGO_PADRE": "000000"
    }, {
        "CDGO_DEP": "110000",
        "DESC_DEP": "JUNIN",
        "CDGO_PADRE": "000000"
    }, {
        "CDGO_DEP": "120000",
        "DESC_DEP": "LA LIBERTAD",
        "CDGO_PADRE": "000000"
    }, {
        "CDGO_DEP": "130000",
        "DESC_DEP": "LAMBAYEQUE",
        "CDGO_PADRE": "000000"
    }, {
        "CDGO_DEP": "140000",
        "DESC_DEP": "LIMA",
        "CDGO_PADRE": "000000"
    }, {
        "CDGO_DEP": "150000",
        "DESC_DEP": "LORETO",
        "CDGO_PADRE": "000000"
    }, {
        "CDGO_DEP": "160000",
        "DESC_DEP": "MADRE DE DIOS",
        "CDGO_PADRE": "000000"
    }, {
        "CDGO_DEP": "170000",
        "DESC_DEP": "MOQUEGUA",
        "CDGO_PADRE": "000000"
    }, {
        "CDGO_DEP": "180000",
        "DESC_DEP": "PASCO",
        "CDGO_PADRE": "000000"
    }, {
        "CDGO_DEP": "190000",
        "DESC_DEP": "PIURA",
        "CDGO_PADRE": "000000"
    }, {
        "CDGO_DEP": "200000",
        "DESC_DEP": "PUNO",
        "CDGO_PADRE": "000000"
    }, {
        "CDGO_DEP": "210000",
        "DESC_DEP": "SAN MARTIN",
        "CDGO_PADRE": "000000"
    }, {
        "CDGO_DEP": "220000",
        "DESC_DEP": "TACNA",
        "CDGO_PADRE": "000000"
    }, {
        "CDGO_DEP": "230000",
        "DESC_DEP": "TUMBES",
        "CDGO_PADRE": "000000"
    }, {
        "CDGO_DEP": "250000",
        "DESC_DEP": "UCAYALI",
        "CDGO_PADRE": "000000"
    }],
    "provinces": [{
        "CDGO_PROV": "030100",
        "DESC_PROV": "ABANCAY",
        "CDGO_PADRE": "030000"
    }, {
        "CDGO_PROV": "080200",
        "DESC_PROV": "ACOBAMBA",
        "CDGO_PADRE": "080000"
    }, {
        "CDGO_PROV": "070200",
        "DESC_PROV": "ACOMAYO",
        "CDGO_PADRE": "070000"
    }, {
        "CDGO_PROV": "150200",
        "DESC_PROV": "ALTO AMAZONAS",
        "CDGO_PADRE": "150000"
    }, {
        "CDGO_PROV": "090200",
        "DESC_PROV": "AMBO",
        "CDGO_PADRE": "090000"
    }, {
        "CDGO_PROV": "030300",
        "DESC_PROV": "ANDAHUAYLAS",
        "CDGO_PADRE": "030000"
    }, {
        "CDGO_PROV": "080300",
        "DESC_PROV": "ANGARAES",
        "CDGO_PADRE": "080000"
    }, {
        "CDGO_PROV": "070300",
        "DESC_PROV": "ANTA",
        "CDGO_PADRE": "070000"
    }, {
        "CDGO_PROV": "040100",
        "DESC_PROV": "AREQUIPA",
        "CDGO_PADRE": "040000"
    }, {
        "CDGO_PROV": "120800",
        "DESC_PROV": "ASCOPE",
        "CDGO_PADRE": "120000"
    }, {
        "CDGO_PROV": "250300",
        "DESC_PROV": "ATALAYA",
        "CDGO_PADRE": "250000"
    }, {
        "CDGO_PROV": "190200",
        "DESC_PROV": "AYABACA",
        "CDGO_PADRE": "190000"
    }, {
        "CDGO_PROV": "200200",
        "DESC_PROV": "AZANGARO",
        "CDGO_PADRE": "200000"
    }, {
        "CDGO_PROV": "010200",
        "DESC_PROV": "BAGUA",
        "CDGO_PADRE": "010000"
    }, {
        "CDGO_PROV": "140900",
        "DESC_PROV": "BARRANCA",
        "CDGO_PADRE": "140000"
    }, {
        "CDGO_PROV": "210700",
        "DESC_PROV": "BELLAVISTA",
        "CDGO_PADRE": "210000"
    }, {
        "CDGO_PROV": "020300",
        "DESC_PROV": "BOLOGNESI",
        "CDGO_PADRE": "020000"
    }, {
        "CDGO_PROV": "060200",
        "DESC_PROV": "CAJABAMBA",
        "CDGO_PADRE": "060000"
    }, {
        "CDGO_PROV": "060100",
        "DESC_PROV": "CAJAMARCA",
        "CDGO_PADRE": "060000"
    }, {
        "CDGO_PROV": "070400",
        "DESC_PROV": "CALCA",
        "CDGO_PADRE": "070000"
    }, {
        "CDGO_PROV": "240100",
        "DESC_PROV": "CALLAO",
        "CDGO_PADRE": "240000"
    }, {
        "CDGO_PROV": "040300",
        "DESC_PROV": "CAMANA",
        "CDGO_PADRE": "040000"
    }, {
        "CDGO_PROV": "070500",
        "DESC_PROV": "CANAS",
        "CDGO_PADRE": "070000"
    }, {
        "CDGO_PROV": "070600",
        "DESC_PROV": "CANCHIS",
        "CDGO_PADRE": "070000"
    }, {
        "CDGO_PROV": "140300",
        "DESC_PROV": "CANTA",
        "CDGO_PADRE": "140000"
    }, {
        "CDGO_PROV": "040400",
        "DESC_PROV": "CARAVELI",
        "CDGO_PADRE": "040000"
    }, {
        "CDGO_PROV": "020400",
        "DESC_PROV": "CARHUAZ",
        "CDGO_PADRE": "020000"
    }, {
        "CDGO_PROV": "020500",
        "DESC_PROV": "CASMA",
        "CDGO_PADRE": "020000"
    }, {
        "CDGO_PROV": "040500",
        "DESC_PROV": "CASTILLA",
        "CDGO_PADRE": "040000"
    }, {
        "CDGO_PROV": "040200",
        "DESC_PROV": "CAYLLOMA",
        "CDGO_PADRE": "040000"
    }, {
        "CDGO_PROV": "140400",
        "DESC_PROV": "CAÑETE",
        "CDGO_PADRE": "140000"
    }, {
        "CDGO_PROV": "060300",
        "DESC_PROV": "CELENDIN",
        "CDGO_PADRE": "060000"
    }, {
        "CDGO_PROV": "010100",
        "DESC_PROV": "CHACHAPOYAS",
        "CDGO_PADRE": "010000"
    }, {
        "CDGO_PROV": "110800",
        "DESC_PROV": "CHANCHAMAYO",
        "CDGO_PADRE": "110000"
    }, {
        "CDGO_PROV": "120900",
        "DESC_PROV": "CHEPEN",
        "CDGO_PADRE": "120000"
    }, {
        "CDGO_PROV": "130100",
        "DESC_PROV": "CHICLAYO",
        "CDGO_PADRE": "130000"
    }, {
        "CDGO_PROV": "100200",
        "DESC_PROV": "CHINCHA",
        "CDGO_PADRE": "100000"
    }, {
        "CDGO_PROV": "030700",
        "DESC_PROV": "CHINCHEROS",
        "CDGO_PADRE": "030000"
    }, {
        "CDGO_PROV": "060600",
        "DESC_PROV": "CHOTA",
        "CDGO_PADRE": "060000"
    }, {
        "CDGO_PROV": "200400",
        "DESC_PROV": "CHUCUITO",
        "CDGO_PADRE": "200000"
    }, {
        "CDGO_PROV": "070700",
        "DESC_PROV": "CHUMBIVILCAS",
        "CDGO_PADRE": "070000"
    }, {
        "CDGO_PROV": "110900",
        "DESC_PROV": "CHUPACA",
        "CDGO_PADRE": "110000"
    }, {
        "CDGO_PROV": "110200",
        "DESC_PROV": "CONCEPCION",
        "CDGO_PADRE": "110000"
    }, {
        "CDGO_PROV": "060400",
        "DESC_PROV": "CONTUMAZA",
        "CDGO_PADRE": "060000"
    }, {
        "CDGO_PROV": "250100",
        "DESC_PROV": "CORONEL PORTILLO",
        "CDGO_PADRE": "250000"
    }, {
        "CDGO_PROV": "030500",
        "DESC_PROV": "COTABAMBAS",
        "CDGO_PADRE": "030000"
    }, {
        "CDGO_PROV": "070100",
        "DESC_PROV": "CUSCO",
        "CDGO_PADRE": "070000"
    }, {
        "CDGO_PROV": "060500",
        "DESC_PROV": "CUTERVO",
        "CDGO_PADRE": "060000"
    }, {
        "CDGO_PROV": "150700",
        "DESC_PROV": "DATEM DEL MARAÑON",
        "CDGO_PADRE": "150000"
    }, {
        "CDGO_PROV": "090300",
        "DESC_PROV": "DOS DE MAYO",
        "CDGO_PADRE": "090000"
    }, {
        "CDGO_PROV": "201200",
        "DESC_PROV": "EL COLLAO",
        "CDGO_PADRE": "200000"
    }, {
        "CDGO_PROV": "211000",
        "DESC_PROV": "EL DORADO",
        "CDGO_PADRE": "210000"
    }, {
        "CDGO_PROV": "070800",
        "DESC_PROV": "ESPINAR",
        "CDGO_PADRE": "070000"
    }, {
        "CDGO_PROV": "130200",
        "DESC_PROV": "FERREÑAFE",
        "CDGO_PADRE": "130000"
    }, {
        "CDGO_PROV": "210200",
        "DESC_PROV": "HUALLAGA",
        "CDGO_PADRE": "210000"
    }, {
        "CDGO_PROV": "090400",
        "DESC_PROV": "HUAMALIES",
        "CDGO_PADRE": "090000"
    }, {
        "CDGO_PROV": "050100",
        "DESC_PROV": "HUAMANGA",
        "CDGO_PADRE": "050000"
    }, {
        "CDGO_PROV": "190300",
        "DESC_PROV": "HUANCABAMBA",
        "CDGO_PADRE": "190000"
    }, {
        "CDGO_PROV": "200500",
        "DESC_PROV": "HUANCANE",
        "CDGO_PADRE": "200000"
    }, {
        "CDGO_PROV": "080100",
        "DESC_PROV": "HUANCAVELICA",
        "CDGO_PADRE": "080000"
    }, {
        "CDGO_PROV": "110100",
        "DESC_PROV": "HUANCAYO",
        "CDGO_PADRE": "110000"
    }, {
        "CDGO_PROV": "050300",
        "DESC_PROV": "HUANTA",
        "CDGO_PADRE": "050000"
    }, {
        "CDGO_PROV": "090100",
        "DESC_PROV": "HUANUCO",
        "CDGO_PADRE": "090000"
    }, {
        "CDGO_PROV": "140800",
        "DESC_PROV": "HUARAL",
        "CDGO_PADRE": "140000"
    }, {
        "CDGO_PROV": "020100",
        "DESC_PROV": "HUARAZ",
        "CDGO_PADRE": "020000"
    }, {
        "CDGO_PROV": "020800",
        "DESC_PROV": "HUARI",
        "CDGO_PADRE": "020000"
    }, {
        "CDGO_PROV": "021900",
        "DESC_PROV": "HUARMEY",
        "CDGO_PADRE": "020000"
    }, {
        "CDGO_PROV": "140600",
        "DESC_PROV": "HUAROCHIRI",
        "CDGO_PADRE": "140000"
    }, {
        "CDGO_PROV": "140500",
        "DESC_PROV": "HUAURA",
        "CDGO_PADRE": "140000"
    }, {
        "CDGO_PROV": "020700",
        "DESC_PROV": "HUAYLAS",
        "CDGO_PADRE": "020000"
    }, {
        "CDGO_PROV": "080600",
        "DESC_PROV": "HUAYTARA",
        "CDGO_PADRE": "080000"
    }, {
        "CDGO_PROV": "100100",
        "DESC_PROV": "ICA",
        "CDGO_PADRE": "100000"
    }, {
        "CDGO_PROV": "170300",
        "DESC_PROV": "ILO",
        "CDGO_PADRE": "170000"
    }, {
        "CDGO_PROV": "040700",
        "DESC_PROV": "ISLAY",
        "CDGO_PADRE": "040000"
    }, {
        "CDGO_PROV": "060800",
        "DESC_PROV": "JAEN",
        "CDGO_PADRE": "060000"
    }, {
        "CDGO_PROV": "110300",
        "DESC_PROV": "JAUJA",
        "CDGO_PADRE": "110000"
    }, {
        "CDGO_PROV": "121000",
        "DESC_PROV": "JULCAN",
        "CDGO_PADRE": "120000"
    }, {
        "CDGO_PROV": "070900",
        "DESC_PROV": "LA CONVENCION",
        "CDGO_PADRE": "070000"
    }, {
        "CDGO_PROV": "210300",
        "DESC_PROV": "LAMAS",
        "CDGO_PADRE": "210000"
    }, {
        "CDGO_PROV": "130300",
        "DESC_PROV": "LAMBAYEQUE",
        "CDGO_PADRE": "130000"
    }, {
        "CDGO_PROV": "200600",
        "DESC_PROV": "LAMPA",
        "CDGO_PADRE": "200000"
    }, {
        "CDGO_PROV": "091000",
        "DESC_PROV": "LAURICOCHA",
        "CDGO_PADRE": "090000"
    }, {
        "CDGO_PROV": "090600",
        "DESC_PROV": "LEONCIO PRADO",
        "CDGO_PADRE": "090000"
    }, {
        "CDGO_PROV": "140100",
        "DESC_PROV": "LIMA",
        "CDGO_PADRE": "140000"
    }, {
        "CDGO_PROV": "150300",
        "DESC_PROV": "LORETO",
        "CDGO_PADRE": "150000"
    }, {
        "CDGO_PROV": "050500",
        "DESC_PROV": "LUCANAS",
        "CDGO_PADRE": "050000"
    }, {
        "CDGO_PROV": "090500",
        "DESC_PROV": "MARAÑON",
        "CDGO_PADRE": "090000"
    }, {
        "CDGO_PROV": "210400",
        "DESC_PROV": "MARISCAL CACERES",
        "CDGO_PADRE": "210000"
    }, {
        "CDGO_PROV": "170100",
        "DESC_PROV": "MARISCAL NIETO",
        "CDGO_PADRE": "170000"
    }, {
        "CDGO_PROV": "150600",
        "DESC_PROV": "MARISCAL RAMON CASTILLA",
        "CDGO_PADRE": "150000"
    }, {
        "CDGO_PROV": "150100",
        "DESC_PROV": "MAYNAS",
        "CDGO_PADRE": "150000"
    }, {
        "CDGO_PROV": "200700",
        "DESC_PROV": "MELGAR",
        "CDGO_PADRE": "200000"
    }, {
        "CDGO_PROV": "190400",
        "DESC_PROV": "MORROPON",
        "CDGO_PADRE": "190000"
    }, {
        "CDGO_PROV": "210100",
        "DESC_PROV": "MOYOBAMBA",
        "CDGO_PADRE": "210000"
    }, {
        "CDGO_PROV": "100300",
        "DESC_PROV": "NAZCA",
        "CDGO_PADRE": "100000"
    }, {
        "CDGO_PROV": "120400",
        "DESC_PROV": "OTUZCO",
        "CDGO_PADRE": "120000"
    }, {
        "CDGO_PROV": "180300",
        "DESC_PROV": "OXAPAMPA",
        "CDGO_PADRE": "180000"
    }, {
        "CDGO_PROV": "120500",
        "DESC_PROV": "PACASMAYO",
        "CDGO_PADRE": "120000"
    }, {
        "CDGO_PROV": "090700",
        "DESC_PROV": "PACHITEA",
        "CDGO_PADRE": "090000"
    }, {
        "CDGO_PROV": "250200",
        "DESC_PROV": "PADRE ABAD",
        "CDGO_PADRE": "250000"
    }, {
        "CDGO_PROV": "190500",
        "DESC_PROV": "PAITA",
        "CDGO_PADRE": "190000"
    }, {
        "CDGO_PROV": "071000",
        "DESC_PROV": "PARURO",
        "CDGO_PADRE": "070000"
    }, {
        "CDGO_PROV": "180100",
        "DESC_PROV": "PASCO",
        "CDGO_PADRE": "180000"
    }, {
        "CDGO_PROV": "120600",
        "DESC_PROV": "PATAZ",
        "CDGO_PADRE": "120000"
    }, {
        "CDGO_PROV": "071100",
        "DESC_PROV": "PAUCARTAMBO",
        "CDGO_PADRE": "070000"
    }, {
        "CDGO_PROV": "210900",
        "DESC_PROV": "PICOTA",
        "CDGO_PADRE": "210000"
    }, {
        "CDGO_PROV": "100400",
        "DESC_PROV": "PISCO",
        "CDGO_PADRE": "100000"
    }, {
        "CDGO_PROV": "190100",
        "DESC_PROV": "PIURA",
        "CDGO_PADRE": "190000"
    }, {
        "CDGO_PROV": "021100",
        "DESC_PROV": "POMABAMBA",
        "CDGO_PADRE": "020000"
    }, {
        "CDGO_PROV": "090800",
        "DESC_PROV": "PUERTO INCA",
        "CDGO_PADRE": "090000"
    }, {
        "CDGO_PROV": "200100",
        "DESC_PROV": "PUNO",
        "CDGO_PADRE": "200000"
    }, {
        "CDGO_PROV": "071200",
        "DESC_PROV": "QUISPICANCHI",
        "CDGO_PADRE": "070000"
    }, {
        "CDGO_PROV": "150400",
        "DESC_PROV": "REQUENA",
        "CDGO_PADRE": "150000"
    }, {
        "CDGO_PROV": "210500",
        "DESC_PROV": "RIOJA",
        "CDGO_PADRE": "210000"
    }, {
        "CDGO_PROV": "201100",
        "DESC_PROV": "SAN ANTONIO DE PUTINA",
        "CDGO_PADRE": "200000"
    }, {
        "CDGO_PROV": "061100",
        "DESC_PROV": "SAN IGNACIO",
        "CDGO_PADRE": "060000"
    }, {
        "CDGO_PROV": "210600",
        "DESC_PROV": "SAN MARTIN",
        "CDGO_PADRE": "210000"
    }, {
        "CDGO_PROV": "200900",
        "DESC_PROV": "SAN ROMAN",
        "CDGO_PADRE": "200000"
    }, {
        "CDGO_PROV": "120300",
        "DESC_PROV": "SANCHEZ CARRION",
        "CDGO_PADRE": "120000"
    }, {
        "CDGO_PROV": "200800",
        "DESC_PROV": "SANDIA",
        "CDGO_PADRE": "200000"
    }, {
        "CDGO_PROV": "021300",
        "DESC_PROV": "SANTA",
        "CDGO_PADRE": "020000"
    }, {
        "CDGO_PROV": "060900",
        "DESC_PROV": "SANTA CRUZ",
        "CDGO_PADRE": "060000"
    }, {
        "CDGO_PROV": "120700",
        "DESC_PROV": "SANTIAGO DE CHUCO",
        "CDGO_PADRE": "120000"
    }, {
        "CDGO_PROV": "110700",
        "DESC_PROV": "SATIPO",
        "CDGO_PADRE": "110000"
    }, {
        "CDGO_PROV": "190800",
        "DESC_PROV": "SECHURA",
        "CDGO_PADRE": "190000"
    }, {
        "CDGO_PROV": "021400",
        "DESC_PROV": "SIHUAS",
        "CDGO_PADRE": "020000"
    }, {
        "CDGO_PROV": "190600",
        "DESC_PROV": "SULLANA",
        "CDGO_PADRE": "190000"
    }, {
        "CDGO_PROV": "220100",
        "DESC_PROV": "TACNA",
        "CDGO_PADRE": "220000"
    }, {
        "CDGO_PROV": "190700",
        "DESC_PROV": "TALARA",
        "CDGO_PADRE": "190000"
    }, {
        "CDGO_PROV": "160100",
        "DESC_PROV": "TAMBOPATA",
        "CDGO_PADRE": "160000"
    }, {
        "CDGO_PROV": "110500",
        "DESC_PROV": "TARMA",
        "CDGO_PADRE": "110000"
    }, {
        "CDGO_PROV": "080500",
        "DESC_PROV": "TAYACAJA",
        "CDGO_PADRE": "080000"
    }, {
        "CDGO_PROV": "210800",
        "DESC_PROV": "TOCACHE",
        "CDGO_PADRE": "210000"
    }, {
        "CDGO_PROV": "120100",
        "DESC_PROV": "TRUJILLO",
        "CDGO_PADRE": "120000"
    }, {
        "CDGO_PROV": "230100",
        "DESC_PROV": "TUMBES",
        "CDGO_PADRE": "230000"
    }, {
        "CDGO_PROV": "150500",
        "DESC_PROV": "UCAYALI",
        "CDGO_PADRE": "150000"
    }, {
        "CDGO_PROV": "071300",
        "DESC_PROV": "URUBAMBA",
        "CDGO_PADRE": "070000"
    }, {
        "CDGO_PROV": "010700",
        "DESC_PROV": "UTCUBAMBA",
        "CDGO_PADRE": "010000"
    }, {
        "CDGO_PROV": "050700",
        "DESC_PROV": "VICTOR FAJARDO",
        "CDGO_PADRE": "050000"
    }, {
        "CDGO_PROV": "121200",
        "DESC_PROV": "VIRU",
        "CDGO_PADRE": "120000"
    }, {
        "CDGO_PROV": "091100",
        "DESC_PROV": "YAROWILCA",
        "CDGO_PADRE": "090000"
    }, {
        "CDGO_PROV": "140700",
        "DESC_PROV": "YAUYOS",
        "CDGO_PADRE": "140000"
    }, {
        "CDGO_PROV": "021500",
        "DESC_PROV": "YUNGAY",
        "CDGO_PADRE": "020000"
    }, {
        "CDGO_PROV": "201000",
        "DESC_PROV": "YUNGUYO",
        "CDGO_PADRE": "200000"
    }, {
        "CDGO_PROV": "230300",
        "DESC_PROV": "ZARUMILLA",
        "CDGO_PADRE": "230000"
    }],
    "districts": [{
        "CDGO_DIST": "030100",
        "DESC_DIST": "ABANCAY",
        "CDGO_PADRE": "030000"
    }, {
        "CDGO_DIST": "030101",
        "DESC_DIST": "ABANCAY",
        "CDGO_PADRE": "030100"
    }, {
        "CDGO_DIST": "080200",
        "DESC_DIST": "ACOBAMBA",
        "CDGO_PADRE": "080000"
    }, {
        "CDGO_DIST": "080201",
        "DESC_DIST": "ACOBAMBA",
        "CDGO_PADRE": "080200"
    }, {
        "CDGO_DIST": "070201",
        "DESC_DIST": "ACOMAYO",
        "CDGO_PADRE": "070200"
    }, {
        "CDGO_DIST": "150200",
        "DESC_DIST": "ALTO AMAZONAS",
        "CDGO_PADRE": "150000"
    }, {
        "CDGO_DIST": "090201",
        "DESC_DIST": "AMBO",
        "CDGO_PADRE": "090200"
    }, {
        "CDGO_DIST": "140102",
        "DESC_DIST": "ANCON",
        "CDGO_PADRE": "140100"
    }, {
        "CDGO_DIST": "910102",
        "DESC_DIST": "ANCON",
        "CDGO_PADRE": "910100"
    }, {
        "CDGO_DIST": "030300",
        "DESC_DIST": "ANDAHUAYLAS",
        "CDGO_PADRE": "030000"
    }, {
        "CDGO_DIST": "030301",
        "DESC_DIST": "ANDAHUAYLAS",
        "CDGO_PADRE": "030300"
    }, {
        "CDGO_DIST": "050116",
        "DESC_DIST": "ANDRES AVELINO CACERES DORREGARAY",
        "CDGO_PADRE": "050100"
    }, {
        "CDGO_DIST": "070301",
        "DESC_DIST": "ANTA",
        "CDGO_PADRE": "070300"
    }, {
        "CDGO_DIST": "030401",
        "DESC_DIST": "ANTABAMBA",
        "CDGO_PADRE": "030400"
    }, {
        "CDGO_DIST": "040501",
        "DESC_DIST": "APLAO",
        "CDGO_PADRE": "040500"
    }, {
        "CDGO_DIST": "040100",
        "DESC_DIST": "AREQUIPA",
        "CDGO_PADRE": "040000"
    }, {
        "CDGO_DIST": "040101",
        "DESC_DIST": "AREQUIPA",
        "CDGO_PADRE": "040100"
    }, {
        "CDGO_DIST": "080119",
        "DESC_DIST": "ASCENSION",
        "CDGO_PADRE": "080100"
    }, {
        "CDGO_DIST": "120800",
        "DESC_DIST": "ASCOPE",
        "CDGO_PADRE": "120000"
    }, {
        "CDGO_DIST": "120801",
        "DESC_DIST": "ASCOPE",
        "CDGO_PADRE": "120800"
    }, {
        "CDGO_DIST": "140103",
        "DESC_DIST": "ATE",
        "CDGO_PADRE": "140100"
    }, {
        "CDGO_DIST": "910103",
        "DESC_DIST": "ATE",
        "CDGO_PADRE": "910100"
    }, {
        "CDGO_DIST": "190201",
        "DESC_DIST": "AYABACA",
        "CDGO_PADRE": "190200"
    }, {
        "CDGO_DIST": "050101",
        "DESC_DIST": "AYACUCHO",
        "CDGO_PADRE": "050100"
    }, {
        "CDGO_DIST": "200701",
        "DESC_DIST": "AYAVIRI",
        "CDGO_PADRE": "200700"
    }, {
        "CDGO_DIST": "200201",
        "DESC_DIST": "AZANGARO",
        "CDGO_PADRE": "200200"
    }, {
        "CDGO_DIST": "010200",
        "DESC_DIST": "BAGUA",
        "CDGO_PADRE": "010000"
    }, {
        "CDGO_DIST": "010205",
        "DESC_DIST": "BAGUA",
        "CDGO_PADRE": "010200"
    }, {
        "CDGO_DIST": "010701",
        "DESC_DIST": "BAGUA GRANDE",
        "CDGO_PADRE": "010700"
    }, {
        "CDGO_DIST": "060701",
        "DESC_DIST": "BAMBAMARCA",
        "CDGO_PADRE": "060700"
    }, {
        "CDGO_DIST": "140900",
        "DESC_DIST": "BARRANCA",
        "CDGO_PADRE": "140000"
    }, {
        "CDGO_DIST": "140901",
        "DESC_DIST": "BARRANCA",
        "CDGO_PADRE": "140900"
    }, {
        "CDGO_DIST": "150701",
        "DESC_DIST": "BARRANCA",
        "CDGO_PADRE": "150700"
    }, {
        "CDGO_DIST": "140125",
        "DESC_DIST": "BARRANCO",
        "CDGO_PADRE": "140100"
    }, {
        "CDGO_DIST": "910125",
        "DESC_DIST": "BARRANCO",
        "CDGO_PADRE": "910100"
    }, {
        "CDGO_DIST": "210701",
        "DESC_DIST": "BELLAVISTA",
        "CDGO_PADRE": "210700"
    }, {
        "CDGO_DIST": "240102",
        "DESC_DIST": "BELLAVISTA",
        "CDGO_PADRE": "240100"
    }, {
        "CDGO_DIST": "120201",
        "DESC_DIST": "BOLIVAR",
        "CDGO_PADRE": "120200"
    }, {
        "CDGO_DIST": "010300",
        "DESC_DIST": "BONGARA",
        "CDGO_PADRE": "010000"
    }, {
        "CDGO_DIST": "140104",
        "DESC_DIST": "BREÑA",
        "CDGO_PADRE": "140100"
    }, {
        "CDGO_DIST": "910104",
        "DESC_DIST": "BREÑA",
        "CDGO_PADRE": "910100"
    }, {
        "CDGO_DIST": "021001",
        "DESC_DIST": "CABANA",
        "CDGO_PADRE": "021000"
    }, {
        "CDGO_DIST": "060200",
        "DESC_DIST": "CAJABAMBA",
        "CDGO_PADRE": "060000"
    }, {
        "CDGO_DIST": "060201",
        "DESC_DIST": "CAJABAMBA",
        "CDGO_PADRE": "060200"
    }, {
        "CDGO_DIST": "060100",
        "DESC_DIST": "CAJAMARCA",
        "CDGO_PADRE": "060000"
    }, {
        "CDGO_DIST": "060101",
        "DESC_DIST": "CAJAMARCA",
        "CDGO_PADRE": "060100"
    }, {
        "CDGO_DIST": "070401",
        "DESC_DIST": "CALCA",
        "CDGO_PADRE": "070400"
    }, {
        "CDGO_DIST": "240100",
        "DESC_DIST": "CALLAO",
        "CDGO_PADRE": "240000"
    }, {
        "CDGO_DIST": "240101",
        "DESC_DIST": "CALLAO",
        "CDGO_PADRE": "240100"
    }, {
        "CDGO_DIST": "250101",
        "DESC_DIST": "CALLERIA",
        "CDGO_PADRE": "250100"
    }, {
        "CDGO_DIST": "040301",
        "DESC_DIST": "CAMANA",
        "CDGO_PADRE": "040300"
    }, {
        "CDGO_DIST": "050200",
        "DESC_DIST": "CANGALLO",
        "CDGO_PADRE": "050000"
    }, {
        "CDGO_DIST": "050201",
        "DESC_DIST": "CANGALLO",
        "CDGO_PADRE": "050200"
    }, {
        "CDGO_DIST": "140300",
        "DESC_DIST": "CANTA",
        "CDGO_PADRE": "140000"
    }, {
        "CDGO_DIST": "140301",
        "DESC_DIST": "CANTA",
        "CDGO_PADRE": "140300"
    }, {
        "CDGO_DIST": "140105",
        "DESC_DIST": "CARABAYLLO",
        "CDGO_PADRE": "140100"
    }, {
        "CDGO_DIST": "910105",
        "DESC_DIST": "CARABAYLLO",
        "CDGO_PADRE": "910100"
    }, {
        "CDGO_DIST": "040401",
        "DESC_DIST": "CARAVELI",
        "CDGO_PADRE": "040400"
    }, {
        "CDGO_DIST": "020701",
        "DESC_DIST": "CARAZ",
        "CDGO_PADRE": "020700"
    }, {
        "CDGO_DIST": "020400",
        "DESC_DIST": "CARHUAZ",
        "CDGO_PADRE": "020000"
    }, {
        "CDGO_DIST": "020401",
        "DESC_DIST": "CARHUAZ",
        "CDGO_PADRE": "020400"
    }, {
        "CDGO_DIST": "240104",
        "DESC_DIST": "CARMEN DE LA LEGUA-REYNOSO",
        "CDGO_PADRE": "240100"
    }, {
        "CDGO_DIST": "121101",
        "DESC_DIST": "CASCAS",
        "CDGO_PADRE": "121100"
    }, {
        "CDGO_DIST": "020501",
        "DESC_DIST": "CASMA",
        "CDGO_PADRE": "020500"
    }, {
        "CDGO_DIST": "190103",
        "DESC_DIST": "CASTILLA",
        "CDGO_PADRE": "190100"
    }, {
        "CDGO_DIST": "080401",
        "DESC_DIST": "CASTROVIRREYNA",
        "CDGO_PADRE": "080400"
    }, {
        "CDGO_DIST": "040200",
        "DESC_DIST": "CAYLLOMA",
        "CDGO_PADRE": "040000"
    }, {
        "CDGO_DIST": "140400",
        "DESC_DIST": "CAÑETE",
        "CDGO_PADRE": "140000"
    }, {
        "CDGO_DIST": "060301",
        "DESC_DIST": "CELENDIN",
        "CDGO_PADRE": "060300"
    }, {
        "CDGO_DIST": "010100",
        "DESC_DIST": "CHACHAPOYAS",
        "CDGO_PADRE": "010000"
    }, {
        "CDGO_DIST": "010101",
        "DESC_DIST": "CHACHAPOYAS",
        "CDGO_PADRE": "010100"
    }, {
        "CDGO_DIST": "140107",
        "DESC_DIST": "CHACLACAYO",
        "CDGO_PADRE": "140100"
    }, {
        "CDGO_DIST": "910107",
        "DESC_DIST": "CHACLACAYO",
        "CDGO_PADRE": "910100"
    }, {
        "CDGO_DIST": "030201",
        "DESC_DIST": "CHALHUANCA",
        "CDGO_PADRE": "030200"
    }, {
        "CDGO_DIST": "110800",
        "DESC_DIST": "CHANCHAMAYO",
        "CDGO_PADRE": "110000"
    }, {
        "CDGO_DIST": "110801",
        "DESC_DIST": "CHANCHAMAYO",
        "CDGO_PADRE": "110800"
    }, {
        "CDGO_DIST": "180101",
        "DESC_DIST": "CHAUPIMARCA",
        "CDGO_PADRE": "180100"
    }, {
        "CDGO_DIST": "091101",
        "DESC_DIST": "CHAVINILLO",
        "CDGO_PADRE": "091100"
    }, {
        "CDGO_DIST": "120900",
        "DESC_DIST": "CHEPEN",
        "CDGO_PADRE": "120000"
    }, {
        "CDGO_DIST": "120901",
        "DESC_DIST": "CHEPEN",
        "CDGO_PADRE": "120900"
    }, {
        "CDGO_DIST": "130100",
        "DESC_DIST": "CHICLAYO",
        "CDGO_PADRE": "130000"
    }, {
        "CDGO_DIST": "130101",
        "DESC_DIST": "CHICLAYO",
        "CDGO_PADRE": "130100"
    }, {
        "CDGO_DIST": "021301",
        "DESC_DIST": "CHIMBOTE",
        "CDGO_PADRE": "021300"
    }, {
        "CDGO_DIST": "100200",
        "DESC_DIST": "CHINCHA",
        "CDGO_PADRE": "100000"
    }, {
        "CDGO_DIST": "100201",
        "DESC_DIST": "CHINCHA ALTA",
        "CDGO_PADRE": "100200"
    }, {
        "CDGO_DIST": "030701",
        "DESC_DIST": "CHINCHEROS",
        "CDGO_PADRE": "030700"
    }, {
        "CDGO_DIST": "020301",
        "DESC_DIST": "CHIQUIAN",
        "CDGO_PADRE": "020300"
    }, {
        "CDGO_DIST": "040201",
        "DESC_DIST": "CHIVAY",
        "CDGO_PADRE": "040200"
    }, {
        "CDGO_DIST": "140108",
        "DESC_DIST": "CHORRILLOS",
        "CDGO_PADRE": "140100"
    }, {
        "CDGO_DIST": "910108",
        "DESC_DIST": "CHORRILLOS",
        "CDGO_PADRE": "910100"
    }, {
        "CDGO_DIST": "060601",
        "DESC_DIST": "CHOTA",
        "CDGO_PADRE": "060600"
    }, {
        "CDGO_DIST": "190401",
        "DESC_DIST": "CHULUCANAS",
        "CDGO_PADRE": "190400"
    }, {
        "CDGO_DIST": "110900",
        "DESC_DIST": "CHUPACA",
        "CDGO_PADRE": "110000"
    }, {
        "CDGO_DIST": "110901",
        "DESC_DIST": "CHUPACA",
        "CDGO_PADRE": "110900"
    }, {
        "CDGO_DIST": "040601",
        "DESC_DIST": "CHUQUIBAMBA",
        "CDGO_PADRE": "040600"
    }, {
        "CDGO_DIST": "030601",
        "DESC_DIST": "CHUQUIBAMBILLA",
        "CDGO_PADRE": "030600"
    }, {
        "CDGO_DIST": "140139",
        "DESC_DIST": "CIENEGUILLA",
        "CDGO_PADRE": "140100"
    }, {
        "CDGO_DIST": "910139",
        "DESC_DIST": "CIENEGUILLA",
        "CDGO_PADRE": "910100"
    }, {
        "CDGO_DIST": "140106",
        "DESC_DIST": "COMAS",
        "CDGO_PADRE": "140100"
    }, {
        "CDGO_DIST": "910106",
        "DESC_DIST": "COMAS",
        "CDGO_PADRE": "910100"
    }, {
        "CDGO_DIST": "110201",
        "DESC_DIST": "CONCEPCION",
        "CDGO_PADRE": "110200"
    }, {
        "CDGO_DIST": "040600",
        "DESC_DIST": "CONDESUYOS",
        "CDGO_PADRE": "040000"
    }, {
        "CDGO_DIST": "150501",
        "DESC_DIST": "CONTAMANA",
        "CDGO_PADRE": "150500"
    }, {
        "CDGO_DIST": "230200",
        "DESC_DIST": "CONTRALMIRANTE VILLAR",
        "CDGO_PADRE": "230000"
    }, {
        "CDGO_DIST": "060401",
        "DESC_DIST": "CONTUMAZA",
        "CDGO_PADRE": "060400"
    }, {
        "CDGO_DIST": "250100",
        "DESC_DIST": "CORONEL PORTILLO",
        "CDGO_PADRE": "250000"
    }, {
        "CDGO_DIST": "030500",
        "DESC_DIST": "COTABAMBAS",
        "CDGO_PADRE": "030000"
    }, {
        "CDGO_DIST": "070100",
        "DESC_DIST": "CUSCO",
        "CDGO_PADRE": "070000"
    }, {
        "CDGO_DIST": "070101",
        "DESC_DIST": "CUSCO",
        "CDGO_PADRE": "070100"
    }, {
        "CDGO_DIST": "060501",
        "DESC_DIST": "CUTERVO",
        "CDGO_PADRE": "060500"
    }, {
        "CDGO_DIST": "090300",
        "DESC_DIST": "DOS DE MAYO",
        "CDGO_PADRE": "090000"
    }, {
        "CDGO_DIST": "140135",
        "DESC_DIST": "EL AGUSTINO",
        "CDGO_PADRE": "140100"
    }, {
        "CDGO_DIST": "910135",
        "DESC_DIST": "EL AGUSTINO",
        "CDGO_PADRE": "910100"
    }, {
        "CDGO_DIST": "110113",
        "DESC_DIST": "EL TAMBO",
        "CDGO_PADRE": "110100"
    }, {
        "CDGO_DIST": "070800",
        "DESC_DIST": "ESPINAR",
        "CDGO_PADRE": "070000"
    }, {
        "CDGO_DIST": "070801",
        "DESC_DIST": "ESPINAR",
        "CDGO_PADRE": "070800"
    }, {
        "CDGO_DIST": "130200",
        "DESC_DIST": "FERREÑAFE",
        "CDGO_PADRE": "130000"
    }, {
        "CDGO_DIST": "130201",
        "DESC_DIST": "FERREÑAFE",
        "CDGO_PADRE": "130200"
    }, {
        "CDGO_DIST": "090901",
        "DESC_DIST": "HUACAYBAMBA",
        "CDGO_PADRE": "090900"
    }, {
        "CDGO_DIST": "140501",
        "DESC_DIST": "HUACHO",
        "CDGO_PADRE": "140500"
    }, {
        "CDGO_DIST": "090501",
        "DESC_DIST": "HUACRACHUCO",
        "CDGO_PADRE": "090500"
    }, {
        "CDGO_DIST": "120301",
        "DESC_DIST": "HUAMACHUCO",
        "CDGO_PADRE": "120300"
    }, {
        "CDGO_DIST": "050100",
        "DESC_DIST": "HUAMANGA",
        "CDGO_PADRE": "050000"
    }, {
        "CDGO_DIST": "190301",
        "DESC_DIST": "HUANCABAMBA",
        "CDGO_PADRE": "190300"
    }, {
        "CDGO_DIST": "200500",
        "DESC_DIST": "HUANCANE",
        "CDGO_PADRE": "200000"
    }, {
        "CDGO_DIST": "200501",
        "DESC_DIST": "HUANCANE",
        "CDGO_PADRE": "200500"
    }, {
        "CDGO_DIST": "050701",
        "DESC_DIST": "HUANCAPI",
        "CDGO_PADRE": "050700"
    }, {
        "CDGO_DIST": "080101",
        "DESC_DIST": "HUANCAVELICA",
        "CDGO_PADRE": "080100"
    }, {
        "CDGO_DIST": "110100",
        "DESC_DIST": "HUANCAYO",
        "CDGO_PADRE": "110000"
    }, {
        "CDGO_DIST": "110101",
        "DESC_DIST": "HUANCAYO",
        "CDGO_PADRE": "110100"
    }, {
        "CDGO_DIST": "050300",
        "DESC_DIST": "HUANTA",
        "CDGO_PADRE": "050000"
    }, {
        "CDGO_DIST": "050301",
        "DESC_DIST": "HUANTA",
        "CDGO_PADRE": "050300"
    }, {
        "CDGO_DIST": "090100",
        "DESC_DIST": "HUANUCO",
        "CDGO_PADRE": "090000"
    }, {
        "CDGO_DIST": "090101",
        "DESC_DIST": "HUANUCO",
        "CDGO_PADRE": "090100"
    }, {
        "CDGO_DIST": "140800",
        "DESC_DIST": "HUARAL",
        "CDGO_PADRE": "140000"
    }, {
        "CDGO_DIST": "140801",
        "DESC_DIST": "HUARAL",
        "CDGO_PADRE": "140800"
    }, {
        "CDGO_DIST": "020100",
        "DESC_DIST": "HUARAZ",
        "CDGO_PADRE": "020000"
    }, {
        "CDGO_DIST": "020101",
        "DESC_DIST": "HUARAZ",
        "CDGO_PADRE": "020100"
    }, {
        "CDGO_DIST": "020801",
        "DESC_DIST": "HUARI",
        "CDGO_PADRE": "020800"
    }, {
        "CDGO_DIST": "021901",
        "DESC_DIST": "HUARMEY",
        "CDGO_PADRE": "021900"
    }, {
        "CDGO_DIST": "140600",
        "DESC_DIST": "HUAROCHIRI",
        "CDGO_PADRE": "140000"
    }, {
        "CDGO_DIST": "140500",
        "DESC_DIST": "HUAURA",
        "CDGO_PADRE": "140000"
    }, {
        "CDGO_DIST": "020700",
        "DESC_DIST": "HUAYLAS",
        "CDGO_PADRE": "020000"
    }, {
        "CDGO_DIST": "080604",
        "DESC_DIST": "HUAYTARA",
        "CDGO_PADRE": "080600"
    }, {
        "CDGO_DIST": "160302",
        "DESC_DIST": "IBERIA",
        "CDGO_PADRE": "160300"
    }, {
        "CDGO_DIST": "100100",
        "DESC_DIST": "ICA",
        "CDGO_PADRE": "100000"
    }, {
        "CDGO_DIST": "100101",
        "DESC_DIST": "ICA",
        "CDGO_PADRE": "100100"
    }, {
        "CDGO_DIST": "201201",
        "DESC_DIST": "ILAVE",
        "CDGO_PADRE": "201200"
    }, {
        "CDGO_DIST": "170300",
        "DESC_DIST": "ILO",
        "CDGO_PADRE": "170000"
    }, {
        "CDGO_DIST": "170301",
        "DESC_DIST": "ILO",
        "CDGO_PADRE": "170300"
    }, {
        "CDGO_DIST": "020102",
        "DESC_DIST": "INDEPENDENCIA",
        "CDGO_PADRE": "020100"
    }, {
        "CDGO_DIST": "140134",
        "DESC_DIST": "INDEPENDENCIA",
        "CDGO_PADRE": "140100"
    }, {
        "CDGO_DIST": "910134",
        "DESC_DIST": "INDEPENDENCIA",
        "CDGO_PADRE": "910100"
    }, {
        "CDGO_DIST": "150101",
        "DESC_DIST": "IQUITOS",
        "CDGO_PADRE": "150100"
    }, {
        "CDGO_DIST": "040700",
        "DESC_DIST": "ISLAY",
        "CDGO_PADRE": "040000"
    }, {
        "CDGO_DIST": "060800",
        "DESC_DIST": "JAEN",
        "CDGO_PADRE": "060000"
    }, {
        "CDGO_DIST": "060801",
        "DESC_DIST": "JAEN",
        "CDGO_PADRE": "060800"
    }, {
        "CDGO_DIST": "110300",
        "DESC_DIST": "JAUJA",
        "CDGO_PADRE": "110000"
    }, {
        "CDGO_DIST": "110301",
        "DESC_DIST": "JAUJA",
        "CDGO_PADRE": "110300"
    }, {
        "CDGO_DIST": "091001",
        "DESC_DIST": "JESUS",
        "CDGO_PADRE": "091000"
    }, {
        "CDGO_DIST": "140133",
        "DESC_DIST": "JESUS MARIA",
        "CDGO_PADRE": "140100"
    }, {
        "CDGO_DIST": "910133",
        "DESC_DIST": "JESUS MARIA",
        "CDGO_PADRE": "910100"
    }, {
        "CDGO_DIST": "210401",
        "DESC_DIST": "JUANJUI",
        "CDGO_PADRE": "210400"
    }, {
        "CDGO_DIST": "121001",
        "DESC_DIST": "JULCAN",
        "CDGO_PADRE": "121000"
    }, {
        "CDGO_DIST": "200401",
        "DESC_DIST": "JULI",
        "CDGO_PADRE": "200400"
    }, {
        "CDGO_DIST": "200901",
        "DESC_DIST": "JULIACA",
        "CDGO_PADRE": "200900"
    }, {
        "CDGO_DIST": "010301",
        "DESC_DIST": "JUMBILLA",
        "CDGO_PADRE": "010300"
    }, {
        "CDGO_DIST": "050400",
        "DESC_DIST": "LA MAR",
        "CDGO_PADRE": "050000"
    }, {
        "CDGO_DIST": "140110",
        "DESC_DIST": "LA MOLINA",
        "CDGO_PADRE": "140100"
    }, {
        "CDGO_DIST": "910110",
        "DESC_DIST": "LA MOLINA",
        "CDGO_PADRE": "910100"
    }, {
        "CDGO_DIST": "110601",
        "DESC_DIST": "LA OROYA",
        "CDGO_PADRE": "110600"
    }, {
        "CDGO_DIST": "240105",
        "DESC_DIST": "LA PERLA",
        "CDGO_PADRE": "240100"
    }, {
        "CDGO_DIST": "240103",
        "DESC_DIST": "LA PUNTA",
        "CDGO_PADRE": "240100"
    }, {
        "CDGO_DIST": "090301",
        "DESC_DIST": "LA UNION",
        "CDGO_PADRE": "090300"
    }, {
        "CDGO_DIST": "140109",
        "DESC_DIST": "LA VICTORIA",
        "CDGO_PADRE": "140100"
    }, {
        "CDGO_DIST": "910109",
        "DESC_DIST": "LA VICTORIA",
        "CDGO_PADRE": "910100"
    }, {
        "CDGO_DIST": "210301",
        "DESC_DIST": "LAMAS",
        "CDGO_PADRE": "210300"
    }, {
        "CDGO_DIST": "130300",
        "DESC_DIST": "LAMBAYEQUE",
        "CDGO_PADRE": "130000"
    }, {
        "CDGO_DIST": "130301",
        "DESC_DIST": "LAMBAYEQUE",
        "CDGO_PADRE": "130300"
    }, {
        "CDGO_DIST": "200601",
        "DESC_DIST": "LAMPA",
        "CDGO_PADRE": "200600"
    }, {
        "CDGO_DIST": "010401",
        "DESC_DIST": "LAMUD",
        "CDGO_PADRE": "010400"
    }, {
        "CDGO_DIST": "140100",
        "DESC_DIST": "LIMA",
        "CDGO_PADRE": "140000"
    }, {
        "CDGO_DIST": "140101",
        "DESC_DIST": "LIMA",
        "CDGO_PADRE": "140100"
    }, {
        "CDGO_DIST": "910100",
        "DESC_DIST": "LIMA",
        "CDGO_PADRE": "910100"
    }, {
        "CDGO_DIST": "910101",
        "DESC_DIST": "LIMA",
        "CDGO_PADRE": "910100"
    }, {
        "CDGO_DIST": "140111",
        "DESC_DIST": "LINCE",
        "CDGO_PADRE": "140100"
    }, {
        "CDGO_DIST": "910111",
        "DESC_DIST": "LINCE",
        "CDGO_PADRE": "910100"
    }, {
        "CDGO_DIST": "080301",
        "DESC_DIST": "LIRCAY",
        "CDGO_PADRE": "080300"
    }, {
        "CDGO_DIST": "090401",
        "DESC_DIST": "LLATA",
        "CDGO_PADRE": "090400"
    }, {
        "CDGO_DIST": "140142",
        "DESC_DIST": "LOS OLIVOS",
        "CDGO_PADRE": "140100"
    }, {
        "CDGO_DIST": "910142",
        "DESC_DIST": "LOS OLIVOS",
        "CDGO_PADRE": "910100"
    }, {
        "CDGO_DIST": "140112",
        "DESC_DIST": "LURIGANCHO",
        "CDGO_PADRE": "140100"
    }, {
        "CDGO_DIST": "910112",
        "DESC_DIST": "LURIGANCHO",
        "CDGO_PADRE": "910100"
    }, {
        "CDGO_DIST": "140113",
        "DESC_DIST": "LURIN",
        "CDGO_PADRE": "140100"
    }, {
        "CDGO_DIST": "910113",
        "DESC_DIST": "LURIN",
        "CDGO_PADRE": "910100"
    }, {
        "CDGO_DIST": "140114",
        "DESC_DIST": "MAGDALENA DEL MAR",
        "CDGO_PADRE": "140100"
    }, {
        "CDGO_DIST": "910114",
        "DESC_DIST": "MAGDALENA DEL MAR",
        "CDGO_PADRE": "910100"
    }, {
        "CDGO_DIST": "040126",
        "DESC_DIST": "MARIANO MELGAR",
        "CDGO_PADRE": "040100"
    }, {
        "CDGO_DIST": "170100",
        "DESC_DIST": "MARISCAL NIETO",
        "CDGO_PADRE": "170000"
    }, {
        "CDGO_DIST": "150600",
        "DESC_DIST": "MARISCAL RAMON CASTILLA",
        "CDGO_PADRE": "150000"
    }, {
        "CDGO_DIST": "140601",
        "DESC_DIST": "MATUCANA",
        "CDGO_PADRE": "140600"
    }, {
        "CDGO_DIST": "150100",
        "DESC_DIST": "MAYNAS",
        "CDGO_PADRE": "150000"
    }, {
        "CDGO_DIST": "200700",
        "DESC_DIST": "MELGAR",
        "CDGO_PADRE": "200000"
    }, {
        "CDGO_DIST": "140115",
        "DESC_DIST": "MIRAFLORES",
        "CDGO_PADRE": "140100"
    }, {
        "CDGO_DIST": "910115",
        "DESC_DIST": "MIRAFLORES",
        "CDGO_PADRE": "910100"
    }, {
        "CDGO_DIST": "040701",
        "DESC_DIST": "MOLLENDO",
        "CDGO_PADRE": "040700"
    }, {
        "CDGO_DIST": "170101",
        "DESC_DIST": "MOQUEGUA",
        "CDGO_PADRE": "170100"
    }, {
        "CDGO_DIST": "190400",
        "DESC_DIST": "MORROPON",
        "CDGO_PADRE": "190000"
    }, {
        "CDGO_DIST": "210100",
        "DESC_DIST": "MOYOBAMBA",
        "CDGO_PADRE": "210000"
    }, {
        "CDGO_DIST": "210101",
        "DESC_DIST": "MOYOBAMBA",
        "CDGO_PADRE": "210100"
    }, {
        "CDGO_DIST": "150301",
        "DESC_DIST": "NAUTA",
        "CDGO_PADRE": "150300"
    }, {
        "CDGO_DIST": "100300",
        "DESC_DIST": "NAZCA",
        "CDGO_PADRE": "100000"
    }, {
        "CDGO_DIST": "100301",
        "DESC_DIST": "NAZCA",
        "CDGO_PADRE": "100300"
    }, {
        "CDGO_DIST": "010601",
        "DESC_DIST": "NIEVA",
        "CDGO_PADRE": "010600"
    }, {
        "CDGO_DIST": "022007",
        "DESC_DIST": "OCROS",
        "CDGO_PADRE": "022000"
    }, {
        "CDGO_DIST": "120401",
        "DESC_DIST": "OTUZCO",
        "CDGO_PADRE": "120400"
    }, {
        "CDGO_DIST": "180300",
        "DESC_DIST": "OXAPAMPA",
        "CDGO_PADRE": "180000"
    }, {
        "CDGO_DIST": "180301",
        "DESC_DIST": "OXAPAMPA",
        "CDGO_PADRE": "180300"
    }, {
        "CDGO_DIST": "141001",
        "DESC_DIST": "OYON",
        "CDGO_PADRE": "141000"
    }, {
        "CDGO_DIST": "120500",
        "DESC_DIST": "PACASMAYO",
        "CDGO_PADRE": "120000"
    }, {
        "CDGO_DIST": "140116",
        "DESC_DIST": "PACHACAMAC",
        "CDGO_PADRE": "140100"
    }, {
        "CDGO_DIST": "910116",
        "DESC_DIST": "PACHACAMAC",
        "CDGO_PADRE": "910100"
    }, {
        "CDGO_DIST": "250200",
        "DESC_DIST": "PADRE ABAD",
        "CDGO_PADRE": "250000"
    }, {
        "CDGO_DIST": "250201",
        "DESC_DIST": "PADRE ABAD",
        "CDGO_PADRE": "250200"
    }, {
        "CDGO_DIST": "190501",
        "DESC_DIST": "PAITA",
        "CDGO_PADRE": "190500"
    }, {
        "CDGO_DIST": "100500",
        "DESC_DIST": "PALPA",
        "CDGO_PADRE": "100000"
    }, {
        "CDGO_DIST": "100501",
        "DESC_DIST": "PALPA",
        "CDGO_PADRE": "100500"
    }, {
        "CDGO_DIST": "080501",
        "DESC_DIST": "PAMPAS",
        "CDGO_PADRE": "080500"
    }, {
        "CDGO_DIST": "090701",
        "DESC_DIST": "PANAO",
        "CDGO_PADRE": "090700"
    }, {
        "CDGO_DIST": "190701",
        "DESC_DIST": "PARIÑAS",
        "CDGO_PADRE": "190700"
    }, {
        "CDGO_DIST": "071001",
        "DESC_DIST": "PARURO",
        "CDGO_PADRE": "071000"
    }, {
        "CDGO_DIST": "180100",
        "DESC_DIST": "PASCO",
        "CDGO_PADRE": "180000"
    }, {
        "CDGO_DIST": "071101",
        "DESC_DIST": "PAUCARTAMBO",
        "CDGO_PADRE": "071100"
    }, {
        "CDGO_DIST": "150602",
        "DESC_DIST": "PEBAS",
        "CDGO_PADRE": "150600"
    }, {
        "CDGO_DIST": "061201",
        "DESC_DIST": "PEDRO GALVEZ",
        "CDGO_PADRE": "061200"
    }, {
        "CDGO_DIST": "210901",
        "DESC_DIST": "PICOTA",
        "CDGO_PADRE": "210900"
    }, {
        "CDGO_DIST": "100400",
        "DESC_DIST": "PISCO",
        "CDGO_PADRE": "100000"
    }, {
        "CDGO_DIST": "100401",
        "DESC_DIST": "PISCO",
        "CDGO_PADRE": "100400"
    }, {
        "CDGO_DIST": "190100",
        "DESC_DIST": "PIURA",
        "CDGO_PADRE": "190000"
    }, {
        "CDGO_DIST": "190101",
        "DESC_DIST": "PIURA",
        "CDGO_PADRE": "190100"
    }, {
        "CDGO_DIST": "021101",
        "DESC_DIST": "POMABAMBA",
        "CDGO_PADRE": "021100"
    }, {
        "CDGO_DIST": "140117",
        "DESC_DIST": "PUEBLO LIBRE",
        "CDGO_PADRE": "140100"
    }, {
        "CDGO_DIST": "910117",
        "DESC_DIST": "PUEBLO LIBRE",
        "CDGO_PADRE": "910100"
    }, {
        "CDGO_DIST": "140119",
        "DESC_DIST": "PUENTE PIEDRA",
        "CDGO_PADRE": "140100"
    }, {
        "CDGO_DIST": "910119",
        "DESC_DIST": "PUENTE PIEDRA",
        "CDGO_PADRE": "910100"
    }, {
        "CDGO_DIST": "090800",
        "DESC_DIST": "PUERTO INCA",
        "CDGO_PADRE": "090000"
    }, {
        "CDGO_DIST": "090802",
        "DESC_DIST": "PUERTO INCA",
        "CDGO_PADRE": "090800"
    }, {
        "CDGO_DIST": "200100",
        "DESC_DIST": "PUNO",
        "CDGO_PADRE": "200000"
    }, {
        "CDGO_DIST": "200101",
        "DESC_DIST": "PUNO",
        "CDGO_PADRE": "200100"
    }, {
        "CDGO_DIST": "140120",
        "DESC_DIST": "PUNTA HERMOSA",
        "CDGO_PADRE": "140100"
    }, {
        "CDGO_DIST": "910120",
        "DESC_DIST": "PUNTA HERMOSA",
        "CDGO_PADRE": "910100"
    }, {
        "CDGO_DIST": "050501",
        "DESC_DIST": "PUQUIO",
        "CDGO_PADRE": "050500"
    }, {
        "CDGO_DIST": "201101",
        "DESC_DIST": "PUTINA",
        "CDGO_PADRE": "201100"
    }, {
        "CDGO_DIST": "250301",
        "DESC_DIST": "RAIMONDI",
        "CDGO_PADRE": "250300"
    }, {
        "CDGO_DIST": "150601",
        "DESC_DIST": "RAMON CASTILLA",
        "CDGO_PADRE": "150600"
    }, {
        "CDGO_DIST": "150401",
        "DESC_DIST": "REQUENA",
        "CDGO_PADRE": "150400"
    }, {
        "CDGO_DIST": "140122",
        "DESC_DIST": "RIMAC",
        "CDGO_PADRE": "140100"
    }, {
        "CDGO_DIST": "910122",
        "DESC_DIST": "RIMAC",
        "CDGO_PADRE": "910100"
    }, {
        "CDGO_DIST": "210501",
        "DESC_DIST": "RIOJA",
        "CDGO_PADRE": "210500"
    }, {
        "CDGO_DIST": "090601",
        "DESC_DIST": "RUPA-RUPA",
        "CDGO_PADRE": "090600"
    }, {
        "CDGO_DIST": "140140",
        "DESC_DIST": "SAN BORJA",
        "CDGO_PADRE": "140100"
    }, {
        "CDGO_DIST": "910140",
        "DESC_DIST": "SAN BORJA",
        "CDGO_PADRE": "910100"
    }, {
        "CDGO_DIST": "061101",
        "DESC_DIST": "SAN IGNACIO",
        "CDGO_PADRE": "061100"
    }, {
        "CDGO_DIST": "140124",
        "DESC_DIST": "SAN ISIDRO",
        "CDGO_PADRE": "140100"
    }, {
        "CDGO_DIST": "910124",
        "DESC_DIST": "SAN ISIDRO",
        "CDGO_PADRE": "910100"
    }, {
        "CDGO_DIST": "211001",
        "DESC_DIST": "SAN JOSE DE SISA",
        "CDGO_PADRE": "211000"
    }, {
        "CDGO_DIST": "140137",
        "DESC_DIST": "SAN JUAN DE LURIGANCHO",
        "CDGO_PADRE": "140100"
    }, {
        "CDGO_DIST": "910137",
        "DESC_DIST": "SAN JUAN DE LURIGANCHO",
        "CDGO_PADRE": "910100"
    }, {
        "CDGO_DIST": "140136",
        "DESC_DIST": "SAN JUAN DE MIRAFLORES",
        "CDGO_PADRE": "140100"
    }, {
        "CDGO_DIST": "910136",
        "DESC_DIST": "SAN JUAN DE MIRAFLORES",
        "CDGO_PADRE": "910100"
    }, {
        "CDGO_DIST": "140138",
        "DESC_DIST": "SAN LUIS",
        "CDGO_PADRE": "140100"
    }, {
        "CDGO_DIST": "910138",
        "DESC_DIST": "SAN LUIS",
        "CDGO_PADRE": "910100"
    }, {
        "CDGO_DIST": "210600",
        "DESC_DIST": "SAN MARTIN",
        "CDGO_PADRE": "210000"
    }, {
        "CDGO_DIST": "140126",
        "DESC_DIST": "SAN MARTIN DE PORRES",
        "CDGO_PADRE": "140100"
    }, {
        "CDGO_DIST": "910126",
        "DESC_DIST": "SAN MARTIN DE PORRES",
        "CDGO_PADRE": "910100"
    }, {
        "CDGO_DIST": "050401",
        "DESC_DIST": "SAN MIGUEL",
        "CDGO_PADRE": "050400"
    }, {
        "CDGO_DIST": "061000",
        "DESC_DIST": "SAN MIGUEL",
        "CDGO_PADRE": "060000"
    }, {
        "CDGO_DIST": "061001",
        "DESC_DIST": "SAN MIGUEL",
        "CDGO_PADRE": "061000"
    }, {
        "CDGO_DIST": "140127",
        "DESC_DIST": "SAN MIGUEL",
        "CDGO_PADRE": "140100"
    }, {
        "CDGO_DIST": "910127",
        "DESC_DIST": "SAN MIGUEL",
        "CDGO_PADRE": "910100"
    }, {
        "CDGO_DIST": "010501",
        "DESC_DIST": "SAN NICOLAS",
        "CDGO_PADRE": "010500"
    }, {
        "CDGO_DIST": "061301",
        "DESC_DIST": "SAN PABLO",
        "CDGO_PADRE": "061300"
    }, {
        "CDGO_DIST": "150604",
        "DESC_DIST": "SAN PABLO",
        "CDGO_PADRE": "150600"
    }, {
        "CDGO_DIST": "120501",
        "DESC_DIST": "SAN PEDRO DE LLOC",
        "CDGO_PADRE": "120500"
    }, {
        "CDGO_DIST": "200900",
        "DESC_DIST": "SAN ROMAN",
        "CDGO_PADRE": "200000"
    }, {
        "CDGO_DIST": "140401",
        "DESC_DIST": "SAN VICENTE DE CAÑETE",
        "CDGO_PADRE": "140400"
    }, {
        "CDGO_DIST": "200801",
        "DESC_DIST": "SANDIA",
        "CDGO_PADRE": "200800"
    }, {
        "CDGO_DIST": "021300",
        "DESC_DIST": "SANTA",
        "CDGO_PADRE": "020000"
    }, {
        "CDGO_DIST": "070901",
        "DESC_DIST": "SANTA ANA",
        "CDGO_PADRE": "070900"
    }, {
        "CDGO_DIST": "140143",
        "DESC_DIST": "SANTA ANITA",
        "CDGO_PADRE": "140100"
    }, {
        "CDGO_DIST": "910143",
        "DESC_DIST": "SANTA ANITA",
        "CDGO_PADRE": "910100"
    }, {
        "CDGO_DIST": "060900",
        "DESC_DIST": "SANTA CRUZ",
        "CDGO_PADRE": "060000"
    }, {
        "CDGO_DIST": "060901",
        "DESC_DIST": "SANTA CRUZ",
        "CDGO_PADRE": "060900"
    }, {
        "CDGO_DIST": "120700",
        "DESC_DIST": "SANTIAGO DE CHUCO",
        "CDGO_PADRE": "120000"
    }, {
        "CDGO_DIST": "120701",
        "DESC_DIST": "SANTIAGO DE CHUCO",
        "CDGO_PADRE": "120700"
    }, {
        "CDGO_DIST": "140130",
        "DESC_DIST": "SANTIAGO DE SURCO",
        "CDGO_PADRE": "140100"
    }, {
        "CDGO_DIST": "910130",
        "DESC_DIST": "SANTIAGO DE SURCO",
        "CDGO_PADRE": "910100"
    }, {
        "CDGO_DIST": "070701",
        "DESC_DIST": "SANTO TOMAS",
        "CDGO_PADRE": "070700"
    }, {
        "CDGO_DIST": "210201",
        "DESC_DIST": "SAPOSOA",
        "CDGO_PADRE": "210200"
    }, {
        "CDGO_DIST": "110700",
        "DESC_DIST": "SATIPO",
        "CDGO_PADRE": "110000"
    }, {
        "CDGO_DIST": "110701",
        "DESC_DIST": "SATIPO",
        "CDGO_PADRE": "110700"
    }, {
        "CDGO_DIST": "190800",
        "DESC_DIST": "SECHURA",
        "CDGO_PADRE": "190000"
    }, {
        "CDGO_DIST": "190801",
        "DESC_DIST": "SECHURA",
        "CDGO_PADRE": "190800"
    }, {
        "CDGO_DIST": "070601",
        "DESC_DIST": "SICUANI",
        "CDGO_PADRE": "070600"
    }, {
        "CDGO_DIST": "021401",
        "DESC_DIST": "SIHUAS",
        "CDGO_PADRE": "021400"
    }, {
        "CDGO_DIST": "190600",
        "DESC_DIST": "SULLANA",
        "CDGO_PADRE": "190000"
    }, {
        "CDGO_DIST": "190601",
        "DESC_DIST": "SULLANA",
        "CDGO_PADRE": "190600"
    }, {
        "CDGO_DIST": "140131",
        "DESC_DIST": "SURQUILLO",
        "CDGO_PADRE": "140100"
    }, {
        "CDGO_DIST": "910131",
        "DESC_DIST": "SURQUILLO",
        "CDGO_PADRE": "910100"
    }, {
        "CDGO_DIST": "220100",
        "DESC_DIST": "TACNA",
        "CDGO_PADRE": "220000"
    }, {
        "CDGO_DIST": "220101",
        "DESC_DIST": "TACNA",
        "CDGO_PADRE": "220100"
    }, {
        "CDGO_DIST": "160300",
        "DESC_DIST": "TAHUAMANU",
        "CDGO_PADRE": "160000"
    }, {
        "CDGO_DIST": "190700",
        "DESC_DIST": "TALARA",
        "CDGO_PADRE": "190000"
    }, {
        "CDGO_DIST": "030501",
        "DESC_DIST": "TAMBOBAMBA",
        "CDGO_PADRE": "030500"
    }, {
        "CDGO_DIST": "160100",
        "DESC_DIST": "TAMBOPATA",
        "CDGO_PADRE": "160000"
    }, {
        "CDGO_DIST": "160101",
        "DESC_DIST": "TAMBOPATA",
        "CDGO_PADRE": "160100"
    }, {
        "CDGO_DIST": "030109",
        "DESC_DIST": "TAMBURCO",
        "CDGO_PADRE": "030100"
    }, {
        "CDGO_DIST": "210601",
        "DESC_DIST": "TARAPOTO",
        "CDGO_PADRE": "210600"
    }, {
        "CDGO_DIST": "110500",
        "DESC_DIST": "TARMA",
        "CDGO_PADRE": "110000"
    }, {
        "CDGO_DIST": "110501",
        "DESC_DIST": "TARMA",
        "CDGO_PADRE": "110500"
    }, {
        "CDGO_DIST": "120601",
        "DESC_DIST": "TAYABAMBA",
        "CDGO_PADRE": "120600"
    }, {
        "CDGO_DIST": "080500",
        "DESC_DIST": "TAYACAJA",
        "CDGO_PADRE": "080000"
    }, {
        "CDGO_DIST": "210801",
        "DESC_DIST": "TOCACHE",
        "CDGO_PADRE": "210800"
    }, {
        "CDGO_DIST": "120100",
        "DESC_DIST": "TRUJILLO",
        "CDGO_PADRE": "120000"
    }, {
        "CDGO_DIST": "120101",
        "DESC_DIST": "TRUJILLO",
        "CDGO_PADRE": "120100"
    }, {
        "CDGO_DIST": "230100",
        "DESC_DIST": "TUMBES",
        "CDGO_PADRE": "230000"
    }, {
        "CDGO_DIST": "230101",
        "DESC_DIST": "TUMBES",
        "CDGO_PADRE": "230100"
    }, {
        "CDGO_DIST": "071201",
        "DESC_DIST": "URCOS",
        "CDGO_PADRE": "071200"
    }, {
        "CDGO_DIST": "071300",
        "DESC_DIST": "URUBAMBA",
        "CDGO_PADRE": "070000"
    }, {
        "CDGO_DIST": "071301",
        "DESC_DIST": "URUBAMBA",
        "CDGO_PADRE": "071300"
    }, {
        "CDGO_DIST": "010700",
        "DESC_DIST": "UTCUBAMBA",
        "CDGO_PADRE": "010000"
    }, {
        "CDGO_DIST": "240106",
        "DESC_DIST": "VENTANILLA",
        "CDGO_PADRE": "240100"
    }, {
        "CDGO_DIST": "140141",
        "DESC_DIST": "VILLA EL SALVADOR",
        "CDGO_PADRE": "140100"
    }, {
        "CDGO_DIST": "910141",
        "DESC_DIST": "VILLA EL SALVADOR",
        "CDGO_PADRE": "910100"
    }, {
        "CDGO_DIST": "140132",
        "DESC_DIST": "VILLA MARIA DEL TRIUNFO",
        "CDGO_PADRE": "140100"
    }, {
        "CDGO_DIST": "910132",
        "DESC_DIST": "VILLA MARIA DEL TRIUNFO",
        "CDGO_PADRE": "910100"
    }, {
        "CDGO_DIST": "121201",
        "DESC_DIST": "VIRU",
        "CDGO_PADRE": "121200"
    }, {
        "CDGO_DIST": "070108",
        "DESC_DIST": "WANCHAQ",
        "CDGO_PADRE": "070100"
    }, {
        "CDGO_DIST": "180201",
        "DESC_DIST": "YANAHUANCA",
        "CDGO_PADRE": "180200"
    }, {
        "CDGO_DIST": "070501",
        "DESC_DIST": "YANAOCA",
        "CDGO_PADRE": "070500"
    }, {
        "CDGO_DIST": "110600",
        "DESC_DIST": "YAULI",
        "CDGO_PADRE": "110000"
    }, {
        "CDGO_DIST": "140701",
        "DESC_DIST": "YAUYOS",
        "CDGO_PADRE": "140700"
    }, {
        "CDGO_DIST": "150603",
        "DESC_DIST": "YAVARI",
        "CDGO_PADRE": "150600"
    }, {
        "CDGO_DIST": "021500",
        "DESC_DIST": "YUNGAY",
        "CDGO_PADRE": "020000"
    }, {
        "CDGO_DIST": "021501",
        "DESC_DIST": "YUNGAY",
        "CDGO_PADRE": "021500"
    }, {
        "CDGO_DIST": "201001",
        "DESC_DIST": "YUNGUYO",
        "CDGO_PADRE": "201000"
    }, {
        "CDGO_DIST": "150201",
        "DESC_DIST": "YURIMAGUAS",
        "CDGO_PADRE": "150200"
    }, {
        "CDGO_DIST": "230300",
        "DESC_DIST": "ZARUMILLA",
        "CDGO_PADRE": "230000"
    }, {
        "CDGO_DIST": "230301",
        "DESC_DIST": "ZARUMILLA",
        "CDGO_PADRE": "230300"
    }, {
        "CDGO_DIST": "230201",
        "DESC_DIST": "ZORRITOS",
        "CDGO_PADRE": "230200"
    }]
}