{
    "generals": {
        "generalData": {
            "ELECTORES_HABIL": "12,408",
            "TOT_CIUDADANOS_VOTARON": "1,048",
            "POR_CIUDADANOS_VOTARON": "8.45",
            "POR_ACTAS_CONTABILIZADAS": "100.00",
            "POR_ACTAS_PROCESADAS": "100.00",
            "ACTAS_PROCESADAS": "35",
            "POR_PROCESAR": "0",
            "CONTABILIZA": "35",
            "POR_POR_PROCESAR": "0.00",
            "N_CANDIDATOS": "0"
        },
        "actData": {
            "FECHA": "10/12/2020",
            "HORA": "21:54 h",
            "POR_AVANCE": " 100.0000"
        },
        "realImages": "1"
    },
    "results": [{
        "C_CODI_AGRUPOL": "13000001",
        "AGRUPACION": "FORMULA 1",
        "TOTAL_VOTOS": "968",
        "NLISTA": "1",
        "POR_VALIDOS": "100.00",
        "POR_EMITIDOS": "92.37"
    }, {
        "C_CODI_AGRUPOL": null,
        "AGRUPACION": "TOTAL DE VOTOS VÁLIDOS",
        "IMAGENAGRUPACION": null,
        "PORC_AVANCE_ACTA": null,
        "ACTAS_COMPUTADA": null,
        "TOTAL_MESAS": null,
        "TOTAL_VOTOS": "968",
        "NLISTA": null,
        "POR_VALIDOS": "100.00",
        "POR_EMITIDOS": "92.37"
    }, {
        "C_CODI_AGRUPOL": "80",
        "AGRUPACION": "VOTOS EN BLANCO",
        "IMAGENAGRUPACION": null,
        "PORC_AVANCE_ACTA": "0.00",
        "ACTAS_COMPUTADA": "0",
        "TOTAL_MESAS": "0",
        "TOTAL_VOTOS": "25",
        "NLISTA": null,
        "POR_VALIDOS": null,
        "POR_EMITIDOS": "2.39"
    }, {
        "C_CODI_AGRUPOL": "81",
        "AGRUPACION": "VOTOS NULOS",
        "IMAGENAGRUPACION": null,
        "PORC_AVANCE_ACTA": "0.00",
        "ACTAS_COMPUTADA": "0",
        "TOTAL_MESAS": "0",
        "TOTAL_VOTOS": "55",
        "NLISTA": null,
        "POR_VALIDOS": null,
        "POR_EMITIDOS": "5.25"
    }, {
        "C_CODI_AGRUPOL": null,
        "AGRUPACION": "TOTAL DE VOTOS EMITIDOS",
        "IMAGENAGRUPACION": null,
        "PORC_AVANCE_ACTA": null,
        "ACTAS_COMPUTADA": null,
        "TOTAL_MESAS": null,
        "TOTAL_VOTOS": "1,048",
        "NLISTA": null,
        "POR_EMITIDOS": "100.00",
        "POR_VALIDOS": null
    }],
    "summary": {
        "CCODI_UBIGEO": "800000",
        "CONTABILIZA": "35",
        "CONT_NORMAL": "31",
        "IMPUGNADA": "0",
        "ERROR_MAT": "0",
        "MESAS_INSTALADAS": "31",
        "ACTAS_PROCESADAS": "35",
        "SOL_NULIDAD": "0",
        "ILEGIBLE": "0",
        "PENDIENTE": "0",
        "OTRAS_OBS": "0",
        "SIN_DATOS": "0",
        "CONT_ANULADA": "0",
        "POR_PROCESAR": "0",
        "EXTRAVIADA": "0",
        "SINIESTRADA": "0",
        "INCOMPLETA": "0",
        "SIN_FIRMA": "0",
        "A_INSTALAR": "35",
        "MESAS_NO_INST": "4",
        "FUSIONADAS": "0",
        "NTOTAL_AUTO": "0",
        "MESAS_HABILES": "35",
        "TOT_CIUDADANOS_VOTARON": "1,048",
        "ELECTORES_HABIL": "12,408",
        "ELECTORES_HABIL_50": "6,208",
        "TOTAL_JEE": "0"
    }
}