{
    "generals": {
        "generalData": {
            "ELECTORES_HABIL": "147",
            "TOT_CIUDADANOS_VOTARON": "20",
            "POR_CIUDADANOS_VOTARON": "13.61",
            "POR_ACTAS_CONTABILIZADAS": "100.00",
            "POR_ACTAS_PROCESADAS": "100.00",
            "ACTAS_PROCESADAS": "1",
            "POR_PROCESAR": "0",
            "CONTABILIZA": "1",
            "POR_POR_PROCESAR": "0.00",
            "N_CANDIDATOS": "0"
        },
        "actData": {
            "FECHA": "10/12/2020",
            "HORA": "21:54 h",
            "POR_AVANCE": " 100.0000"
        },
        "realImages": "1"
    },
    "results": [{
        "C_CODI_AGRUPOL": "15000012",
        "AGRUPACION": "LISTA 1",
        "TOTAL_VOTOS": "10",
        "TOTAL_VOTOS1": "0",
        "TOTAL_VOTOS2": "0",
        "TOTAL_VOTOS3": "0",
        "TOTAL_VOTOS4": "0",
        "TOTAL_VOTOS5": "0",
        "TOTAL_VOTOS6": "0",
        "TOTAL_VOTOS7": "0",
        "TOTAL_VOTOS8": "0",
        "TOTAL_VOTOS9": "0",
        "TOTAL_VOTOS10": "0",
        "TOTAL_VOTOS11": "0",
        "TOTAL_VOTOS12": "0",
        "TOTAL_VOTOS13": "0",
        "TOTAL_VOTOS14": "0",
        "TOTAL_VOTOS15": "0",
        "TOTAL_VOTOS16": "0",
        "TOTAL_VOTOS17": "0",
        "TOTAL_VOTOS18": "0",
        "TOTAL_VOTOS19": "0",
        "TOTAL_VOTOS20": "0",
        "TOTAL_VOTOS21": "0",
        "TOTAL_VOTOS22": "0",
        "TOTAL_VOTOS23": "0",
        "TOTAL_VOTOS24": "0",
        "TOTAL_VOTOS25": "0",
        "TOTAL_VOTOS26": "0",
        "TOTAL_VOTOS27": "0",
        "TOTAL_VOTOS28": "0",
        "TOTAL_VOTOS29": "0",
        "TOTAL_VOTOS30": "0",
        "TOTAL_VOTOS31": "0",
        "TOTAL_VOTOS32": "0",
        "TOTAL_VOTOS33": "0",
        "TOTAL_VOTOS34": "0",
        "TOTAL_VOTOS35": "0",
        "TOTAL_VOTOS36": "0",
        "NLISTA": 1,
        "POR_VALIDOS": "100.00",
        "POR_EMITIDOS": "50.00"
    }, {
        "C_CODI_AGRUPOL": null,
        "AGRUPACION": "TOTAL DE VOTOS VÁLIDOS",
        "IMAGENAGRUPACION": null,
        "PORC_AVANCE_ACTA": null,
        "ACTAS_COMPUTADA": null,
        "TOTAL_MESAS": null,
        "TOTAL_VOTOS": "10",
        "NLISTA": null,
        "POR_VALIDOS": "100.00",
        "POR_EMITIDOS": "50.00"
    }, {
        "C_CODI_AGRUPOL": "80",
        "AGRUPACION": "VOTOS BLANCOS",
        "IMAGENAGRUPACION": null,
        "PORC_AVANCE_ACTA": "100.00",
        "ACTAS_COMPUTADA": "1",
        "TOTAL_MESAS": "1",
        "TOTAL_VOTOS": "1",
        "NLISTA": null,
        "POR_VALIDOS": null,
        "POR_EMITIDOS": "5.00"
    }, {
        "C_CODI_AGRUPOL": "81",
        "AGRUPACION": "VOTOS NULOS",
        "IMAGENAGRUPACION": null,
        "PORC_AVANCE_ACTA": "100.00",
        "ACTAS_COMPUTADA": "1",
        "TOTAL_MESAS": "1",
        "TOTAL_VOTOS": "9",
        "NLISTA": null,
        "POR_VALIDOS": null,
        "POR_EMITIDOS": "45.00"
    }, {
        "C_CODI_AGRUPOL": null,
        "AGRUPACION": "TOTAL DE VOTOS EMITIDOS",
        "IMAGENAGRUPACION": null,
        "PORC_AVANCE_ACTA": null,
        "ACTAS_COMPUTADA": null,
        "TOTAL_MESAS": null,
        "TOTAL_VOTOS": "20",
        "NLISTA": null,
        "POR_EMITIDOS": "100.00",
        "POR_VALIDOS": null
    }],
    "summary": {
        "CCODI_UBIGEO": "D43001",
        "CONTABILIZA": "1",
        "CONT_NORMAL": "1",
        "IMPUGNADA": "0",
        "ERROR_MAT": "0",
        "MESAS_INSTALADAS": "1",
        "ACTAS_PROCESADAS": "1",
        "SOL_NULIDAD": "0",
        "ILEGIBLE": "0",
        "PENDIENTE": "0",
        "OTRAS_OBS": "0",
        "SIN_DATOS": "0",
        "CONT_ANULADA": "0",
        "POR_PROCESAR": "0",
        "EXTRAVIADA": "0",
        "SINIESTRADA": "0",
        "INCOMPLETA": "0",
        "SIN_FIRMA": "0",
        "A_INSTALAR": "1",
        "MESAS_NO_INST": "0",
        "FUSIONADAS": "0",
        "NTOTAL_AUTO": "0",
        "MESAS_HABILES": "1",
        "TOT_CIUDADANOS_VOTARON": "20",
        "ELECTORES_HABIL": "147",
        "ELECTORES_HABIL_50": "74",
        "TOTAL_JEE": "0"
    }
}