{
    "generals": {
        "generalData": {
            "ELECTORES_HABIL": "692",
            "TOT_CIUDADANOS_VOTARON": "262",
            "POR_CIUDADANOS_VOTARON": "37.86",
            "POR_ACTAS_CONTABILIZADAS": "100.00",
            "POR_ACTAS_PROCESADAS": "100.00",
            "ACTAS_PROCESADAS": "2",
            "POR_PROCESAR": "0",
            "CONTABILIZA": "2",
            "POR_POR_PROCESAR": "0.00"
        },
        "actData": {
            "FECHA": "10/12/2020",
            "HORA": "21:53 h",
            "POR_AVANCE": null
        },
        "realImages": "1"
    },
    "results": [{
            "C_CODI_AGP": "21000030",
            "AGRUPACION": "MAMANI CHIPA NAZARIO",
            "IMAGENAGRUPACION": null,
            "PORC_AVANCE_ACTA": "100.00",
            "ACTAS_COMPUTADA": "2",
            "TOTAL_MESAS": "2",
            "TOTAL_VOTOS": "185",
            "NLISTA": "30",
            "POR_EMITIDOS": "70.61",
            "POR_VALIDOS": "100.00"
        },
        {
            "C_CODI_AGP": null,
            "AGRUPACION": "TOTAL DE VOTOS VALIDOS",
            "IMAGENAGRUPACION": null,
            "PORC_AVANCE_ACTA": null,
            "ACTAS_COMPUTADA": null,
            "TOTAL_MESAS": null,
            "TOTAL_VOTOS": "185",
            "NLISTA": null,
            "POR_EMITIDOS": "70.61",
            "POR_VALIDOS": "100.00"
        },
        {
            "C_CODI_AGP": "80",
            "AGRUPACION": "VOTOS EN BLANCO",
            "IMAGENAGRUPACION": null,
            "PORC_AVANCE_ACTA": "200.00",
            "ACTAS_COMPUTADA": "2",
            "TOTAL_MESAS": "2",
            "TOTAL_VOTOS": "4",
            "NLISTA": null,
            "POR_EMITIDOS": "1.53",
            "POR_VALIDOS": null
        },
        {
            "C_CODI_AGP": "81",
            "AGRUPACION": "VOTOS NULOS",
            "IMAGENAGRUPACION": null,
            "PORC_AVANCE_ACTA": "200.00",
            "ACTAS_COMPUTADA": "2",
            "TOTAL_MESAS": "2",
            "TOTAL_VOTOS": "73",
            "NLISTA": null,
            "POR_EMITIDOS": "27.86",
            "POR_VALIDOS": null
        },
        {
            "C_CODI_AGP": null,
            "AGRUPACION": "TOTAL DE VOTOS EMITIDOS",
            "IMAGENAGRUPACION": null,
            "PORC_AVANCE_ACTA": null,
            "ACTAS_COMPUTADA": null,
            "TOTAL_MESAS": null,
            "TOTAL_VOTOS": "262",
            "NLISTA": null,
            "POR_EMITIDOS": "100.00",
            "POR_VALIDOS": null
        }
    ],
    "summary": {
        "CCODI_UBIGEO": "160000",
        "CONTABILIZA": "2",
        "CONT_NORMAL": "2",
        "IMPUGNADA": "0",
        "ERROR_MAT": "0",
        "MESAS_INSTALADAS": "2",
        "ACTAS_PROCESADAS": "2",
        "SOL_NULIDAD": "0",
        "ILEGIBLE": "0",
        "PENDIENTE": "0",
        "OTRAS_OBS": "0",
        "SIN_DATOS": "0",
        "CONT_ANULADA": "0",
        "POR_PROCESAR": "0",
        "EXTRAVIADA": "0",
        "SINIESTRADA": "0",
        "INCOMPLETA": "0",
        "SIN_FIRMA": "0",
        "A_INSTALAR": "2",
        "MESAS_NO_INST": "0",
        "FUSIONADAS": "0",
        "NTOTAL_AUTO": "0",
        "MESAS_HABILES": "2",
        "TOT_CIUDADANOS_VOTARON": "262",
        "ELECTORES_HABIL": "692",
        "ELECTORES_HABIL_50": "347",
        "TOTAL_JEE": "0"
    }
}