{
    "departments": [{
        "CDGO_DEP": "020000",
        "DESC_DEP": "ANCASH",
        "CDGO_PADRE": "000000"
    }, {
        "CDGO_DEP": "030000",
        "DESC_DEP": "APURIMAC",
        "CDGO_PADRE": "000000"
    }, {
        "CDGO_DEP": "070000",
        "DESC_DEP": "CUSCO",
        "CDGO_PADRE": "000000"
    }, {
        "CDGO_DEP": "080000",
        "DESC_DEP": "HUANCAVELICA",
        "CDGO_PADRE": "000000"
    }, {
        "CDGO_DEP": "090000",
        "DESC_DEP": "HUANUCO",
        "CDGO_PADRE": "000000"
    }, {
        "CDGO_DEP": "100000",
        "DESC_DEP": "ICA",
        "CDGO_PADRE": "000000"
    }, {
        "CDGO_DEP": "110000",
        "DESC_DEP": "JUNIN",
        "CDGO_PADRE": "000000"
    }, {
        "CDGO_DEP": "140000",
        "DESC_DEP": "LIMA",
        "CDGO_PADRE": "000000"
    }, {
        "CDGO_DEP": "190000",
        "DESC_DEP": "PIURA",
        "CDGO_PADRE": "000000"
    }, {
        "CDGO_DEP": "200000",
        "DESC_DEP": "PUNO",
        "CDGO_PADRE": "000000"
    }, {
        "CDGO_DEP": "220000",
        "DESC_DEP": "TACNA",
        "CDGO_PADRE": "000000"
    }],
    "provinces": [{
        "CDGO_PROV": "030200",
        "DESC_PROV": "AYMARAES",
        "CDGO_PADRE": "030000"
    }, {
        "CDGO_PROV": "100200",
        "DESC_PROV": "CHINCHA",
        "CDGO_PADRE": "100000"
    }, {
        "CDGO_PROV": "030500",
        "DESC_PROV": "COTABAMBAS",
        "CDGO_PADRE": "030000"
    }, {
        "CDGO_PROV": "110100",
        "DESC_PROV": "HUANCAYO",
        "CDGO_PADRE": "110000"
    }, {
        "CDGO_PROV": "020100",
        "DESC_PROV": "HUARAZ",
        "CDGO_PADRE": "020000"
    }, {
        "CDGO_PROV": "140600",
        "DESC_PROV": "HUAROCHIRI",
        "CDGO_PADRE": "140000"
    }, {
        "CDGO_PROV": "090500",
        "DESC_PROV": "MARAÑON",
        "CDGO_PADRE": "090000"
    }, {
        "CDGO_PROV": "071000",
        "DESC_PROV": "PARURO",
        "CDGO_PADRE": "070000"
    }, {
        "CDGO_PROV": "220100",
        "DESC_PROV": "TACNA",
        "CDGO_PADRE": "220000"
    }, {
        "CDGO_PROV": "190700",
        "DESC_PROV": "TALARA",
        "CDGO_PADRE": "190000"
    }, {
        "CDGO_PROV": "080500",
        "DESC_PROV": "TAYACAJA",
        "CDGO_PADRE": "080000"
    }, {
        "CDGO_PROV": "140700",
        "DESC_PROV": "YAUYOS",
        "CDGO_PADRE": "140000"
    }, {
        "CDGO_PROV": "201000",
        "DESC_PROV": "YUNGUYO",
        "CDGO_PADRE": "200000"
    }],
    "districts": [{
        "CDGO_DIST": "020107",
        "DESC_DIST": "LA LIBERTAD",
        "CDGO_PADRE": "020100",
        "C_DESC_DEPARTAMENTO": "ANCASH",
        "C_DESC_PROVINCIA": "HUARAZ"
    }, {
        "CDGO_DIST": "030217",
        "DESC_DIST": "JUSTO APU SAHUARAURA",
        "CDGO_PADRE": "030200",
        "C_DESC_DEPARTAMENTO": "APURIMAC",
        "C_DESC_PROVINCIA": "AYMARAES"
    }, {
        "CDGO_DIST": "030503",
        "DESC_DIST": "COTABAMBAS",
        "CDGO_PADRE": "030500",
        "C_DESC_DEPARTAMENTO": "APURIMAC",
        "C_DESC_PROVINCIA": "COTABAMBAS"
    }, {
        "CDGO_DIST": "071009",
        "DESC_DIST": "PILLPINTO",
        "CDGO_PADRE": "071000",
        "C_DESC_DEPARTAMENTO": "CUSCO",
        "C_DESC_PROVINCIA": "PARURO"
    }, {
        "CDGO_DIST": "080515",
        "DESC_DIST": "ÑAHUIMPUQUIO",
        "CDGO_PADRE": "080500",
        "C_DESC_DEPARTAMENTO": "HUANCAVELICA",
        "C_DESC_PROVINCIA": "TAYACAJA"
    }, {
        "CDGO_DIST": "090505",
        "DESC_DIST": "SAN BUENAVENTURA",
        "CDGO_PADRE": "090500",
        "C_DESC_DEPARTAMENTO": "HUANUCO",
        "C_DESC_PROVINCIA": "MARAÑON"
    }, {
        "CDGO_DIST": "100202",
        "DESC_DIST": "CHAVIN",
        "CDGO_PADRE": "100200",
        "C_DESC_DEPARTAMENTO": "ICA",
        "C_DESC_PROVINCIA": "CHINCHA"
    }, {
        "CDGO_DIST": "110120",
        "DESC_DIST": "HUAYUCACHI",
        "CDGO_PADRE": "110100",
        "C_DESC_DEPARTAMENTO": "JUNIN",
        "C_DESC_PROVINCIA": "HUANCAYO"
    }, {
        "CDGO_DIST": "140611",
        "DESC_DIST": "LANGA",
        "CDGO_PADRE": "140600",
        "C_DESC_DEPARTAMENTO": "LIMA",
        "C_DESC_PROVINCIA": "HUAROCHIRI"
    }, {
        "CDGO_DIST": "140725",
        "DESC_DIST": "TAURIPAMPA",
        "CDGO_PADRE": "140700",
        "C_DESC_DEPARTAMENTO": "LIMA",
        "C_DESC_PROVINCIA": "YAUYOS"
    }, {
        "CDGO_DIST": "190704",
        "DESC_DIST": "LOBITOS",
        "CDGO_PADRE": "190700",
        "C_DESC_DEPARTAMENTO": "PIURA",
        "C_DESC_PROVINCIA": "TALARA"
    }, {
        "CDGO_DIST": "201005",
        "DESC_DIST": "CUTURAPI",
        "CDGO_PADRE": "201000",
        "C_DESC_DEPARTAMENTO": "PUNO",
        "C_DESC_PROVINCIA": "YUNGUYO"
    }, {
        "CDGO_DIST": "220110",
        "DESC_DIST": "SAMA",
        "CDGO_PADRE": "220100",
        "C_DESC_DEPARTAMENTO": "TACNA",
        "C_DESC_PROVINCIA": "TACNA"
    }]
}