{
    "totalNacional": {
        "TOT_ASISTENTES": "5,143",
        "POR_TOT_ASISTENTES": "9.256",
        "ELECCION": "CANDIDATO REGIONAL",
        "TOT_AUSENTES": "50,418",
        "POR_TOT_AUSENTES": "90.744",
        "TOT_ELECTORES_HABILES": "55,561",
        "TOT_ASISTENTES_2": "12,800",
        "POR_TOT_ASISTENTES_2": "7.672",
        "ELECCION_2": "CANDIDATO MUNICIPAL MÚLTIPLE",
        "TOT_AUSENTES_2": "154,030",
        "POR_TOT_AUSENTES_2": "92.328",
        "TOT_ELECTORES_HABILES_2": "166,830"
    },
    "totalNacional2": {
        "TOT_ASISTENTES": "5,143",
        "POR_TOT_ASISTENTES": "9.256",
        "ELECCION": "CANDIDATO REGIONAL",
        "TOT_AUSENTES": "50,418",
        "POR_TOT_AUSENTES": "90.744",
        "TOT_ELECTORES_HABILES": "55,561",
        "TOT_ASISTENTES_2": "12,800",
        "POR_TOT_ASISTENTES_2": "7.672",
        "ELECCION_2": "CANDIDATO MUNICIPAL MÚLTIPLE",
        "TOT_AUSENTES_2": "154,030",
        "POR_TOT_AUSENTES_2": "92.328",
        "TOT_ELECTORES_HABILES_2": "166,830"
    },
    "lastAct": {
        "FECHA": "16/05/2022",
        "HORA": "12:41 h",
        "POR_AVANCE": "  90.710"
    }
}