{
    "generals": {
        "generalData": {
            "ELECTORES_HABIL": "4,751",
            "TOT_CIUDADANOS_VOTARON": "1,196",
            "POR_CIUDADANOS_VOTARON": "25.17",
            "POR_ACTAS_CONTABILIZADAS": "100.00",
            "POR_ACTAS_PROCESADAS": "100.00",
            "ACTAS_PROCESADAS": "9",
            "POR_PROCESAR": "0",
            "CONTABILIZA": "9",
            "POR_POR_PROCESAR": "0.00"
        },
        "actData": {
            "FECHA": "10/12/2020",
            "HORA": "21:53 h",
            "POR_AVANCE": null
        },
        "realImages": "1"
    },
    "results": [{
            "C_CODI_AGP": "21000029",
            "AGRUPACION": "CAYLLAHUA ONQQUE MARCELO SABINO",
            "IMAGENAGRUPACION": null,
            "PORC_AVANCE_ACTA": "100.00",
            "ACTAS_COMPUTADA": "9",
            "TOTAL_MESAS": "9",
            "TOTAL_VOTOS": "992",
            "NLISTA": "29",
            "POR_EMITIDOS": "82.94",
            "POR_VALIDOS": "100.00"
        },
        {
            "C_CODI_AGP": null,
            "AGRUPACION": "TOTAL DE VOTOS VALIDOS",
            "IMAGENAGRUPACION": null,
            "PORC_AVANCE_ACTA": null,
            "ACTAS_COMPUTADA": null,
            "TOTAL_MESAS": null,
            "TOTAL_VOTOS": "992",
            "NLISTA": null,
            "POR_EMITIDOS": "82.94",
            "POR_VALIDOS": "100.00"
        },
        {
            "C_CODI_AGP": "80",
            "AGRUPACION": "VOTOS EN BLANCO",
            "IMAGENAGRUPACION": null,
            "PORC_AVANCE_ACTA": "700.00",
            "ACTAS_COMPUTADA": "9",
            "TOTAL_MESAS": "9",
            "TOTAL_VOTOS": "30",
            "NLISTA": null,
            "POR_EMITIDOS": "2.51",
            "POR_VALIDOS": null
        },
        {
            "C_CODI_AGP": "81",
            "AGRUPACION": "VOTOS NULOS",
            "IMAGENAGRUPACION": null,
            "PORC_AVANCE_ACTA": "700.00",
            "ACTAS_COMPUTADA": "9",
            "TOTAL_MESAS": "9",
            "TOTAL_VOTOS": "174",
            "NLISTA": null,
            "POR_EMITIDOS": "14.55",
            "POR_VALIDOS": null
        },
        {
            "C_CODI_AGP": null,
            "AGRUPACION": "TOTAL DE VOTOS EMITIDOS",
            "IMAGENAGRUPACION": null,
            "PORC_AVANCE_ACTA": null,
            "ACTAS_COMPUTADA": null,
            "TOTAL_MESAS": null,
            "TOTAL_VOTOS": "1,196",
            "NLISTA": null,
            "POR_EMITIDOS": "100.00",
            "POR_VALIDOS": null
        }
    ],
    "summary": {
        "CCODI_UBIGEO": "150000",
        "CONTABILIZA": "9",
        "CONT_NORMAL": "9",
        "IMPUGNADA": "0",
        "ERROR_MAT": "0",
        "MESAS_INSTALADAS": "9",
        "ACTAS_PROCESADAS": "9",
        "SOL_NULIDAD": "0",
        "ILEGIBLE": "0",
        "PENDIENTE": "0",
        "OTRAS_OBS": "0",
        "SIN_DATOS": "0",
        "CONT_ANULADA": "0",
        "POR_PROCESAR": "0",
        "EXTRAVIADA": "0",
        "SINIESTRADA": "0",
        "INCOMPLETA": "0",
        "SIN_FIRMA": "0",
        "A_INSTALAR": "9",
        "MESAS_NO_INST": "0",
        "FUSIONADAS": "0",
        "NTOTAL_AUTO": "0",
        "MESAS_HABILES": "9",
        "TOT_CIUDADANOS_VOTARON": "1,196",
        "ELECTORES_HABIL": "4,751",
        "ELECTORES_HABIL_50": "2,377",
        "TOTAL_JEE": "0"
    }
}