{
    "regions": [{
        "CDGO_REG": "R47027",
        "DESC_REG": "MACRO REGION SUR",
        "CDGO_PADRE": "000000"
    }, {
        "CDGO_REG": "R47028",
        "DESC_REG": "MACRO REGION CENTRO",
        "CDGO_PADRE": "000000"
    }, {
        "CDGO_REG": "R47026",
        "DESC_REG": "MACRO REGION NORTE",
        "CDGO_PADRE": "000000"
    }, {
        "CDGO_REG": "R47029",
        "DESC_REG": "MACRO REGION ORIENTE",
        "CDGO_PADRE": "000000"
    }, {
        "CDGO_REG": "R47030",
        "DESC_REG": "MACRO REGION LIMA",
        "CDGO_PADRE": "000000"
    }],
    "departments": [{
        "CDGO_DEP": "010000",
        "DESC_DEP": "AMAZONAS",
        "CDGO_PADRE": "R47026"
    }, {
        "CDGO_DEP": "020000",
        "DESC_DEP": "ANCASH",
        "CDGO_PADRE": "R47026"
    }, {
        "CDGO_DEP": "040000",
        "DESC_DEP": "AREQUIPA",
        "CDGO_PADRE": "R47027"
    }, {
        "CDGO_DEP": "050000",
        "DESC_DEP": "AYACUCHO",
        "CDGO_PADRE": "R47027"
    }, {
        "CDGO_DEP": "240000",
        "DESC_DEP": "CALLAO",
        "CDGO_PADRE": "R47030"
    }, {
        "CDGO_DEP": "070000",
        "DESC_DEP": "CUSCO",
        "CDGO_PADRE": "R47027"
    }, {
        "CDGO_DEP": "110000",
        "DESC_DEP": "JUNIN",
        "CDGO_PADRE": "R47028"
    }, {
        "CDGO_DEP": "120000",
        "DESC_DEP": "LA LIBERTAD",
        "CDGO_PADRE": "R47026"
    }, {
        "CDGO_DEP": "130000",
        "DESC_DEP": "LAMBAYEQUE",
        "CDGO_PADRE": "R47026"
    }, {
        "CDGO_DEP": "140000",
        "DESC_DEP": "LIMA",
        "CDGO_PADRE": "R47028"
    }, {
        "CDGO_DEP": "260000",
        "DESC_DEP": "LIMA - METROPOLITANA",
        "CDGO_PADRE": "R47030"
    }, {
        "CDGO_DEP": "150000",
        "DESC_DEP": "LORETO",
        "CDGO_PADRE": "R47029"
    }, {
        "CDGO_DEP": "160000",
        "DESC_DEP": "MADRE DE DIOS",
        "CDGO_PADRE": "R47029"
    }, {
        "CDGO_DEP": "190000",
        "DESC_DEP": "PIURA",
        "CDGO_PADRE": "R47026"
    }, {
        "CDGO_DEP": "220000",
        "DESC_DEP": "TACNA",
        "CDGO_PADRE": "R47027"
    }],
    "provinces": [{
        "CDGO_PROV": "040100",
        "DESC_PROV": "AREQUIPA",
        "CDGO_PADRE": "040000"
    }, {
        "CDGO_PROV": "240100",
        "DESC_PROV": "CALLAO",
        "CDGO_PADRE": "240000"
    }, {
        "CDGO_PROV": "140400",
        "DESC_PROV": "CAÑETE",
        "CDGO_PADRE": "140000"
    }, {
        "CDGO_PROV": "040400",
        "DESC_PROV": "CARAVELI",
        "CDGO_PADRE": "040000"
    }, {
        "CDGO_PROV": "010100",
        "DESC_PROV": "CHACHAPOYAS",
        "CDGO_PADRE": "010000"
    }, {
        "CDGO_PROV": "130100",
        "DESC_PROV": "CHICLAYO",
        "CDGO_PADRE": "130000"
    }, {
        "CDGO_PROV": "070100",
        "DESC_PROV": "CUSCO",
        "CDGO_PADRE": "070000"
    }, {
        "CDGO_PROV": "130200",
        "DESC_PROV": "FERREÑAFE",
        "CDGO_PADRE": "130000"
    }, {
        "CDGO_PROV": "050100",
        "DESC_PROV": "HUAMANGA",
        "CDGO_PADRE": "050000"
    }, {
        "CDGO_PROV": "110100",
        "DESC_PROV": "HUANCAYO",
        "CDGO_PADRE": "110000"
    }, {
        "CDGO_PROV": "050300",
        "DESC_PROV": "HUANTA",
        "CDGO_PADRE": "050000"
    }, {
        "CDGO_PROV": "020100",
        "DESC_PROV": "HUARAZ",
        "CDGO_PADRE": "020000"
    }, {
        "CDGO_PROV": "140500",
        "DESC_PROV": "HUAURA",
        "CDGO_PADRE": "140000"
    }, {
        "CDGO_PROV": "130300",
        "DESC_PROV": "LAMBAYEQUE",
        "CDGO_PADRE": "130000"
    }, {
        "CDGO_PROV": "140100",
        "DESC_PROV": "LIMA",
        "CDGO_PADRE": "260000"
    }, {
        "CDGO_PROV": "150100",
        "DESC_PROV": "MAYNAS",
        "CDGO_PADRE": "150000"
    }, {
        "CDGO_PROV": "190100",
        "DESC_PROV": "PIURA",
        "CDGO_PADRE": "190000"
    }, {
        "CDGO_PROV": "021300",
        "DESC_PROV": "SANTA",
        "CDGO_PADRE": "020000"
    }, {
        "CDGO_PROV": "190600",
        "DESC_PROV": "SULLANA",
        "CDGO_PADRE": "190000"
    }, {
        "CDGO_PROV": "220100",
        "DESC_PROV": "TACNA",
        "CDGO_PADRE": "220000"
    }, {
        "CDGO_PROV": "160100",
        "DESC_PROV": "TAMBOPATA",
        "CDGO_PADRE": "160000"
    }, {
        "CDGO_PROV": "120100",
        "DESC_PROV": "TRUJILLO",
        "CDGO_PADRE": "120000"
    }, {
        "CDGO_PROV": "010700",
        "DESC_PROV": "UTCUBAMBA",
        "CDGO_PADRE": "010000"
    }, {
        "CDGO_PROV": "110600",
        "DESC_PROV": "YAULI",
        "CDGO_PADRE": "110000"
    }],
    "districts": [{
        "CDGO_DIST": "010000",
        "DESC_DIST": "AMAZONAS",
        "CDGO_PADRE": "000000",
        "C_DESC_DEPARTAMENTO": "AMAZONAS",
        "C_DESC_PROVINCIA": "AMAZONAS"
    }, {
        "CDGO_DIST": "010100",
        "DESC_DIST": "CHACHAPOYAS",
        "CDGO_PADRE": "010000",
        "C_DESC_DEPARTAMENTO": "AMAZONAS",
        "C_DESC_PROVINCIA": "CHACHAPOYAS"
    }, {
        "CDGO_DIST": "010101",
        "DESC_DIST": "CHACHAPOYAS",
        "CDGO_PADRE": "010100",
        "C_DESC_DEPARTAMENTO": "AMAZONAS",
        "C_DESC_PROVINCIA": "CHACHAPOYAS"
    }, {
        "CDGO_DIST": "010700",
        "DESC_DIST": "UTCUBAMBA",
        "CDGO_PADRE": "010000",
        "C_DESC_DEPARTAMENTO": "AMAZONAS",
        "C_DESC_PROVINCIA": "UTCUBAMBA"
    }, {
        "CDGO_DIST": "010701",
        "DESC_DIST": "BAGUA GRANDE",
        "CDGO_PADRE": "010700",
        "C_DESC_DEPARTAMENTO": "AMAZONAS",
        "C_DESC_PROVINCIA": "UTCUBAMBA"
    }, {
        "CDGO_DIST": "020000",
        "DESC_DIST": "ANCASH",
        "CDGO_PADRE": "000000",
        "C_DESC_DEPARTAMENTO": "ANCASH",
        "C_DESC_PROVINCIA": "ANCASH"
    }, {
        "CDGO_DIST": "020100",
        "DESC_DIST": "HUARAZ",
        "CDGO_PADRE": "020000",
        "C_DESC_DEPARTAMENTO": "ANCASH",
        "C_DESC_PROVINCIA": "HUARAZ"
    }, {
        "CDGO_DIST": "020101",
        "DESC_DIST": "HUARAZ",
        "CDGO_PADRE": "020100",
        "C_DESC_DEPARTAMENTO": "ANCASH",
        "C_DESC_PROVINCIA": "HUARAZ"
    }, {
        "CDGO_DIST": "021300",
        "DESC_DIST": "SANTA",
        "CDGO_PADRE": "020000",
        "C_DESC_DEPARTAMENTO": "ANCASH",
        "C_DESC_PROVINCIA": "SANTA"
    }, {
        "CDGO_DIST": "021301",
        "DESC_DIST": "CHIMBOTE",
        "CDGO_PADRE": "021300",
        "C_DESC_DEPARTAMENTO": "ANCASH",
        "C_DESC_PROVINCIA": "SANTA"
    }, {
        "CDGO_DIST": "040000",
        "DESC_DIST": "AREQUIPA",
        "CDGO_PADRE": "000000",
        "C_DESC_DEPARTAMENTO": "AREQUIPA",
        "C_DESC_PROVINCIA": "AREQUIPA"
    }, {
        "CDGO_DIST": "040100",
        "DESC_DIST": "AREQUIPA",
        "CDGO_PADRE": "040000",
        "C_DESC_DEPARTAMENTO": "AREQUIPA",
        "C_DESC_PROVINCIA": "AREQUIPA"
    }, {
        "CDGO_DIST": "040101",
        "DESC_DIST": "AREQUIPA",
        "CDGO_PADRE": "040100",
        "C_DESC_DEPARTAMENTO": "AREQUIPA",
        "C_DESC_PROVINCIA": "AREQUIPA"
    }, {
        "CDGO_DIST": "040400",
        "DESC_DIST": "CARAVELI",
        "CDGO_PADRE": "040000",
        "C_DESC_DEPARTAMENTO": "AREQUIPA",
        "C_DESC_PROVINCIA": "CARAVELI"
    }, {
        "CDGO_DIST": "040401",
        "DESC_DIST": "CARAVELI",
        "CDGO_PADRE": "040400",
        "C_DESC_DEPARTAMENTO": "AREQUIPA",
        "C_DESC_PROVINCIA": "CARAVELI"
    }, {
        "CDGO_DIST": "050000",
        "DESC_DIST": "AYACUCHO",
        "CDGO_PADRE": "000000",
        "C_DESC_DEPARTAMENTO": "AYACUCHO",
        "C_DESC_PROVINCIA": "AYACUCHO"
    }, {
        "CDGO_DIST": "050100",
        "DESC_DIST": "HUAMANGA",
        "CDGO_PADRE": "050000",
        "C_DESC_DEPARTAMENTO": "AYACUCHO",
        "C_DESC_PROVINCIA": "HUAMANGA"
    }, {
        "CDGO_DIST": "050101",
        "DESC_DIST": "AYACUCHO",
        "CDGO_PADRE": "050100",
        "C_DESC_DEPARTAMENTO": "AYACUCHO",
        "C_DESC_PROVINCIA": "HUAMANGA"
    }, {
        "CDGO_DIST": "050300",
        "DESC_DIST": "HUANTA",
        "CDGO_PADRE": "050000",
        "C_DESC_DEPARTAMENTO": "AYACUCHO",
        "C_DESC_PROVINCIA": "HUANTA"
    }, {
        "CDGO_DIST": "050301",
        "DESC_DIST": "HUANTA",
        "CDGO_PADRE": "050300",
        "C_DESC_DEPARTAMENTO": "AYACUCHO",
        "C_DESC_PROVINCIA": "HUANTA"
    }, {
        "CDGO_DIST": "070000",
        "DESC_DIST": "CUSCO",
        "CDGO_PADRE": "000000",
        "C_DESC_DEPARTAMENTO": "CUSCO",
        "C_DESC_PROVINCIA": "CUSCO"
    }, {
        "CDGO_DIST": "070100",
        "DESC_DIST": "CUSCO",
        "CDGO_PADRE": "070000",
        "C_DESC_DEPARTAMENTO": "CUSCO",
        "C_DESC_PROVINCIA": "CUSCO"
    }, {
        "CDGO_DIST": "070101",
        "DESC_DIST": "CUSCO",
        "CDGO_PADRE": "070100",
        "C_DESC_DEPARTAMENTO": "CUSCO",
        "C_DESC_PROVINCIA": "CUSCO"
    }, {
        "CDGO_DIST": "110000",
        "DESC_DIST": "JUNIN",
        "CDGO_PADRE": "000000",
        "C_DESC_DEPARTAMENTO": "JUNIN",
        "C_DESC_PROVINCIA": "JUNIN"
    }, {
        "CDGO_DIST": "110100",
        "DESC_DIST": "HUANCAYO",
        "CDGO_PADRE": "110000",
        "C_DESC_DEPARTAMENTO": "JUNIN",
        "C_DESC_PROVINCIA": "HUANCAYO"
    }, {
        "CDGO_DIST": "110101",
        "DESC_DIST": "HUANCAYO",
        "CDGO_PADRE": "110100",
        "C_DESC_DEPARTAMENTO": "JUNIN",
        "C_DESC_PROVINCIA": "HUANCAYO"
    }, {
        "CDGO_DIST": "110600",
        "DESC_DIST": "YAULI",
        "CDGO_PADRE": "110000",
        "C_DESC_DEPARTAMENTO": "JUNIN",
        "C_DESC_PROVINCIA": "YAULI"
    }, {
        "CDGO_DIST": "110601",
        "DESC_DIST": "LA OROYA",
        "CDGO_PADRE": "110600",
        "C_DESC_DEPARTAMENTO": "JUNIN",
        "C_DESC_PROVINCIA": "YAULI"
    }, {
        "CDGO_DIST": "120000",
        "DESC_DIST": "LA LIBERTAD",
        "CDGO_PADRE": "000000",
        "C_DESC_DEPARTAMENTO": "LA LIBERTAD",
        "C_DESC_PROVINCIA": "LA LIBERTAD"
    }, {
        "CDGO_DIST": "120100",
        "DESC_DIST": "TRUJILLO",
        "CDGO_PADRE": "120000",
        "C_DESC_DEPARTAMENTO": "LA LIBERTAD",
        "C_DESC_PROVINCIA": "TRUJILLO"
    }, {
        "CDGO_DIST": "120101",
        "DESC_DIST": "TRUJILLO",
        "CDGO_PADRE": "120100",
        "C_DESC_DEPARTAMENTO": "LA LIBERTAD",
        "C_DESC_PROVINCIA": "TRUJILLO"
    }, {
        "CDGO_DIST": "130000",
        "DESC_DIST": "LAMBAYEQUE",
        "CDGO_PADRE": "000000",
        "C_DESC_DEPARTAMENTO": "LAMBAYEQUE",
        "C_DESC_PROVINCIA": "LAMBAYEQUE"
    }, {
        "CDGO_DIST": "130100",
        "DESC_DIST": "CHICLAYO",
        "CDGO_PADRE": "130000",
        "C_DESC_DEPARTAMENTO": "LAMBAYEQUE",
        "C_DESC_PROVINCIA": "CHICLAYO"
    }, {
        "CDGO_DIST": "130101",
        "DESC_DIST": "CHICLAYO",
        "CDGO_PADRE": "130100",
        "C_DESC_DEPARTAMENTO": "LAMBAYEQUE",
        "C_DESC_PROVINCIA": "CHICLAYO"
    }, {
        "CDGO_DIST": "130200",
        "DESC_DIST": "FERREÑAFE",
        "CDGO_PADRE": "130000",
        "C_DESC_DEPARTAMENTO": "LAMBAYEQUE",
        "C_DESC_PROVINCIA": "FERREÑAFE"
    }, {
        "CDGO_DIST": "130201",
        "DESC_DIST": "FERREÑAFE",
        "CDGO_PADRE": "130200",
        "C_DESC_DEPARTAMENTO": "LAMBAYEQUE",
        "C_DESC_PROVINCIA": "FERREÑAFE"
    }, {
        "CDGO_DIST": "130300",
        "DESC_DIST": "LAMBAYEQUE",
        "CDGO_PADRE": "130000",
        "C_DESC_DEPARTAMENTO": "LAMBAYEQUE",
        "C_DESC_PROVINCIA": "LAMBAYEQUE"
    }, {
        "CDGO_DIST": "130301",
        "DESC_DIST": "LAMBAYEQUE",
        "CDGO_PADRE": "130300",
        "C_DESC_DEPARTAMENTO": "LAMBAYEQUE",
        "C_DESC_PROVINCIA": "LAMBAYEQUE"
    }, {
        "CDGO_DIST": "140000",
        "DESC_DIST": "LIMA",
        "CDGO_PADRE": "000000",
        "C_DESC_DEPARTAMENTO": "LIMA",
        "C_DESC_PROVINCIA": "LIMA"
    }, {
        "CDGO_DIST": "140100",
        "DESC_DIST": "LIMA",
        "CDGO_PADRE": "140000",
        "C_DESC_DEPARTAMENTO": "LIMA",
        "C_DESC_PROVINCIA": "LIMA"
    }, {
        "CDGO_DIST": "140101",
        "DESC_DIST": "LIMA",
        "CDGO_PADRE": "140100",
        "C_DESC_DEPARTAMENTO": "LIMA",
        "C_DESC_PROVINCIA": "LIMA"
    }, {
        "CDGO_DIST": "140106",
        "DESC_DIST": "COMAS",
        "CDGO_PADRE": "140100",
        "C_DESC_DEPARTAMENTO": "LIMA",
        "C_DESC_PROVINCIA": "LIMA"
    }, {
        "CDGO_DIST": "140136",
        "DESC_DIST": "SAN JUAN DE MIRAFLORES",
        "CDGO_PADRE": "140100",
        "C_DESC_DEPARTAMENTO": "LIMA",
        "C_DESC_PROVINCIA": "LIMA"
    }, {
        "CDGO_DIST": "140137",
        "DESC_DIST": "SAN JUAN DE LURIGANCHO",
        "CDGO_PADRE": "140100",
        "C_DESC_DEPARTAMENTO": "LIMA",
        "C_DESC_PROVINCIA": "LIMA"
    }, {
        "CDGO_DIST": "140140",
        "DESC_DIST": "SAN BORJA",
        "CDGO_PADRE": "140100",
        "C_DESC_DEPARTAMENTO": "LIMA",
        "C_DESC_PROVINCIA": "LIMA"
    }, {
        "CDGO_DIST": "140400",
        "DESC_DIST": "CAÑETE",
        "CDGO_PADRE": "140000",
        "C_DESC_DEPARTAMENTO": "LIMA",
        "C_DESC_PROVINCIA": "CAÑETE"
    }, {
        "CDGO_DIST": "140401",
        "DESC_DIST": "SAN VICENTE DE CAÑETE",
        "CDGO_PADRE": "140400",
        "C_DESC_DEPARTAMENTO": "LIMA",
        "C_DESC_PROVINCIA": "CAÑETE"
    }, {
        "CDGO_DIST": "140500",
        "DESC_DIST": "HUAURA",
        "CDGO_PADRE": "140000",
        "C_DESC_DEPARTAMENTO": "LIMA",
        "C_DESC_PROVINCIA": "HUAURA"
    }, {
        "CDGO_DIST": "140501",
        "DESC_DIST": "HUACHO",
        "CDGO_PADRE": "140500",
        "C_DESC_DEPARTAMENTO": "LIMA",
        "C_DESC_PROVINCIA": "HUAURA"
    }, {
        "CDGO_DIST": "150000",
        "DESC_DIST": "LORETO",
        "CDGO_PADRE": "000000",
        "C_DESC_DEPARTAMENTO": "LORETO",
        "C_DESC_PROVINCIA": "LORETO"
    }, {
        "CDGO_DIST": "150100",
        "DESC_DIST": "MAYNAS",
        "CDGO_PADRE": "150000",
        "C_DESC_DEPARTAMENTO": "LORETO",
        "C_DESC_PROVINCIA": "MAYNAS"
    }, {
        "CDGO_DIST": "150101",
        "DESC_DIST": "IQUITOS",
        "CDGO_PADRE": "150100",
        "C_DESC_DEPARTAMENTO": "LORETO",
        "C_DESC_PROVINCIA": "MAYNAS"
    }, {
        "CDGO_DIST": "160000",
        "DESC_DIST": "MADRE DE DIOS",
        "CDGO_PADRE": "000000",
        "C_DESC_DEPARTAMENTO": "MADRE DE DIOS",
        "C_DESC_PROVINCIA": "MADRE DE DIOS"
    }, {
        "CDGO_DIST": "160100",
        "DESC_DIST": "TAMBOPATA",
        "CDGO_PADRE": "160000",
        "C_DESC_DEPARTAMENTO": "MADRE DE DIOS",
        "C_DESC_PROVINCIA": "TAMBOPATA"
    }, {
        "CDGO_DIST": "160101",
        "DESC_DIST": "TAMBOPATA",
        "CDGO_PADRE": "160100",
        "C_DESC_DEPARTAMENTO": "MADRE DE DIOS",
        "C_DESC_PROVINCIA": "TAMBOPATA"
    }, {
        "CDGO_DIST": "190000",
        "DESC_DIST": "PIURA",
        "CDGO_PADRE": "000000",
        "C_DESC_DEPARTAMENTO": "PIURA",
        "C_DESC_PROVINCIA": "PIURA"
    }, {
        "CDGO_DIST": "190100",
        "DESC_DIST": "PIURA",
        "CDGO_PADRE": "190000",
        "C_DESC_DEPARTAMENTO": "PIURA",
        "C_DESC_PROVINCIA": "PIURA"
    }, {
        "CDGO_DIST": "190101",
        "DESC_DIST": "PIURA",
        "CDGO_PADRE": "190100",
        "C_DESC_DEPARTAMENTO": "PIURA",
        "C_DESC_PROVINCIA": "PIURA"
    }, {
        "CDGO_DIST": "190600",
        "DESC_DIST": "SULLANA",
        "CDGO_PADRE": "190000",
        "C_DESC_DEPARTAMENTO": "PIURA",
        "C_DESC_PROVINCIA": "SULLANA"
    }, {
        "CDGO_DIST": "190601",
        "DESC_DIST": "SULLANA",
        "CDGO_PADRE": "190600",
        "C_DESC_DEPARTAMENTO": "PIURA",
        "C_DESC_PROVINCIA": "SULLANA"
    }, {
        "CDGO_DIST": "220000",
        "DESC_DIST": "TACNA",
        "CDGO_PADRE": "000000",
        "C_DESC_DEPARTAMENTO": "TACNA",
        "C_DESC_PROVINCIA": "TACNA"
    }, {
        "CDGO_DIST": "220100",
        "DESC_DIST": "TACNA",
        "CDGO_PADRE": "220000",
        "C_DESC_DEPARTAMENTO": "TACNA",
        "C_DESC_PROVINCIA": "TACNA"
    }, {
        "CDGO_DIST": "220101",
        "DESC_DIST": "TACNA",
        "CDGO_PADRE": "220100",
        "C_DESC_DEPARTAMENTO": "TACNA",
        "C_DESC_PROVINCIA": "TACNA"
    }, {
        "CDGO_DIST": "240000",
        "DESC_DIST": "CALLAO",
        "CDGO_PADRE": "000000",
        "C_DESC_DEPARTAMENTO": "CALLAO",
        "C_DESC_PROVINCIA": "CALLAO"
    }, {
        "CDGO_DIST": "240100",
        "DESC_DIST": "CALLAO",
        "CDGO_PADRE": "240000",
        "C_DESC_DEPARTAMENTO": "CALLAO",
        "C_DESC_PROVINCIA": "CALLAO"
    }, {
        "CDGO_DIST": "240101",
        "DESC_DIST": "CALLAO",
        "CDGO_PADRE": "240100",
        "C_DESC_DEPARTAMENTO": "CALLAO",
        "C_DESC_PROVINCIA": "CALLAO"
    }, {
        "CDGO_DIST": "240106",
        "DESC_DIST": "VENTANILLA",
        "CDGO_PADRE": "240100",
        "C_DESC_DEPARTAMENTO": "CALLAO",
        "C_DESC_PROVINCIA": "CALLAO"
    }]
}