{
  "generals": {
    "generalData": {
      "ELECTORES_HABIL": "0",
      "TOT_CIUDADANOS_VOTARON": "0",
      "POR_CIUDADANOS_VOTARON": "0.000",
      "POR_ACTAS_CONTABILIZADAS": "0.000",
      "POR_ACTAS_PROCESADAS": "0.000",
      "ACTAS_PROCESADAS": "0",
      "POR_PROCESAR": "163",
      "CONTABILIZA": "0",
      "POR_POR_PROCESAR": "100.000"
    },
    "actData": {
      "FECHA": "20/04/2022",
      "HORA": "16:25 h",
      "POR_AVANCE": null
    },
    "realImages": "0"
  },
  "results": [
    {
      "C_CODI_AGP": "00600001",
      "AGRUPACION": "LISTA N° 1",
      "IMAGENAGRUPACION": null,
      "PORC_AVANCE_ACTA": "0.000",
      "ACTAS_COMPUTADA": "0",
      "TOTAL_MESAS": "0",
      "TOTAL_VOTOS": "0",
      "NLISTA": "1.jpg",
      "C_NOPARTICIPA": null,
      "POR_VALIDOS": 0,
      "POR_EMITIDOS": 0
    },
    {
      "C_CODI_AGP": "00600002",
      "AGRUPACION": "LISTA N° 2",
      "IMAGENAGRUPACION": null,
      "PORC_AVANCE_ACTA": "0.000",
      "ACTAS_COMPUTADA": "0",
      "TOTAL_MESAS": "0",
      "TOTAL_VOTOS": "0",
      "NLISTA": "2.jpg",
      "C_NOPARTICIPA": null,
      "POR_VALIDOS": 0,
      "POR_EMITIDOS": 0
    },
    {
      "C_CODI_AGP": null,
      "AGRUPACION": "TOTAL DE VOTOS VÁLIDOS",
      "IMAGENAGRUPACION": null,
      "PORC_AVANCE_ACTA": null,
      "ACTAS_COMPUTADA": null,
      "TOTAL_MESAS": null,
      "TOTAL_VOTOS": "0",
      "NLISTA": null,
      "POR_VALIDOS": 0,
      "POR_EMITIDOS": 0
    },
    {
      "C_CODI_AGP": "80",
      "AGRUPACION": "VOTOS EN BLANCO",
      "IMAGENAGRUPACION": null,
      "PORC_AVANCE_ACTA": "0.000",
      "ACTAS_COMPUTADA": "0",
      "TOTAL_MESAS": "0",
      "TOTAL_VOTOS": "0",
      "NLISTA": null,
      "C_NOPARTICIPA": null,
      "POR_VALIDOS": null,
      "POR_EMITIDOS": 0
    },
    {
      "C_CODI_AGP": "81",
      "AGRUPACION": "VOTOS NULOS",
      "IMAGENAGRUPACION": null,
      "PORC_AVANCE_ACTA": "0.000",
      "ACTAS_COMPUTADA": "0",
      "TOTAL_MESAS": "0",
      "TOTAL_VOTOS": "0",
      "NLISTA": null,
      "C_NOPARTICIPA": null,
      "POR_VALIDOS": null,
      "POR_EMITIDOS": 0
    },
    {
      "C_CODI_AGP": null,
      "AGRUPACION": "TOTAL DE VOTOS EMITIDOS",
      "IMAGENAGRUPACION": null,
      "PORC_AVANCE_ACTA": null,
      "ACTAS_COMPUTADA": null,
      "TOTAL_MESAS": null,
      "TOTAL_VOTOS": "0",
      "NLISTA": null,
      "C_NOPARTICIPA": null,
      "POR_EMITIDOS": 0,
      "POR_VALIDOS": null
    }
  ],
  "summary": {
    "CCODI_UBIGEO": "800000",
    "CONTABILIZA": "0",
    "CONT_NORMAL": "0",
    "IMPUGNADA": "0",
    "ERROR_MAT": "0",
    "MESAS_INSTALADAS": "0",
    "ACTAS_PROCESADAS": "0",
    "SOL_NULIDAD": "0",
    "ILEGIBLE": "0",
    "PENDIENTE": "163",
    "OTRAS_OBS": "0",
    "SIN_DATOS": "0",
    "CONT_ANULADA": "0",
    "POR_PROCESAR": "163",
    "EXTRAVIADA": "0",
    "SINIESTRADA": "0",
    "INCOMPLETA": "0",
    "SIN_FIRMA": "0",
    "A_INSTALAR": "163",
    "MESAS_NO_INST": "0",
    "FUSIONADAS": "0",
    "NTOTAL_AUTO": "1,797",
    "MESAS_HABILES": "163",
    "TOT_CIUDADANOS_VOTARON": "0",
    "ELECTORES_HABIL": "0",
    "ELECTORES_HABIL_50": "0",
    "TOTAL_JEE": "0"
  }
}