{
    "generals": {
        "generalData": {
            "ELECTORES_HABIL": "1,533",
            "TOT_CIUDADANOS_VOTARON": "346",
            "POR_CIUDADANOS_VOTARON": "22.57",
            "POR_ACTAS_CONTABILIZADAS": "100.00",
            "POR_ACTAS_PROCESADAS": "100.00",
            "ACTAS_PROCESADAS": "3",
            "POR_PROCESAR": "0",
            "CONTABILIZA": "3",
            "POR_POR_PROCESAR": "0.00"
        },
        "actData": {
            "FECHA": "10/12/2020",
            "HORA": "21:53 h",
            "POR_AVANCE": null
        },
        "realImages": "1"
    },
    "results": [{
            "C_CODI_AGP": "21000023",
            "AGRUPACION": "LLAMOCTANTA CHUGDEN ROGERIO",
            "IMAGENAGRUPACION": null,
            "PORC_AVANCE_ACTA": "100.00",
            "ACTAS_COMPUTADA": "3",
            "TOTAL_MESAS": "3",
            "TOTAL_VOTOS": "67",
            "NLISTA": "23",
            "POR_EMITIDOS": "19.36",
            "POR_VALIDOS": "25.38"
        },
        {
            "C_CODI_AGP": "21000024",
            "AGRUPACION": "NAVIS SARE PEDRO EMILIO",
            "IMAGENAGRUPACION": null,
            "PORC_AVANCE_ACTA": "100.00",
            "ACTAS_COMPUTADA": "3",
            "TOTAL_MESAS": "3",
            "TOTAL_VOTOS": "197",
            "NLISTA": "24",
            "POR_EMITIDOS": "56.94",
            "POR_VALIDOS": "74.62"
        },
        {
            "C_CODI_AGP": null,
            "AGRUPACION": "TOTAL DE VOTOS VALIDOS",
            "IMAGENAGRUPACION": null,
            "PORC_AVANCE_ACTA": null,
            "ACTAS_COMPUTADA": null,
            "TOTAL_MESAS": null,
            "TOTAL_VOTOS": "264",
            "NLISTA": null,
            "POR_EMITIDOS": "76.30",
            "POR_VALIDOS": "100.00"
        },
        {
            "C_CODI_AGP": "80",
            "AGRUPACION": "VOTOS EN BLANCO",
            "IMAGENAGRUPACION": null,
            "PORC_AVANCE_ACTA": "200.00",
            "ACTAS_COMPUTADA": "3",
            "TOTAL_MESAS": "3",
            "TOTAL_VOTOS": "9",
            "NLISTA": null,
            "POR_EMITIDOS": "2.60",
            "POR_VALIDOS": null
        },
        {
            "C_CODI_AGP": "81",
            "AGRUPACION": "VOTOS NULOS",
            "IMAGENAGRUPACION": null,
            "PORC_AVANCE_ACTA": "200.00",
            "ACTAS_COMPUTADA": "3",
            "TOTAL_MESAS": "3",
            "TOTAL_VOTOS": "73",
            "NLISTA": null,
            "POR_EMITIDOS": "21.10",
            "POR_VALIDOS": null
        },
        {
            "C_CODI_AGP": null,
            "AGRUPACION": "TOTAL DE VOTOS EMITIDOS",
            "IMAGENAGRUPACION": null,
            "PORC_AVANCE_ACTA": null,
            "ACTAS_COMPUTADA": null,
            "TOTAL_MESAS": null,
            "TOTAL_VOTOS": "346",
            "NLISTA": null,
            "POR_EMITIDOS": "100.00",
            "POR_VALIDOS": null
        }
    ],
    "summary": {
        "CCODI_UBIGEO": "120000",
        "CONTABILIZA": "3",
        "CONT_NORMAL": "3",
        "IMPUGNADA": "0",
        "ERROR_MAT": "0",
        "MESAS_INSTALADAS": "3",
        "ACTAS_PROCESADAS": "3",
        "SOL_NULIDAD": "0",
        "ILEGIBLE": "0",
        "PENDIENTE": "0",
        "OTRAS_OBS": "0",
        "SIN_DATOS": "0",
        "CONT_ANULADA": "0",
        "POR_PROCESAR": "0",
        "EXTRAVIADA": "0",
        "SINIESTRADA": "0",
        "INCOMPLETA": "0",
        "SIN_FIRMA": "0",
        "A_INSTALAR": "3",
        "MESAS_NO_INST": "0",
        "FUSIONADAS": "0",
        "NTOTAL_AUTO": "0",
        "MESAS_HABILES": "3",
        "TOT_CIUDADANOS_VOTARON": "346",
        "ELECTORES_HABIL": "1,533",
        "ELECTORES_HABIL_50": "767",
        "TOTAL_JEE": "0"
    }
}