{
    "GENERAL": {
        "TOT_ACTAS": "183",
        "ACTAS_CONTABILIZADAS": "166",
        "POR_ACTAS_CONTABILIZADAS": "90.710",
        "ACTAS_PROCESADAS": "167",
        "POR_ACTAS_PROCESADAS": "91.257",
        "ACTAS_NORMALES": "166",
        "ACTAS_PENDIENTES": "16",
        "TOTAL_ACTAS_JEE": "1",
        "POR_ACTAS_JEE": "0.546",
        "ACTAS_POR_PROCESAR": "16",
        "POR_ACTAS_POR_PROCESAR": "8.743",
        "POR_PARTICIPACION": "9.256",
        "ELEC_AUSENTES": "50,418",
        "POR_AUSENTISMO": "90.744",
        "ELEC_HABILES": "55,561",
        "ELEC_VOTARON": "5,143"
    },
    "lastAct": {
        "FECHA": "16/05/2022",
        "HORA": "12:41 h",
        "POR_AVANCE": "  90.710"
    }
}