{
    "PRESIDENCIAL": {
        "TOT_ACTAS": "86,488",
        "ACTAS_CONTABILIZADAS": "86,488",
        "POR_ACTAS_CONTABILIZADAS": "100.000",
        "ACTAS_PROCESADAS": "86,488",
        "POR_ACTAS_PROCESADAS": "100.000",
        "ACTAS_NORMALES": "86,488",
        "ACTAS_PENDIENTES": "0",
        "TOTAL_ACTAS_JEE": "0",
        "POR_ACTAS_JEE": "0.000",
        "ACTAS_POR_PROCESAR": "0",
        "POR_ACTAS_POR_PROCESAR": "0.000",
        "POR_PARTICIPACION": "70.048",
        "ELEC_AUSENTES": "7,574,238",
        "POR_AUSENTISMO": "29.952",
        "ELEC_HABILES": "25,287,954",
        "ELEC_VOTARON": "17,713,716"
    },
    "CONGRESAL": {
        "TOT_ACTAS": "86,488",
        "ACTAS_CONTABILIZADAS": "86,488",
        "POR_ACTAS_CONTABILIZADAS": "100.000",
        "ACTAS_PROCESADAS": "86,488",
        "POR_ACTAS_PROCESADAS": "100.000",
        "ACTAS_NORMALES": "86,488",
        "ACTAS_PENDIENTES": "0",
        "TOTAL_ACTAS_JEE": "0",
        "POR_ACTAS_JEE": "0.000",
        "ACTAS_POR_PROCESAR": "0",
        "POR_ACTAS_POR_PROCESAR": "0.000",
        "POR_PARTICIPACION": "70.084",
        "ELEC_AUSENTES": "7,565,223",
        "POR_AUSENTISMO": "29.916",
        "ELEC_HABILES": "25,287,954",
        "ELEC_VOTARON": "17,722,731"
    },
    "PARLAMENTO": {
        "TOT_ACTAS": "86,488",
        "ACTAS_CONTABILIZADAS": "86,488",
        "POR_ACTAS_CONTABILIZADAS": "100.000",
        "ACTAS_PROCESADAS": "86,488",
        "POR_ACTAS_PROCESADAS": "100.000",
        "ACTAS_NORMALES": "86,488",
        "ACTAS_PENDIENTES": "0",
        "TOTAL_ACTAS_JEE": "0",
        "POR_ACTAS_JEE": "0.000",
        "ACTAS_POR_PROCESAR": "0",
        "POR_ACTAS_POR_PROCESAR": "0.000",
        "POR_PARTICIPACION": "70.090",
        "ELEC_AUSENTES": "7,563,655",
        "POR_AUSENTISMO": "29.910",
        "ELEC_HABILES": "25,287,954",
        "ELEC_VOTARON": "17,724,299"
    },
    "lastAct": {
        "FECHA": "31/05/2021",
        "HORA": "16:29 h",
        "POR_AVANCE": " 100.000"
    }
}